epoch,loss,val_loss
0,0.06298364855623464,0.027771953260714893
1,0.024310591389791216,0.016923514123785476
2,0.013693462071897054,0.01018631502809207
3,0.009141020872015014,0.007286101114193683
4,0.0075984252790127806,0.006447202334178964
5,0.006771809048838824,0.005918176562788942
6,0.006552640168038044,0.00553004771156806
7,0.006564490918034287,0.005310797095918138
8,0.0062066981584964105,0.00515305341806018
9,0.006175222169843505,0.005012212613852814
10,0.005773238712635407,0.004887657834855962
11,0.005888720239483542,0.004795670048775573
12,0.005844159215074286,0.004761635308476454
13,0.005722117792401877,0.004688148579008074
14,0.005805386381158181,0.004758280935332433
15,0.005638685035299334,0.0046153333615353035
16,0.005642183981030535,0.004649494512539903
17,0.005544285439260548,0.004535944614973333
18,0.005469288077470873,0.0044620302328288505
19,0.005477477526075965,0.004439847234150113
20,0.0054280019681781436,0.004370048965156737
21,0.005357711389698118,0.004403997933800239
22,0.00535244592133644,0.00438449451690789
23,0.005378286727071047,0.004332666665078454
24,0.0053907017396156,0.004254476937132269
25,0.005106112634721365,0.004261805011799433
26,0.005342131809408279,0.004158776368272082
27,0.005091896179796542,0.004153210617449295
28,0.0048727051103659115,0.004086438130431741
29,0.005116589855793431,0.0040456137496416075
30,0.00493790502708444,0.004006849037444057
31,0.004889271480424271,0.003978091708648064
32,0.0050666803929185255,0.003998179883006522
33,0.004853558424432233,0.003883231999632047
34,0.004945338944724803,0.0039230216334559575
35,0.004824684784629101,0.0037889463485887807
36,0.004804651172394701,0.003749095282833857
37,0.00451238996336599,0.003747036481738417
38,0.004553127135735474,0.003737231182211682
39,0.00469147209454629,0.003679667266209618
40,0.004542351714160153,0.0037262291682994375
41,0.004522510589860243,0.003651688851843628
42,0.004668647812431852,0.0036616333552038738
43,0.004529511633577396,0.0036602531664000956
44,0.0044883971942888444,0.0036361099763517323
45,0.004571171717444589,0.0036063383063165482
46,0.004519668325156964,0.003640623988669792
47,0.004516120733852812,0.003603005858435804
48,0.004397672069765287,0.0036390615547482233
49,0.004635866165360223,0.0037189873621065626
50,0.0044878152537616706,0.003697915325040981
51,0.004613986599920474,0.003712821440259108
52,0.004583178601172523,0.0036809248649586966
53,0.0044531103212750245,0.0037099824013945323
54,0.004466384956859249,0.0036930243523575408
55,0.00437132529256339,0.0036714996982800917
56,0.004378825322642111,0.0036772019531961533
57,0.004305971470408685,0.00367381994420661
58,0.0044467324604264636,0.0036847297295199864
59,0.004313622843854434,0.0036432290110217417
60,0.0045237639940174535,0.003712611674955787
61,0.004394850914170436,0.0036284399562721524
62,0.0043771441302987765,0.0037056753194353877
63,0.004397296795794506,0.0036726375737371766
64,0.004362104383421789,0.0036261344945250082
65,0.004306936805457879,0.0036304074824679666
66,0.00428325391215704,0.0036376609303818567
67,0.004253635021356092,0.0036347154118135778
68,0.004216920763956572,0.0035939570083921143
69,0.004191316900591406,0.0035279470092533134
70,0.004117830330431401,0.0035169766739045556
71,0.004158134186424888,0.0035232581875746993
72,0.0040695044434621176,0.0035287907249078954
73,0.003936437187899796,0.003486480824279222
74,0.003987574442163008,0.0034856118801120132
75,0.004019495257488888,0.0034745527387559654
76,0.003890514357374896,0.003447666906261483
77,0.0039983110156005695,0.0034566688397974802
78,0.0039057317445258958,0.003444593418268706
79,0.003976199587936057,0.0034536592481432776
80,0.0038101944953666997,0.003525450136640924
81,0.003881492839717538,0.003441973978922448
82,0.003911658061658583,0.003437927814384821
83,0.0038209491863465004,0.003434433830661785
84,0.003832378576165162,0.0034261438951224076
85,0.003809165831034879,0.0034553773939308904
86,0.0037822991218477535,0.003433110475478224
87,0.003743409447773122,0.003402684248541236
88,0.003709457280338735,0.003427554549239969
89,0.0037582935413063836,0.0034159266392550063
90,0.0036874588698617,0.003409999486365615
91,0.0036694654669005683,0.003424971439782757
92,0.0036915430189181178,0.003400327157023735
93,0.0036397502569144695,0.0034078010435337736
94,0.0036422454662922267,0.0033935565214048215
95,0.00364658916279602,0.0033916941501573334
96,0.0036350877816118507,0.0033680908361167342
97,0.003623806403482331,0.0033658351907801163
98,0.003597996152808414,0.0033566921245796184
99,0.0035981396881466787,0.003376673234042025
100,0.00359172119070784,0.003375235009320618
101,0.003556110325185142,0.003349848720792678
102,0.003552393252373016,0.0033409217836498453
103,0.0035428050986556015,0.003366643443570713
104,0.003524608033939635,0.0033750931963865364
105,0.0035459157836297637,0.0033494314391827643
106,0.0035235696821566747,0.0033509803681716697
107,0.003521908411839671,0.0033652806960103696
108,0.0035411172509722836,0.003364856949903899
109,0.003514181720290491,0.003342608748259142
110,0.003516441770158917,0.0033371291257968264
111,0.003501710926258625,0.003338242009820663
112,0.0035252693943228957,0.0033445252042901244
113,0.003630655752256322,0.0036021823899832534
114,0.0036959640066205764,0.0034875343125071816
115,0.003667348263478779,0.0035312650569458547
116,0.003615768056745388,0.0035069415726096936
117,0.0036200003714686197,0.0034893132259597925
118,0.0035905500372843424,0.0034762328433587436
119,0.0035735010655986083,0.0034855013303096132
120,0.0035751250975528917,0.003447284460780026
121,0.0035996690549640904,0.0035233545581230836
122,0.0036255122851945754,0.003498431296289475
123,0.0035890285193202814,0.003448480873694228
124,0.0035573026077565344,0.0034904698471161814
125,0.0035699235976862313,0.003429067872512998
126,0.0035645629206986977,0.0034286280242697502
127,0.003532393502084176,0.0033916194485319176
128,0.003513274401735016,0.0033935636311425055
129,0.0035145754060574514,0.003385589729589678
130,0.003521250036777742,0.003411052832969095
131,0.0034964354184968435,0.0033639330254144066
132,0.003481947437090556,0.00336418613536164
133,0.003473950587522486,0.003356527401147968
134,0.003496944350585658,0.0033505790272466266
135,0.0034834922380257752,0.0033401023613142465
136,0.00346575948822456,0.003340118728194383
137,0.0034630969945964717,0.0033462692143898594
138,0.003507797625117165,0.0033453134459194888
139,0.0034551048827312107,0.0033420893206545857
140,0.00347419477784089,0.003339121403325189
