epoch,loss,val_loss
0,1.1095392615706832,1.1167238484258237
1,1.1070751481586032,1.1142579317092896
2,1.1046210218358923,1.1117951662644097
3,1.102168776370861,1.109333696572677
4,1.0997171048764829,1.106867790222168
5,1.0972480729774192,1.1043922952983691
6,1.0947801316225971,1.101895254591237
7,1.0922795887346621,1.0993664990300718
8,1.08976470541071,1.09679114818573
9,1.087166843590913,1.0941575454628987
10,1.0845216600983232,1.0914335820985877
11,1.0817707512113783,1.088602320007656
12,1.0789120859569974,1.0856189468632573
13,1.0758881745515045,1.0824391012606414
14,1.0726842262126781,1.079023293826891
15,1.0692300664054022,1.0753407322842141
16,1.0654931642391063,1.0713367151177449
17,1.0613413960845381,1.0669148901234502
18,1.0567997914773446,1.0620451647302378
19,1.0517598743791934,1.0566560237304023
20,1.046047572736387,1.0505201194597327
21,1.0396326118045383,1.0435546843901924
22,1.0324459605746799,1.0356014448663462
23,1.024326244990031,1.0267854358838953
24,1.0152989670082375,1.016666547111843
25,1.0049369202719793,1.0057909488677979
26,0.9932818081643846,0.9928615507872208
27,0.9800546367963155,0.9787361725516941
28,0.9646677176157633,0.9624535830124564
29,0.9471724739781132,0.9440941914268162
30,0.9282701567367271,0.9234838667123214
31,0.9070710760575754,0.9006649022516997
32,0.8820665103417856,0.8734127801397572
33,0.8545618940282751,0.8434530911238297
34,0.8238018993978147,0.8097982432531274
35,0.7909511438122502,0.7732299047967662
36,0.7531863826292532,0.7325191782868427
37,0.7116165315663373,0.68833211193914
38,0.6674655852494417,0.6412627619245778
39,0.621245766127551,0.592150602651679
40,0.5695212130193357,0.5384508682333905
41,0.5169118311670091,0.48535472932069196
42,0.4636093665052343,0.4311157270618107
43,0.40729834525673475,0.37840547121089435
44,0.3559502561887105,0.328223387832227
45,0.3067068810816164,0.2819983518641928
46,0.2650659879048665,0.2410296065651852
47,0.22789996089758696,0.20578964508098105
48,0.19580774229985695,0.1790701273990714
49,0.17209837999608782,0.15890212810557822
50,0.15616821746031442,0.14628484456435495
51,0.145966785925406,0.13744575692259747
52,0.139116159191838,0.1304545953221943
53,0.1339222087904259,0.12433055691097093
54,0.1280332726460916,0.11808094058347784
55,0.1213197084488692,0.11174008509387141
56,0.11526084139391228,0.10642630639283554
57,0.11026295467659279,0.10280700287093288
58,0.10631422808876743,0.09918310979138249
59,0.10185263416281452,0.09645910042783488
60,0.09848257043847332,0.09392196976620218
61,0.09616833069810161,0.09160265132136967
62,0.09389793872833252,0.08929640216671902
63,0.09247753851943546,0.08802510927552762
64,0.09142383850283092,0.0860889719232269
65,0.09011094410110403,0.08479925504197246
66,0.08901283200140353,0.08349466064701909
67,0.08797201100322935,0.08216535235228746
68,0.08739519891915498,0.08076535003340762
69,0.08644265267584059,0.07960370992836745
70,0.0859937427772416,0.07984454508708871
71,0.08510808039594579,0.07882007988898651
72,0.08481763551632564,0.07889118823020355
73,0.0843117728277489,0.0784435787278673
74,0.08443230473332936,0.07834096382493558
75,0.08425018688042958,0.07843739021083583
76,0.08360846285466794,0.07816079615250877
77,0.08356561594539219,0.07844090008217355
78,0.08290371050437291,0.07803940092739851
79,0.08269939185292632,0.0784236908606861
80,0.08265445160645025,0.07783162723416867
81,0.08267304880751504,0.0774155892431736
82,0.08253103135912507,0.07702950971282047
83,0.08251371289844867,0.07726180942162224
84,0.0822817004389233,0.07729023533022922
85,0.08197066518995497,0.07721889828858168
86,0.0819189551251906,0.07747660674478697
87,0.08151173895155941,0.07731456050406331
88,0.08119198817897726,0.07701243881298148
89,0.08076713868865261,0.0764607741780903
90,0.08082984856985233,0.07625531081272208
91,0.08070223530133565,0.07592306626231773
92,0.08031272805399364,0.07540869745223419
93,0.08001767209282627,0.07535284854795622
94,0.07967176536719005,0.07503823676834935
95,0.07979665282699797,0.07461437323819035
96,0.07964517783235621,0.07477777386489122
97,0.07979627781444126,0.07437450114799582
98,0.0797500017064589,0.07443477666896323
99,0.07955871881158263,0.07393327128628026
100,0.07919746085449501,0.07441563628937888
101,0.07896284841828877,0.0745142643218455
102,0.07862616137222007,0.07430119553337926
103,0.07844217673495964,0.07391109123178151
104,0.07829981959528393,0.07366209963093633
105,0.07854348614260002,0.07362460798543433
106,0.0778874636248306,0.07333170557799547
107,0.07762065971339191,0.07316841703394185
108,0.07733470311871281,0.07297340359376825
109,0.07701096242224728,0.07294381539458814
110,0.07685754806907089,0.07268224786157193
111,0.07713304763590847,0.07228234928587209
112,0.07694302030183651,0.07207935886538547
113,0.07645882666110992,0.07190408816804057
114,0.07620909920445194,0.07170090435639671
115,0.07597770348743156,0.07171235103969989
116,0.07587309954343019,0.07191877779753311
117,0.07581334285162113,0.07135034482116284
118,0.07572933865918054,0.07091900803472685
119,0.07589778166126322,0.07118841228277786
120,0.07539311382505628,0.07168193258669066
121,0.07565926760435104,0.07137532370245975
122,0.07542473491695192,0.0710225289930468
123,0.07549903486613874,0.07086503473312958
124,0.07452841379024365,0.07046524759220041
125,0.07401109321249856,0.07005153175281442
126,0.07395446245317105,0.06961127759321876
127,0.07371594453299488,0.06937631090050159
128,0.07429958659189718,0.0698678195476532
129,0.07420694000191158,0.07027507314215535
130,0.07406547196485379,0.07012325881615929
131,0.0738585701695195,0.06997618305942287
132,0.0737294712000423,0.06925427136213883
133,0.07367762895645918,0.06902116456109544
134,0.07351730708722715,0.06891950738170873
135,0.07321125379315128,0.06897501615078552
136,0.07264386724542689,0.06865207105875015
137,0.07246718500499372,0.06831595236840456
138,0.07231294529305564,0.06800597582174384
139,0.07218899605450807,0.06794862854092018
140,0.07235630436076058,0.0676694894614427
141,0.07243043874148969,0.06724792362555214
142,0.072545043848179,0.06716623756548633
143,0.07217854454561516,0.06655486090027768
144,0.07173203373396839,0.06661647396243137
145,0.07147169941001469,0.066949428099653
146,0.071419356321847,0.0657642402726671
147,0.07128328319500994,0.06586399318083473
148,0.07172363858532023,0.0656202908443368
149,0.07119562890794542,0.06561278535620026
150,0.07082160120760952,0.06574913049521654
151,0.0705719143152237,0.0656037082814652
152,0.07036458259379422,0.06437301214622415
153,0.07007376822056594,0.06406677481920822
154,0.06973820152106108,0.06362752017119656
155,0.06964610792972424,0.06367083655103394
156,0.06966259551269037,0.06365287255333818
157,0.06957011669874191,0.06343021276204483
158,0.06937196657613472,0.06319337176240009
159,0.06925736257323513,0.06282166326823442
160,0.06903929373732319,0.06229081717522248
161,0.06875813255707423,0.06186625053701193
162,0.06847805833375012,0.061568104054616844
163,0.0683354980967663,0.06173815481040789
164,0.06808966177481192,0.061554069752278534
165,0.06751307927899891,0.061407246991344124
166,0.06718066996998256,0.06117267096820085
167,0.06699329738815625,0.06093640398720036
168,0.0668245330452919,0.06065919736157293
169,0.06646766927507189,0.06035089006890421
170,0.06623746620284186,0.0601053670372652
171,0.06591398738048694,0.059755677114362304
172,0.06568048590863193,0.05953615693294484
173,0.06530908522782503,0.05925651704487593
174,0.06494114216830996,0.05902586164681808
175,0.06470617238018248,0.05886991241055986
176,0.06439817034535938,0.05871745587691017
177,0.06412920079849384,0.058589136632888214
178,0.06393969500506366,0.058491982033719185
179,0.06369505050005736,0.058533958604802254
180,0.06345033286898225,0.05839393741410712
181,0.06320610918380597,0.05817241723770681
182,0.06300448764253545,0.05804608584098194
183,0.06270165244738261,0.05781514100406481
184,0.062448482408567714,0.057572030988724335
185,0.06223698374297884,0.05730465831963912
186,0.06199701102795424,0.05690457866243694
187,0.061619433401911346,0.05667003438524578
188,0.06143945331374804,0.05625343419935392
189,0.06116283850537406,0.05608635995051135
190,0.06089156452152464,0.05595113790553549
191,0.06061782701699822,0.05573650465711304
192,0.06030269353478043,0.055506641450135605
193,0.05996678590222641,0.055058486921631775
194,0.05972972912368951,0.054661095628271934
195,0.05943495283524195,0.05435119034803432
196,0.05914184699455897,0.054013018374857696
197,0.058904561041681854,0.05396954747645751
198,0.0585127768141252,0.05378678100912467
199,0.05831935118745874,0.05352995933397957
200,0.05817459565069941,0.05330743025178495
201,0.057835477507776685,0.05310515330537506
202,0.05763996185527907,0.0529275471749513
203,0.05741906497213575,0.052715341358081154
204,0.0572151860429181,0.052527116044707924
205,0.05711594334355107,0.05231763390095338
206,0.056990061783128314,0.05207652728194776
207,0.05674090664143915,0.05182464096857154
208,0.056357475342573946,0.051696516897367394
209,0.05620933075745901,0.051574282348155975
210,0.05614140215847227,0.05137644772944243
211,0.05597055054925106,0.051218410710925644
212,0.055697542787702,0.05100506268765615
213,0.05537581733531422,0.05080007162431012
214,0.05515155610111025,0.05070825536613879
215,0.05493758370478948,0.05064499734536461
216,0.05477698671597021,0.05039260844173639
217,0.0544971433226709,0.05030645170937414
218,0.054280826890910114,0.050173918838086334
219,0.05412325318212862,0.04983095776127732
220,0.0539008267223835,0.049639796757179756
221,0.05378239946784796,0.04945531876190849
222,0.05360121956026113,0.04924874509806219
223,0.053387785951296486,0.049045489696056946
224,0.053183983735464235,0.0490389762689238
225,0.05301688570115301,0.048826237411602684
226,0.05285997440417608,0.048543862998485565
227,0.05267769898529406,0.048338360112646354
228,0.05247600569769188,0.04820737615227699
229,0.05226762289250338,0.04789720297507618
230,0.05209778676982279,0.047788409921138184
231,0.05193979113742157,0.04761466659281565
232,0.051758436417138134,0.04753868281841278
233,0.051634267110515525,0.04731811145725458
234,0.05136799991682724,0.04713959846159686
235,0.051227638980856645,0.04691376067374064
236,0.05100874313049846,0.04671748095880384
237,0.050837548794569795,0.04655881193668946
238,0.0505628944547088,0.04646350880679877
239,0.05033984794108956,0.04635949853969657
240,0.050083264156624126,0.04609216846849607
241,0.04979522471074705,0.04595804457431254
242,0.04956446450065683,0.04578998944033747
243,0.04944403345386187,0.04560105308242466
244,0.04929910103480021,0.04542859562713167
245,0.04908341445304729,0.045312907384789505
246,0.04890947168072065,0.04507613829944445
247,0.04874527702728907,0.0449233401728713
248,0.0485667894007983,0.04477344113199607
249,0.04831564591990577,0.044569596162308815
250,0.04811940107632567,0.044552108029956405
251,0.048009780408055695,0.04444984540991161
252,0.04784932580811006,0.04441892550043438
253,0.047736980434921056,0.044271940446418266
254,0.0475875408285194,0.04405530817482783
255,0.04744551206628481,0.043914970334457314
256,0.04724101515279876,0.04382373279203539
257,0.047034207041616795,0.04369141874106034
258,0.04688376491820371,0.04352186134328013
259,0.04673224052897206,0.04338557993912179
260,0.046480383448026796,0.04329032369929811
261,0.04630594617790646,0.04311132609196331
262,0.046095034314526454,0.0429338872756647
263,0.04590187621889291,0.042774583658446434
264,0.045758748358046566,0.04266826549301977
265,0.04562246799468994,0.042558316303336105
266,0.04542373106987388,0.042434546772552574
267,0.04529519737870605,0.04234854277709256
268,0.04516829357103065,0.0421447261520054
269,0.04504409749750738,0.04205586032375046
270,0.044945314802505354,0.041969366857539055
271,0.04484255874046573,0.04185336309930553
272,0.044737984598786744,0.04169767609109049
273,0.04463378878103362,0.04165062405492948
274,0.0444612476836752,0.04150033175297405
275,0.04438591182783798,0.041397420284540756
276,0.0442643680230335,0.04139032538818276
277,0.044127427593425465,0.04130669173015201
278,0.04407085091979415,0.041219744021477905
279,0.043961482053553616,0.041187103513790214
280,0.04385958736141523,0.041130836081245674
281,0.04378676442084489,0.041027733327254005
282,0.04373494494292471,0.04096895407723344
283,0.04362491504461677,0.040871592805437416
284,0.04347650361833749,0.04076664716653202
285,0.04337500477278674,0.04061749966248222
286,0.0432742305651859,0.0404999949361967
287,0.043179146531555385,0.04039530634232189
288,0.04308305749738658,0.040308137302813324
289,0.04297090335576623,0.04022692921368972
290,0.042837336383484026,0.04015247928707496
291,0.04276452448081087,0.04003180482465288
292,0.04267607850057108,0.039963984619016235
293,0.04255640396365413,0.03985127434134483
294,0.04244891443738231,0.03977521282175313
295,0.04237093610896005,0.039789814663969955
296,0.042295039251998616,0.03971770292390948
297,0.04221799886888928,0.039646062676025474
298,0.04214301539791955,0.03956105560064316
299,0.04206957447308081,0.039500441888104317
300,0.04197030680047141,0.03942706290146579
301,0.0419000710050265,0.0393170319173647
302,0.04181036256529667,0.03923898287441419
303,0.04174375064946987,0.03916530149138492
304,0.041685109199197205,0.03903910485298737
305,0.04160952002361969,0.038977502966704575
306,0.04153823824944319,0.038918863172116486
307,0.04147053234003208,0.03886404034236203
308,0.04140861746337679,0.038814943121827164
309,0.041349352095965984,0.03875722234015879
310,0.04124860299958123,0.03869278647977373
311,0.04117055733998617,0.038629434030988945
312,0.041087012048120854,0.038584464837027634
313,0.041031771787890685,0.03854816147814626
314,0.04098123008454287,0.03850708011051883
315,0.04088792011693672,0.03847188729306926
316,0.040841664015143005,0.03842594231600347
317,0.04080161162548595,0.03837965930933538
318,0.04075867779276989,0.03837321034592131
319,0.040708477022471254,0.0383270444429439
320,0.040640049786479386,0.03825639690393987
321,0.04059736872160876,0.038221932623697365
322,0.04051416091344975,0.038189451979554215
323,0.04047177745788186,0.038161511816408325
324,0.04043372140990363,0.03812753182390462
325,0.04039508214703313,0.03809747666768406
326,0.040354586861751696,0.038054764108813324
327,0.040306425342957176,0.03802384257964466
328,0.04031801899826085,0.03798397921997568
329,0.040284535537163414,0.037949329080141106
330,0.040248508392660705,0.03788798027064489
331,0.040207265427819,0.03785009487815525
332,0.04015492468520447,0.037790332961341606
333,0.04008709183997578,0.037784608323936875
334,0.04005812191300922,0.03775420428618141
335,0.04002839892550751,0.03774092864731084
336,0.03997670279608832,0.037693126208108406
337,0.03994650269548098,0.03766502828701683
338,0.03992310856227522,0.03759985822050468
339,0.03989898206459151,0.03757374863261762
340,0.0398718347703969,0.03758500597399214
341,0.03981270999820144,0.03754239982884863
342,0.03978791625963317,0.0375087837000256
343,0.03976002294156286,0.037481369531672935
344,0.03973238942799745,0.03746731401137684
345,0.03967942242269163,0.03744227698315745
346,0.03960294511031221,0.037417100661474724
347,0.03956112582926397,0.03739622947962388
348,0.039529948874756145,0.03737922952226971
349,0.03951070554278515,0.037363302124583206
350,0.039488246043523155,0.03734877527407978
351,0.03946323196093241,0.037330546942741974
352,0.039432333299407256,0.03730051251857177
353,0.03941128568516837,0.037284820462050644
354,0.039388941393958196,0.03726083331781885
355,0.039367797405079556,0.03722875192761421
356,0.039321411263059686,0.03720793532936469
357,0.03927930720426418,0.03719152234818624
358,0.03925404766643489,0.0371664179408032
359,0.03923624333132197,0.03716320236739905
360,0.03921476572200104,0.03715384800149047
361,0.03920642576283879,0.03713644312127777
362,0.0391529326637586,0.0371112039555674
363,0.039135697263258475,0.037088850108177765
364,0.03911786236696773,0.03706955909729004
365,0.039094073215016616,0.0370487539988497
366,0.039077755753640774,0.03702224207961041
367,0.039054609559200426,0.03699815791586171
368,0.03903812970276232,0.03697570186594258
369,0.039019661093199695,0.036965436747540596
370,0.03895803941068826,0.03691953793168068
371,0.03894628584384918,0.03691210030861523
372,0.03892561862314189,0.03690357846410378
373,0.03891086205840111,0.036887147423365844
374,0.03889461620538323,0.03686403256395589
375,0.038876869060375074,0.036831752113673996
376,0.038837465837045955,0.036812413807796394
377,0.03881859572397338,0.03677952832177929
378,0.0388004959181503,0.03676089774007383
379,0.03876354959275988,0.036744598623203194
380,0.03873643996538939,0.03672056345512038
381,0.03872302836842007,0.03670188250101131
382,0.0386502126024829,0.03673105120010998
383,0.03862212446552736,0.03671068260851114
384,0.03857223137661263,0.03668986827782963
385,0.038553536490157796,0.0366865046646284
386,0.03852864796364749,0.03666983075115992
387,0.03849745224471445,0.03662988292458265
388,0.03848466442690955,0.03659747751510661
389,0.03847438566110752,0.03657826570713002
390,0.03845482774906688,0.036578060978132744
391,0.03840301034075243,0.03659075547171676
392,0.03838656056258413,0.036587543623602906
393,0.03837031746904055,0.03658142896450084
394,0.038353092692516466,0.03656792381535406
395,0.03833938127866498,0.036568014356105225
396,0.03834195034923377,0.03654861077666283
397,0.038326437964483547,0.03649914831570957
398,0.03831102712838738,0.036444744176190834
399,0.03828917319575945,0.036428836862678116
400,0.03827908938681638,0.0364127523549225
401,0.038239934378200106,0.03639141583572263
402,0.03822426235786191,0.036374844691675644
403,0.038207603687489475,0.03635638174803361
404,0.03819267769102697,0.036345996205573494
405,0.038183113629067386,0.036323311374239296
406,0.03816032119923168,0.036289158074752144
407,0.03816133033898142,0.03625480328565058
408,0.03814320542194225,0.03624649799388388
409,0.03812650122024395,0.03623013846252276
410,0.038111617581711874,0.0362099582410377
411,0.038094655921061836,0.03618433472255002
412,0.03808078901083381,0.03616922931826633
413,0.03806627424502814,0.036155173878954804
414,0.038043922296276796,0.03614452303103779
415,0.03803040487346826,0.036140573251506554
416,0.03801429271697998,0.03613947178034679
417,0.038005648801724114,0.03613954766289047
418,0.03798571008223074,0.03610116445823856
419,0.0379762118337331,0.036073402704104134
420,0.037960233373774424,0.03606068027084288
421,0.03794819406337208,0.03604483134720637
422,0.03791995525912002,0.03598664134092953
423,0.0379051940722598,0.03596020587112592
424,0.037890785822161925,0.035958937814702156
425,0.03786817703534056,0.03595340219528779
426,0.037908393889665604,0.03593737729217695
427,0.03788997094940256,0.035920533473077026
428,0.03787406561551271,0.03591417375466098
429,0.037867113671920916,0.03589577486981516
430,0.037856764539524364,0.03588007835914259
431,0.03783793802614565,0.03586257945584214
432,0.03782291655187254,0.03585492754759996
433,0.037807001559822646,0.035856225406346115
434,0.037743605121418285,0.035838493834371155
435,0.03772980637020535,0.03581981863016668
436,0.03769788960063899,0.03580099133693654
437,0.03765613130397267,0.035798400883441384
438,0.037645120449640135,0.035790056962033974
439,0.03763346401629625,0.035775714594384896
440,0.037614988508047884,0.03576691626854565
441,0.03760179573739016,0.03575937547113584
442,0.0375901039827753,0.0357452908773785
443,0.03756993884841601,0.035721458818601524
444,0.03755405476247823,0.03570137756026309
445,0.03754111020653336,0.03567893252424572
446,0.037526363161978896,0.03567434847354889
447,0.03750953243838416,0.0356726777618346
448,0.03748820501345175,0.03566728451329729
449,0.03745079440651117,0.035652491385522095
450,0.03742988048880189,0.03563414433080217
451,0.037413053766444875,0.035611320934865784
452,0.03740288165432436,0.035589109782291496
453,0.037388528455738666,0.03557992823745893
454,0.037369220345108596,0.035571864927592484
455,0.03734603400031725,0.03556077684397283
456,0.03732342659323304,0.03553474224779917
457,0.03730344620567781,0.035525007902280144
458,0.03728510218637961,0.03552223426168379
459,0.037273034867313176,0.03550750146741453
460,0.037254975763735945,0.03549357843787774
461,0.03724819187212874,0.03546648391562959
462,0.03724105780323347,0.03544852056581041
463,0.03722929933832751,0.03545343487159065
464,0.0372143756184313,0.03544375462376553
465,0.03719383588543645,0.03542761990557546
466,0.03718219269756918,0.03541940596440564
467,0.037170624291455304,0.035405602630065834
468,0.03715822031652486,0.0353934826410335
469,0.037158321451257775,0.035382370262042336
470,0.03715081857862296,0.03537112652607586
471,0.03713843667948687,0.035362606544209564
472,0.03712631679243512,0.03535652759930362
473,0.03711377732731678,0.03535198485073836
474,0.037095679315151994,0.0353385786647382
475,0.03708787331426585,0.03532939128901647
476,0.03707636520266533,0.035314373672008514
477,0.03706053851379289,0.035306213666563446
478,0.03705427712864346,0.035296573830039604
479,0.03703988171010106,0.03527801078946694
480,0.03703033372207924,0.03526391234734784
481,0.03701735453473197,0.03525347926694414
482,0.03699835610610468,0.035242754156174866
483,0.0369877151593014,0.035232805849417397
484,0.03698348957631323,0.03519911140851353
485,0.03694645991479909,0.035190316807964576
486,0.03694045943794427,0.03519013864190682
487,0.03692514766697531,0.035190059115057404
488,0.036918073478672236,0.03518035926896593
489,0.03690210136550444,0.03517000506753507
490,0.03689053364925914,0.03511951807076517
491,0.03688242369227939,0.035102220171171684
492,0.03687367864229061,0.035084957661836044
493,0.03686158800566638,0.03507373627761136
494,0.036851986276882666,0.035075519071972885
495,0.036840131161389525,0.03505483140116152
496,0.0368316399830359,0.03503761934521406
497,0.03680559496084849,0.0350255744288797
498,0.03679558979692282,0.03502164424761482
499,0.036775977799186,0.035017602793548416
500,0.03676628197232882,0.03501823479714601
501,0.03675689727619842,0.03501193209186844
502,0.036750795112715826,0.034992073784055916
503,0.03674166966919546,0.03497903032795242
504,0.03673403710126877,0.03497202062736387
505,0.03672253064535282,0.0349391791159692
506,0.03671269491314888,0.034941232398800225
507,0.03670721583896213,0.03493521459724592
508,0.0366975382246353,0.034925234706505486
509,0.036685878341948544,0.034910675786111664
510,0.03667427199306311,0.0348858433249204
511,0.03665763388077418,0.03487124828540761
512,0.036646512923417265,0.03487186490193657
513,0.03663336030311055,0.03486790273176587
514,0.03661323214570681,0.034866990278596466
515,0.0366024075558892,0.034858684500922325
516,0.03659318497887364,0.03484774121771688
517,0.03658019144226004,0.034841322380563484
518,0.03657391101673797,0.03482679909338122
519,0.036554613047175936,0.03481655794641246
520,0.03653840568882448,0.03480368690646213
521,0.036530131819071596,0.03478891386286072
522,0.03651938173505995,0.034779534553704056
523,0.03650924853152699,0.03477309304087058
524,0.036494608416601466,0.0347644307691118
525,0.036485034972429276,0.034748667932075004
526,0.0364737367188489,0.03474607998910158
527,0.036462859285098535,0.03473372708844102
528,0.03645360897536631,0.034715660078370056
529,0.036441636030320766,0.03471657860538234
530,0.036430534803205065,0.03469947871306668
531,0.03642405735121833,0.03468595234596211
532,0.03641719122727712,0.03468475118279457
533,0.0363987666313295,0.03467562859473021
534,0.03638877305719587,0.034669760290695274
535,0.03637970404492484,0.03466106854055239
536,0.03637159643349824,0.0346561626571676
537,0.03635056661786856,0.03464531364000362
538,0.03633510100620764,0.03463901546986207
539,0.03632329487138324,0.03462887490573137
540,0.036316133897613595,0.03461913861658262
541,0.03630255121323797,0.03461185267761997
542,0.036291048068691184,0.034598927054068314
543,0.036281234274307884,0.034586292651036514
544,0.0362763709768101,0.03458878049707931
545,0.036264718820651375,0.03458140709477922
546,0.03625658913343041,0.034573444205781685
547,0.03624262081252204,0.03455804887673129
548,0.03623553337874236,0.03453194746828597
549,0.03622053825744876,0.03451652711500292
550,0.036212273631934765,0.03450259355747182
551,0.03619901518578882,0.03449477077178333
552,0.03618958012925254,0.03448631331000639
553,0.036180080501017745,0.03447888062699982
554,0.03616682440042496,0.034470243136519974
555,0.036154189595469725,0.03446059366283209
556,0.03614335783101894,0.03445059725123903
557,0.036132038191512776,0.034444025515214256
558,0.03612468446846361,0.034428740568135094
559,0.03611531246591498,0.03442258355410203
560,0.03610548101089619,0.0344036809452202
561,0.03609593930067839,0.03439055658552958
562,0.036081187702991346,0.03438498711456423
563,0.03607507960663901,0.03438036313847355
564,0.03606037809341042,0.0343830864066663
565,0.03605277201643697,0.034384759871856026
566,0.036043236377062624,0.03437451127430667
567,0.03603202780639684,0.034361019568598786
568,0.03602097866435846,0.03434690266199734
569,0.03601223851243655,0.03433331280298855
570,0.03599937536098339,0.03432042702384617
571,0.035995205381402266,0.034316009315459625
572,0.03597905997324873,0.034306559225787285
573,0.03597451884437491,0.03429814994983051
574,0.03596426629357868,0.03428345594717109
575,0.03594305255898723,0.034275529177292534
576,0.03592879973627903,0.03427478476710941
577,0.03591930245359739,0.03426995695285175
578,0.03590970914121027,0.0342576518330885
579,0.03589939022505725,0.03424484946805498
580,0.035888992663886815,0.034229150365876114
581,0.03587546296141766,0.034220008260529976
582,0.0358607150890209,0.03422713360708693
583,0.03585348526636759,0.034233252639355866
584,0.03584625544371428,0.034222850333089416
585,0.03583380179824652,0.034206411841770874
586,0.03582091353557728,0.034190464440895164
587,0.035810630630563806,0.03417925876767739
588,0.03580106787935451,0.034172395487194474
589,0.035794998691589745,0.03416232375994972
590,0.035778560434226635,0.034154798349608544
591,0.035771065288119845,0.0341499086631381
592,0.035757159883225406,0.03414611769435198
593,0.035746130678388804,0.03413635265568028
594,0.03573684270183245,0.034128005413905434
595,0.035730537165094306,0.03411424483941949
596,0.0357192480177791,0.03409469038572
597,0.0357100586924288,0.034088078967255096
598,0.03569957696729236,0.03408530338302902
599,0.03569140906135241,0.034085973935282746
600,0.03567769081780204,0.034077082477186035
601,0.035670523152307225,0.03407177021322043
602,0.035662325030123745,0.03405302843969801
603,0.03565303029285537,0.03403995736785557
604,0.03564072400331497,0.034027918849302376
605,0.035638620180112345,0.034017350524663925
606,0.035630601975652904,0.034017247188350426
607,0.03561928137033074,0.0340134179138619
608,0.035605829347062995,0.03400512873802496
609,0.03560032723126588,0.033998473992814186
610,0.03559257628189193,0.03398541587850322
611,0.035581549560582196,0.03397499948092129
612,0.03557126044675156,0.033953485443540245
613,0.035561183398520504,0.03394864305205967
614,0.03554974910285738,0.03394622477176397
615,0.03553958388942259,0.03394673861887144
616,0.03553311030069987,0.03394466760041921
617,0.035521505745472734,0.03392383504820907
618,0.03551490301335299,0.033907024189829826
619,0.0355067973335584,0.03389036542047625
620,0.035499273626892654,0.03387713545690412
621,0.0354915301280993,0.03387755366123241
622,0.03547781899019524,0.033876230211361595
623,0.035468135580972386,0.03387486238194549
624,0.035459314231519344,0.033879616014335465
625,0.03544924194338145,0.03388079369197721
626,0.03543971961847058,0.03386559726103493
627,0.035432494073002425,0.03384447535095007
628,0.03542148584017047,0.03383273096836131
629,0.035413984761193944,0.03382271082828874
630,0.03540104103309137,0.033814618282991905
631,0.0353945511634703,0.03380824690279753
632,0.035386255355896776,0.03380418163926705
633,0.03537729920612441,0.03380489608515864
634,0.03537460016431632,0.03380110511637252
635,0.03536157227224774,0.03378102474886438
636,0.03535395964152283,0.033775824162623154
637,0.03533819579967746,0.033761650485836944
638,0.0353313862449593,0.03374885492350744
639,0.035325254831049174,0.03374753301234349
640,0.0353081946571668,0.03373889511694079
641,0.03529847785830498,0.03373771630551504
642,0.035287923627981437,0.033756114218546
643,0.035279276194395845,0.03375471188970234
644,0.03527581236428685,0.033750907072554466
645,0.03526645774642626,0.033746669311886246
646,0.03525753884955689,0.03373117437181265
647,0.035249926425792555,0.03372685878497103
648,0.0352409754500345,0.0337142802612937
649,0.0352350391999439,0.03369770482506441
650,0.03523015065325631,0.03369514968084252
651,0.03522255313065317,0.03369615874860598
652,0.035213374981173766,0.033695361860420395
653,0.035207397407955594,0.033689844948442085
654,0.03519700812520804,0.03368359293950641
655,0.03518912292740963,0.033677031812460526
656,0.0351836066003199,0.033669990203950714
657,0.035180568557094644,0.03366027707638948
658,0.03516609138912625,0.03365169676101726
659,0.03516133640099455,0.03364350403780523
660,0.03515294070045153,0.03364910201533981
661,0.03514720416731305,0.03363930012868798
662,0.03513783533815985,0.03363396486510401
663,0.03512976263408308,0.03362318760027056
664,0.03511871314711041,0.03361672130615815
665,0.03511425563030773,0.03361381809024707
666,0.035104945577957014,0.03361062980864359
667,0.035099428285051276,0.03359658190089723
668,0.035093295008496,0.03358186740914117
669,0.03508300637757337,0.03358028310796489
670,0.035074607779582344,0.03357998071157414
671,0.0350698570686358,0.03358395656813746
672,0.035060493758431184,0.033578139203398125
673,0.03505251418661188,0.03357072514684304
674,0.03504756762197724,0.03356337814551333
675,0.03504178038349858,0.0335644020334534
676,0.03503405206181385,0.03355536885235621
677,0.035021834903293185,0.03354980205388173
678,0.03501336290328591,0.03353406990999761
679,0.03501137649571454,0.03352868864717691
680,0.035002195172839694,0.033520959803591606
681,0.03499062580090982,0.033514313561760864
682,0.03498381272786193,0.03351544135290643
683,0.03497905353153193,0.03351783833425978
684,0.03497659373614523,0.03351022246415201
685,0.03496603571154453,0.033506042445483414
686,0.034957745422919594,0.033498542302328606
687,0.03495290461513731,0.033491360914448036
688,0.03494551667460689,0.033480543481267014
689,0.03494024111164941,0.033476569244395134
690,0.03493227202583243,0.033468483744756035
691,0.034922673332470434,0.03346143873489421
692,0.03491527145659482,0.03346271910097288
693,0.03491192090290564,0.03345440093265927
694,0.034902927845164584,0.03345572640714438
695,0.03489399673762145,0.033455579825069595
696,0.034889199391559315,0.03345402208683283
697,0.03488094373433678,0.0334490834046965
698,0.03487845813786542,0.03344388694866844
699,0.034873944327787114,0.03344088776603989
700,0.034867110627668875,0.03344186524982038
701,0.03486028465407866,0.03343574216832285
702,0.03485418262856978,0.03342365854136322
703,0.0348496512958297,0.033406668950034225
704,0.03484611392573074,0.033392452189455864
705,0.03484161812122221,0.03338695609051248
706,0.03483285423782137,0.03338403586784135
707,0.034823813648135575,0.03338044444503992
708,0.03482081492741903,0.03338416155589664
709,0.034814085121508,0.03339162938620733
710,0.03481200482282373,0.03339732584098111
711,0.03480228533347448,0.03338741575894148
712,0.03479537105670682,0.033373934905166214
713,0.034789267237539646,0.03336019927392835
714,0.03478558678869848,0.03335936302724092
715,0.03478202265169886,0.033352412526374275
716,0.03477222486226647,0.0333497626302035
717,0.03476737715579845,0.033359893314216446
718,0.03476179418740449,0.03336520484932091
719,0.03475259134063014,0.0333552280359942
720,0.03474690585776612,0.03334929591611675
721,0.03474251567213624,0.03334340558427831
722,0.03473526363571485,0.03333647678727689
723,0.03473019599914551,0.0333302299613538
724,0.03472350206640032,0.03331606106265732
725,0.034717148238862,0.033312827915601105
726,0.034712533156077065,0.03330772467281507
727,0.034708476038994615,0.03330805541380592
728,0.034700962956304905,0.03330083248084006
729,0.034694098901969415,0.033299926506436386
730,0.034689562050280745,0.03329584439811499
731,0.034687905537861365,0.03329305674718774
732,0.03468369085479666,0.0332807581871748
733,0.034675460722711354,0.03328056374321813
734,0.03467169128082417,0.03328168027750824
735,0.034665992138562376,0.03326519708270612
736,0.03465760940754855,0.033261178142350654
737,0.034656272580226265,0.033258220423822815
738,0.034648799923834975,0.033260132307591644
739,0.034640449892591546,0.03326098386036313
740,0.03464245402978526,0.033252643016369446
741,0.03463328650428189,0.033248195667629654
742,0.034629276367249315,0.033244544559198876
743,0.034625776250053336,0.033236450313226036
744,0.03462069605787595,0.033229572779458504
745,0.03461490778459443,0.0332202582579592
746,0.034606919106509954,0.03321496640210566
747,0.03460273450171506,0.03321097532044286
748,0.03459861032940723,0.03321169559722361
749,0.034592476983865104,0.03321377528102502
750,0.034597778071959816,0.033213126270667366
751,0.034594562732511096,0.03321365866324176
752,0.0345921665430069,0.033204311342990914
753,0.034585274204059886,0.0332018195287041
754,0.03457837807083571,0.03319792303702106
755,0.03457810074366905,0.03319683266074761
756,0.03457414131197664,0.033188286115941795
757,0.034567136179517816,0.03318794257938862
758,0.03456115281140363,0.033188098636658295
759,0.03455720552139812,0.03318270814159642
760,0.03455599797544656,0.0331735968913721
761,0.03454727596706814,0.0331595611313115
762,0.034546392797319976,0.033157559759590935
763,0.03453884887750502,0.03315405466634294
764,0.03453471359831316,0.03315550169867018
765,0.034530177160545635,0.03315764681800552
766,0.03452385672264629,0.03315237569420234
767,0.034523275991280876,0.0331483727078075
768,0.034518913400393945,0.03314565462262734
769,0.0345106969277064,0.033139251820419144
770,0.03450839759574996,0.03313624713083972
771,0.034507578169858014,0.033136445300086685
772,0.034500955017628496,0.033135799043204475
773,0.034493490777633806,0.03313257966352546
774,0.03448852544857396,0.03313178868721361
775,0.034485764525554796,0.033119014909733895
776,0.034477400283018746,0.033121681812664734
777,0.034476107469311464,0.03311936589686767
778,0.034469041835378716,0.03311258586852447
779,0.03446360567101726,0.03310593986964744
780,0.034459971443370534,0.03309862866349842
781,0.034455891629612004,0.03310169263378433
782,0.034449537457139405,0.03309858719939771
783,0.034445923649602465,0.033096164141012276
784,0.034443276899832266,0.03308933616980263
785,0.03443979761666722,0.03308303832359936
786,0.03443370000631721,0.03307465965981069
787,0.034428527440737794,0.03306974138578643
788,0.03442490721742312,0.03307416638278443
789,0.03442164124162109,0.03306732958425646
790,0.03441625536867866,0.03307625408405843
791,0.03441141200838266,0.033084267993336136
792,0.034406493659372685,0.033081204023050224
793,0.034399471142225795,0.03307570581850798
794,0.03439603469989918,0.033068485234094704
795,0.0343941800572254,0.03306585809458857
796,0.0343899957973648,0.03307175117990245
797,0.03438395047905268,0.033063452204932335
798,0.034379588784994905,0.03305038615413334
799,0.034373028134858166,0.0330388970349146
800,0.03437082717816035,0.03303771020601625
801,0.03436406205097834,0.03303579791732456
802,0.03436434503506731,0.033034979487242905
803,0.03436104401394173,0.03303714290909145
804,0.03435451095854795,0.0330370236998019
805,0.034350014533157704,0.03303579079068225
806,0.034348017501610296,0.03303536092457564
807,0.03434576287313744,0.03303096313839373
808,0.03433471697348135,0.0330252213322598
809,0.03433891385793686,0.03302624805465988
810,0.034335734253680264,0.03302444954929144
811,0.03433403193398758,0.03302114068166069
812,0.034327473767377714,0.03301398634262707
813,0.034320813638192636,0.03300422948339711
814,0.03432515277354806,0.03299226725231046
815,0.03431852313655394,0.03299104649087657
816,0.03431340810601358,0.03299256527553434
817,0.03430606107468958,0.03299416650248611
818,0.034301554025323304,0.03299488183920798
819,0.034298168081376285,0.03299827047664186
820,0.03429699468391913,0.032991292036097984
821,0.03429089472801597,0.032991001625423844
822,0.03428370050258107,0.03298787497307943
823,0.03428076387003616,0.032976915816897934
824,0.03427876587267275,0.03296989736997563
825,0.03427081182599068,0.03297221547235613
826,0.03427179571655062,0.03297749931073707
827,0.03426751846240626,0.03297016218952511
828,0.03426510964830717,0.03296640855462655
829,0.034261131176242125,0.03296001538958238
830,0.034255577320301975,0.03295698105964972
831,0.03425305667850706,0.03296192249526148
832,0.03424434432828868,0.032959385491583656
833,0.03424498700985202,0.03295563145176224
834,0.03424052721648305,0.0329405150335768
835,0.034236114748098234,0.03292953514534494
836,0.034233084983295865,0.032932407749087914
837,0.03422533168836876,0.032937233214793
838,0.034222676798149394,0.032934703337757484
839,0.03422129002434236,0.03292704414090385
840,0.034213985006014504,0.03292033513603003
841,0.03421076249193262,0.03291642479598522
842,0.034208202803576435,0.03291839879492055
843,0.034203983981300284,0.03292366441177285
844,0.0341993955274423,0.03293115937191507
845,0.03419723168567375,0.032930772103693176
846,0.0341921443188632,0.032922418302168015
847,0.03419069035185708,0.032908189231934754
848,0.03418403436188345,0.03290335963601652
849,0.034184197860735434,0.03290137535204058
850,0.03418086703728746,0.0329053329060907
851,0.03417649671987251,0.0329001236545003
852,0.03417290347041907,0.032901095469360764
853,0.034174009053795425,0.03289379309053007
854,0.034166394698399084,0.03289150487145652
855,0.03416883545341315,0.032900260356457336
856,0.0341589697809131,0.0328962891160146
857,0.03415537287515623,0.032893062609693276
858,0.03415018623625791,0.03289714018287866
859,0.03414942779474788,0.03289045344876206
860,0.034141792053425754,0.03289413290179294
861,0.0341351629683265,0.03289009525400141
862,0.03413742566826167,0.03288181012739306
863,0.03413090854883194,0.03287041171089462
864,0.034127544404731855,0.032862136545388596
865,0.03411864682480141,0.032861162300990975
866,0.0341205894947052,0.032861302404300026
867,0.03411368722165072,0.032866267568391304
868,0.034110585434569254,0.03286605271632257
869,0.03411136195063591,0.03286913118284682
870,0.034105545530716576,0.03286101903928363
871,0.0341001709026319,0.032864559846727745
872,0.034096479691840986,0.032868891468514565
873,0.034091926007359115,0.03285655751824379
874,0.034087487117007924,0.03284613869112471
875,0.0340846026385272,0.032827817875406014
876,0.03408262312964157,0.032822870042013085
877,0.0340787949109519,0.03282614789255287
878,0.034073892359932266,0.032831847343755806
879,0.03407173576178374,0.03283321444431077
880,0.0340644719975966,0.03283151757457982
881,0.03406324334166668,0.03283125129730805
882,0.03405718822722082,0.03282699118489805
883,0.03405570632053746,0.03282861856986647
884,0.034047361739255766,0.03282940290544344
885,0.03404508475904112,0.03282629439364309
886,0.034043622099690966,0.03282047014521516
887,0.03403424243960115,0.03281359423113906
888,0.03403939403317593,0.032809250542651054
889,0.03403474473290973,0.032812345772981644
890,0.03402919418833874,0.03280890384769958
891,0.03402346896904486,0.032804832672295364
892,0.03402100793189473,0.032804758328458535
893,0.03401689534937894,0.03281179216244946
894,0.03401497834258609,0.032808218961176666
895,0.0340101832041034,0.03280864785546842
896,0.03400550851667369,0.03279744696034038
897,0.03400240410809164,0.03279098009933596
898,0.03400031256454962,0.032779702592803085
899,0.033993585518112886,0.032773078297791275
900,0.033988671101353785,0.03277305124894432
901,0.0339831903024956,0.03278004710117112
902,0.033983714464637965,0.03279189149970594
903,0.03397558726094387,0.03278361293284789
904,0.0339709531377863,0.032772913008280426
905,0.0339669713543521,0.03276971136422261
906,0.03396503034013289,0.03276157962239307
907,0.03396588177592666,0.03275871471218441
908,0.03395448073192879,0.032745500216665474
909,0.03395004818836848,0.03275196772554646
910,0.03394886547768557,0.032753150505216225
911,0.033945249324595486,0.03275290180159652
912,0.03394145877272994,0.03274860913338869
913,0.03393731418031233,0.032743792737955635
914,0.03393620659631712,0.032750845522336335
915,0.033925545712312065,0.0327481454157311
916,0.03391962029315807,0.03273947083431741
917,0.03391603076899493,0.03272893069230992
918,0.03391460536254777,0.03272436526806458
919,0.03390812183971758,0.03271676332730314
920,0.03390645718684903,0.03271501535630744
921,0.03390038123837224,0.03270983509719372
922,0.0338990219903213,0.03271825935529626
923,0.03389664794559832,0.03272090917048247
924,0.0338915113221716,0.032721125561258065
925,0.033887755401708464,0.032710251438876854
926,0.03387935970116545,0.03270316140159317
927,0.03387380129209271,0.032696089018946106
928,0.03387317889266544,0.03269593279970729
929,0.03386669454199297,0.03269309048419413
930,0.03386026096564752,0.03268319433150084
931,0.03385915234684944,0.032683766001592514
932,0.03385432850983408,0.03268311318495999
933,0.033852267527469886,0.032685796689728035
934,0.033846969405810036,0.03268421862436378
935,0.03383945052822431,0.03267065597617108
936,0.03384235308126167,0.032659212289297065
937,0.033831912748239656,0.03265614904787229
938,0.033820670236040046,0.032658443421773285
939,0.03381739998305285,0.032667392945807915
940,0.033817211717919064,0.03266863573504531
941,0.0338133287926515,0.03266649798530599
942,0.033807468979998874,0.03266298495556997
943,0.033801865108587126,0.03264753293731938
944,0.033802824991720694,0.032635035236244614
945,0.03379788298021864,0.03263749036452045
946,0.033791813171572156,0.0326448160669078
947,0.033785114961641806,0.032652383184303406
948,0.03378148059602137,0.03264349456066671
949,0.033778395503759384,0.0326325883683951
950,0.033770130188376817,0.03262222550161507
951,0.03376627478886534,0.032618100714424385
952,0.0337638670095691,0.03262280316456505
953,0.033755462202760905,0.032623687516088073
954,0.03375285118818283,0.03262361689754154
955,0.033747239935177344,0.032622161766757134
956,0.03373926684812263,0.032603692911241364
957,0.033739161436204555,0.03259573552919471
958,0.03372846281638852,0.03259060499460801
959,0.033727236919932894,0.03258817027444425
960,0.03372234947703503,0.03258470923680326
961,0.033717157388174976,0.03258753665115522
962,0.03371053796123575,0.03258665472916935
963,0.03370368163342829,0.03258095211956812
964,0.03370147695144018,0.03258520559124325
965,0.03369521156505302,0.03258396442169729
966,0.033688228439401696,0.032582073917855385
967,0.033677217033174306,0.03257687422244445
968,0.03366939778681154,0.032578258734682335
969,0.03366498966459875,0.03257227494664814
970,0.03365936385536635,0.03256326120184815
971,0.033653868155346975,0.03255920565646628
972,0.03365131888400625,0.03254881622674673
973,0.03364474202195803,0.03254738790185555
974,0.03363865641532121,0.03254419233164062
975,0.033629297796222896,0.032548401342785874
976,0.03362554022007518,0.03254811255180318
977,0.03361692182995655,0.0325403607085995
978,0.03360934624517405,0.0325317099366499
979,0.033607260703488635,0.03252371708336084
980,0.03360595871452932,0.03251144079410512
981,0.03359802908919476,0.03251169427581455
982,0.033594369060463376,0.03251220293990944
983,0.03358808187422929,0.032510064056386116
984,0.03358188892404238,0.03250731544002243
985,0.033577698938272615,0.03250701271969339
986,0.03357314083863188,0.032494871188764984
987,0.03356517058003832,0.03249220193728157
988,0.03355984306997723,0.032490019322089524
989,0.03355871982596539,0.032487758718754936
990,0.03355076453751988,0.032482321333626045
991,0.0335459321461342,0.03247956016465374
992,0.033539375911156334,0.03247398996482725
993,0.03353456035256386,0.0324786429333946
994,0.03352812249903326,0.03247251774629821
995,0.03352283934752146,0.03246981974529183
996,0.033517315017956274,0.032466566109138985
997,0.033511019967220446,0.03245745809829753
998,0.03350581704742379,0.03244763126839762
999,0.033499733441405825,0.03243977487411188
1000,0.033496024225045135,0.03243081368829893
1001,0.03348837047815323,0.03242601308485736
1002,0.03348262539064443,0.03241991940075937
1003,0.03347877206073867,0.0324248763854089
1004,0.03346763551235199,0.03241853043437004
1005,0.03346229075557656,0.03242513343043949
1006,0.033454528699318566,0.032426765269559364
1007,0.03345018721841,0.0324202928206195
1008,0.03344691855212053,0.03241935599109401
1009,0.03344118443352205,0.03242036424901174
1010,0.03343657211021141,0.03240806730869024
1011,0.033426975900376285,0.032394261301859566
1012,0.03342200732893414,0.03238069152702456
1013,0.033421490962306656,0.03237286841739779
1014,0.03341441063417329,0.032374638902104416
1015,0.033415436330768794,0.03237887342338976
1016,0.03340679296740779,0.032386914300529854
1017,0.03340408343959738,0.03239766718900722
1018,0.03339743862549464,0.032396791016925934
1019,0.033386951933304466,0.032369548211927
1020,0.03338182414019549,0.03234494509904281
1021,0.03337556144429578,0.032336308418408684
1022,0.033366513473016245,0.03233385677246944
1023,0.03335864152069445,0.0323335775376662
1024,0.033349910337064,0.032341062617690666
1025,0.033345126857360206,0.0323503733329151
1026,0.03334225886673839,0.032349320695452065
1027,0.03333191007927612,0.03233913639965265
1028,0.03332483251061705,0.032327873875265534
1029,0.03331992057738481,0.03230894802381163
1030,0.03331064177608049,0.03230945555412251
1031,0.03330476995971468,0.03230258255549099
1032,0.03329944831353647,0.0322991867914148
1033,0.03329809223888097,0.03229580924886724
1034,0.03329136774495796,0.03228932748670164
1035,0.033285286691453725,0.03227876588378264
1036,0.033281005574045355,0.03227114628838456
1037,0.0332688889293759,0.032273391828588814
1038,0.033265466077460185,0.03227094803815302
1039,0.033260243082488025,0.03227178752422333
1040,0.03325584054821067,0.03226148952608523
1041,0.033244459993309446,0.03224207622849423
1042,0.033235425060545956,0.032235345924678055
1043,0.03323147349335529,0.03224059307704801
1044,0.03322663406531016,0.03224947254942811
1045,0.033218223601579666,0.03224919056114943
1046,0.03320706511537234,0.03223849249922711
1047,0.033201885513133474,0.03222133316423582
1048,0.033195559625272396,0.032213943807975105
1049,0.03318790663723593,0.03220508798308994
1050,0.033179698029050124,0.03220284543931484
1051,0.03317445585573161,0.03220737555428692
1052,0.033164308578879746,0.032211077116105866
1053,0.033162294024670566,0.03220540900593218
1054,0.033150442910415155,0.03219871984227844
1055,0.033144449884140934,0.032188891392687095
1056,0.033132143801561105,0.03217891976237297
1057,0.03312815580930975,0.032173566196275795
1058,0.03312079560149599,0.03215965134618075
1059,0.03310853518821575,0.032154754128145134
1060,0.03309710116850005,0.03214741069013658
1061,0.03309424938978972,0.032149882744187896
1062,0.03308189591323888,0.032153207808732986
1063,0.03307672210589603,0.03214887011310329
1064,0.0330730471070166,0.032145083031576614
1065,0.033061406678623624,0.03214309542723324
1066,0.03305385454937264,0.032130947093600815
1067,0.03305128078769754,0.032120791466339775
1068,0.03303827276384389,0.032109972899374756
1069,0.033028733606139817,0.032104636340037636
1070,0.033017384371271837,0.0320959052313929
1071,0.03301180795662933,0.03208307435979014
1072,0.03300423030224112,0.032086950443361115
1073,0.032993979338142604,0.032086146590502365
1074,0.03298597948418723,0.03207828558009604
1075,0.03298272813359896,0.03207619123808716
1076,0.032971982188798765,0.03206898029083791
1077,0.032962443169068406,0.03207674071840618
1078,0.032957957574614775,0.032079411265642746
1079,0.03294598821688582,0.03206139130760794
1080,0.03293689892247871,0.03203932746596958
1081,0.032927904967908504,0.03203402621590573
1082,0.03292330106099447,0.032024740686883095
1083,0.032910011156841563,0.03201832063496113
1084,0.03290352190810221,0.0320206531525954
1085,0.03289574536460417,0.03203014519227588
1086,0.03288739147009673,0.032030634582042694
1087,0.03287629410624504,0.032020031191084694
1088,0.03286340625749694,0.032005971864513726
1089,0.03285186613599459,0.0319978970548381
