epoch,loss,val_loss
0,66.69200034004102,4.542213266106611
1,2.5912021969298156,1.6403433430610588
2,1.295050005324847,1.036862531620994
3,0.8761929528917476,0.7374599887313441
4,0.6418693145338873,0.5554307174943659
5,0.49199074504373547,0.4353573582854971
6,0.3915938434837531,0.35194508295086274
7,0.3201721816586914,0.28951503871807893
8,0.26750979317818957,0.24384846277867306
9,0.22710533236101973,0.20774948716598707
10,0.19529119137528422,0.17924659789236985
11,0.1693112696763322,0.15627462192705174
12,0.14833708715925606,0.1371565528534238
13,0.1309552017906554,0.12139463964895031
14,0.11641072755078491,0.10823481742047915
15,0.10432125978153929,0.09749728983867874
16,0.09409652818575967,0.08770626732612759
17,0.08555798564222548,0.07993568524126106
18,0.07823462414445641,0.07305552636402367
19,0.0718104516844257,0.06720077789057007
20,0.0663056362471025,0.062089939386450174
21,0.06155119784134593,0.057534950462812734
22,0.057198434656529164,0.05354034485837742
23,0.053358010896999805,0.050052428160343145
24,0.04986027280111805,0.046732340980886154
25,0.04673403059486583,0.04395273102738948
26,0.0440041082974574,0.04151926771567686
27,0.041525511684014,0.03907893884501028
28,0.03934280028502592,0.03710527666704692
29,0.03732933780048684,0.035068617044477474
30,0.03545202623107273,0.033221733624180544
31,0.033709666367360745,0.03159508426784744
32,0.03204852509333956,0.030259418011992712
33,0.030521392464351427,0.028807537063702468
34,0.02906745550833386,0.02730454004461071
35,0.027701089694034203,0.026118957331073254
36,0.026449709848834095,0.024991022868554764
37,0.025298562409390535,0.023924186262275663
38,0.024293965362519432,0.022953260833486637
39,0.023383390095779857,0.022340843920797618
40,0.02253983491171208,0.021384847085297542
41,0.021840502990423154,0.020723918041959104
42,0.02119383428564923,0.020163773593779077
43,0.02059997675315536,0.0198557667860222
44,0.020103483689013865,0.019334603856345646
45,0.019697611968072536,0.018934506005988987
46,0.019325732314635555,0.018539094125182766
47,0.018979396078261355,0.018151707486502543
48,0.018654505838546828,0.017956353915856798
49,0.018383987872802418,0.017637922448942262
50,0.018138511479199173,0.01763643821835856
51,0.017879473077531478,0.017221345193835166
52,0.017723212520434583,0.017105738066638378
53,0.01748170297118642,0.017116834457120755
54,0.017237385615611,0.016741970753401444
55,0.017073180597332167,0.016530208987548693
56,0.01685187107159363,0.016371128092680824
57,0.01657810726846524,0.01606516845355117
58,0.016414566044572643,0.015935032242502707
59,0.016175492642055138,0.015676042924590548
60,0.015975954118456908,0.015448343443071708
61,0.015795341381926932,0.015514138014194014
62,0.015600456464722502,0.015093922855246387
63,0.015364287315224342,0.014840467605628044
64,0.015124497044864323,0.01463299537559447
65,0.014812385713349016,0.0142273446227766
66,0.014540909294387977,0.014057848995305228
67,0.014317050088551924,0.01377196716853181
68,0.01416394961483365,0.013584876877904566
69,0.013973814616497274,0.013730373689776403
70,0.0138378453495397,0.013409815440128127
71,0.013693558879113131,0.013247109487326476
72,0.013582522375397294,0.01331647559441475
73,0.013499735164089952,0.013010963202368797
74,0.013332309285618717,0.0128838206193465
75,0.01328762472376788,0.01302559080322946
76,0.013315940141570483,0.01311768804784843
77,0.013404192470813437,0.013059584948854387
78,0.013344313847191865,0.012942887143219088
79,0.013180651851117706,0.012868904968646611
80,0.012991294139523426,0.012582755763920603
81,0.012897924259096217,0.01246785131318605
82,0.012815255812668295,0.012439850639228596
83,0.012741372045174277,0.01242201329667396
84,0.012739534398094953,0.012395040317161337
85,0.012660716019803472,0.012256712795500337
86,0.012555824662801073,0.012442726473454672
87,0.01239559275163017,0.011947444956583505
88,0.012210358704497711,0.011803638096370063
89,0.01219320468219807,0.01174672946200947
90,0.012140261790035866,0.011844580350269994
91,0.012101859721490103,0.011663065547242894
92,0.012047663369805837,0.011851273776943715
93,0.012032114318292365,0.011656330030529313
94,0.012012262757810905,0.011698200106802068
95,0.011991641379063658,0.011659616606713356
96,0.011937598028989006,0.011832077521453132
97,0.011912593424165124,0.011697763499304568
98,0.011883726418823648,0.011468954613192093
99,0.011827771199212444,0.011594734079108573
100,0.01180136981707296,0.01151546909166417
101,0.01175326385794042,0.01144887533398392
102,0.011704503331897114,0.011347369554498674
103,0.011664592392527885,0.011328082741672492
104,0.011605376303136301,0.011278960904422226
105,0.0116043998617485,0.011441618296267149
106,0.011576738011679523,0.011220214470000356
107,0.011545947515774814,0.011233624403228242
108,0.01151927755183702,0.011154887558770006
109,0.011494815010306022,0.011154621480741301
110,0.011453385184480965,0.011232801714560073
111,0.011448666111106058,0.01115400070628183
112,0.011414047449176984,0.011113472893948925
113,0.011414514941046294,0.011088123770139126
114,0.011370699841520183,0.011062635526526341
115,0.011331646507076496,0.01109187493504109
116,0.011293116758605115,0.010975114845603534
117,0.011249842113249297,0.01095664360169971
118,0.011213065426292612,0.010905070327047111
119,0.01117768826737129,0.010891559887269553
120,0.011146963240684654,0.010890722660754188
121,0.011107193777342145,0.0107648532923737
122,0.011049743417390973,0.010841518646560832
123,0.011009262717389364,0.010678077954270206
124,0.010955081248224927,0.010683091893635043
125,0.010900582965341113,0.010608240596448515
126,0.010842675813663903,0.010512770723101335
127,0.010764625311953675,0.010428731972525397
128,0.010685945805117452,0.010330691906439997
129,0.010601959802699481,0.010292886384737897
130,0.010507516462275322,0.010164109475620617
131,0.010414919273866664,0.010098862004770753
132,0.01028077642964997,0.009921348819151122
133,0.010145255778688755,0.009826268810425361
134,0.010020692206790941,0.009727895857323646
135,0.009888882399443463,0.009528009611463653
136,0.009769486441232975,0.00944977372413424
137,0.009690015827319782,0.009333311584653501
138,0.009560777340457141,0.009314805295677903
139,0.009488508496001016,0.009160929993217975
140,0.009409462368701868,0.009255489551243943
141,0.009344763825651262,0.009022687849213293
142,0.009266956637369646,0.009028306312856038
143,0.00923443136377345,0.008966001617780373
144,0.009200556012462554,0.008954682533945723
145,0.009127752663786884,0.008795827561468248
146,0.009088502361329557,0.008788355873158958
147,0.009055516445447056,0.008759759051539457
148,0.009016475695042943,0.008703835131049107
149,0.008991327505481182,0.00869137710466413
150,0.008941755143536316,0.008698459404210249
151,0.008929827534261825,0.008712947382217777
152,0.008898642426393957,0.008602157232124246
153,0.008865367652500887,0.008599439835280108
154,0.008846525720628598,0.008604042937515329
155,0.008837408332110906,0.008613051983338251
156,0.008827431546859712,0.008541605961777192
157,0.008788071493741223,0.008563674749188663
158,0.00877611438972686,0.008522345925419193
159,0.008745506957614776,0.008506628579708589
160,0.008746010172303864,0.008450544724771141
161,0.008720160482840552,0.008495173099415266
162,0.008697313495916877,0.008420960306939998
163,0.008693152033105743,0.008543665548038743
164,0.008684809121703677,0.00845572550003836
165,0.008669670555275306,0.008387634513290887
166,0.008667514820152922,0.008367556672232091
167,0.008646205472152195,0.008404206735703608
168,0.00864470642159959,0.008422684719044313
169,0.00862805582985604,0.008411359915846697
170,0.008617307390537473,0.008370401373998672
171,0.008616033043366394,0.008404279553723451
172,0.008613736275136112,0.008401252885272806
173,0.008609574207971938,0.00833037487228929
174,0.008608388039674923,0.008459027996702182
175,0.00860398119797198,0.008347224702473975
176,0.008606234769686591,0.008330458596149354
177,0.008575648051858831,0.008319093983632491
178,0.008578823286192932,0.008308623415106018
179,0.00857618372265497,0.008422375819815772
180,0.00856910826074626,0.008294183413429369
181,0.008552727776783122,0.008335330265982792
182,0.008524945429306301,0.008284131525762663
183,0.008509884327814115,0.008292188492527311
184,0.008497832988346334,0.008274135217584204
185,0.008501471177987259,0.008297463906936451
186,0.008489765323403241,0.00823733129441158
187,0.008495898260395703,0.008251849704687177
188,0.008473797946619548,0.008249984965761648
189,0.008470816035912312,0.008251922008704579
190,0.00846214571354793,0.008213475839040769
191,0.008472125810623956,0.008206433868858984
192,0.00845920020457897,0.008208017451469601
193,0.008452229037004008,0.008201394820418163
194,0.008452906664028417,0.008222641683933654
195,0.008456059472428097,0.008192181460323704
196,0.008441387767790912,0.00822453480176114
197,0.008424707153384045,0.008206203850310987
198,0.00843220541225351,0.008200753533446804
199,0.008432387114108039,0.008196455031476268
200,0.00841298235656382,0.008209728169808616
201,0.008411166789062363,0.008143592413608514
202,0.008402694433515935,0.00822845809554435
203,0.008398872486250797,0.008170772621835623
204,0.008397472933236005,0.008188445329521114
205,0.008395228409666935,0.008138957427359894
206,0.008377181339615269,0.008154125783716337
207,0.008383511584639859,0.008231827638747241
208,0.008383480491962214,0.008120080499946829
209,0.008375383680872768,0.008141237434184077
210,0.008358761082866413,0.008112455987116959
211,0.00836059216035603,0.008125070831077498
212,0.008358903329527144,0.00817116249854233
213,0.008356837133725611,0.008126774997301611
214,0.008358184801111872,0.008103127630211456
215,0.008334683197691404,0.008097957663346816
216,0.008345679620846067,0.008118081784264063
217,0.008334208261206734,0.008122658833637773
218,0.008329050205692684,0.008085717989807074
219,0.008319854299374539,0.008069121061287222
220,0.008324153282142,0.008055399708670396
221,0.008311328891622987,0.008061204420588457
222,0.00830953055918157,0.008052964757490429
223,0.00831653348120262,0.008077505621711655
224,0.008303354761590831,0.008101952451810735
225,0.008297024381975587,0.00806845986984507
226,0.008297646927868753,0.008190488888423615
227,0.008300283544206973,0.008091928692653908
228,0.008295844080488833,0.008052536294722306
229,0.008295340135803906,0.008073704203157192
230,0.008302581581541355,0.008045100795810578
231,0.008290164796016615,0.00803185928316858
232,0.008281725138914977,0.008022889302286644
233,0.008282418947762327,0.008118647677160721
234,0.008285162195688586,0.00801501834397986
235,0.00827949741345236,0.008038073719992014
236,0.008279922527907562,0.008028601678820978
237,0.008261230891291575,0.008055908236855041
238,0.008281765790511552,0.008028119452756928
239,0.008263267263519563,0.008032687005737234
240,0.008256716280131696,0.00805390718720086
241,0.008249736371248054,0.00800079797845506
242,0.008250010757221638,0.00800174770579165
243,0.008243493282805093,0.008001029668927242
244,0.008247832855652627,0.008015767478180894
245,0.00824028779129931,0.008036616470571079
246,0.008240767087999156,0.007984727667908986
247,0.00823270541028954,0.008139997350228747
248,0.008231864000235895,0.007988801085528376
249,0.008229771568577847,0.008011330495417022
250,0.008231887719135364,0.007997356080249955
251,0.008229626881016838,0.007979583921966906
252,0.00820935733080972,0.007979201494707799
253,0.008212852234347427,0.007945206069175247
254,0.008210443232799049,0.007978505137718653
255,0.008221059472779568,0.008031057224843865
256,0.00820435660990407,0.00796699290830772
257,0.0082031030109446,0.007967049655914668
258,0.008203724740345994,0.00794559597836117
259,0.008193221015541003,0.007970175768164896
260,0.008195381235775708,0.007939745879763042
261,0.008185154420239411,0.007954659849852445
262,0.00818916579993297,0.007961901539252332
263,0.008183233017509011,0.00794489916817369
264,0.008174445178118155,0.008019767382120999
265,0.008189480886716333,0.007989764011888754
266,0.008188179761225028,0.007934591299359478
267,0.008170219598706362,0.007957490361979215
268,0.00816574414410562,0.007978898428141805
269,0.00816221643959562,0.007953926954880683
270,0.008153616960754721,0.00789871072926878
271,0.008150524752821514,0.007938210101267934
272,0.008157039008992877,0.007914403619641998
273,0.008148683842012078,0.007959765055808274
274,0.008156742698537578,0.007920135759022645
275,0.008148599517799383,0.008059071825586097
276,0.00814326910012729,0.007912177134785628
277,0.008135682818225567,0.008020828140405552
278,0.008140655799289409,0.00789395718633621
279,0.008137085691267391,0.007942454530257015
280,0.008142693908146923,0.007906192195332108
281,0.008132942888835032,0.00789320611886662
282,0.008136422276792166,0.00787053824480191
283,0.008119545981371469,0.007870954345830166
284,0.00812414562325176,0.007890448007817227
285,0.008111524829242805,0.00791543224238808
286,0.008118057208921644,0.007970132349876253
287,0.008110984673334347,0.007870840630059743
288,0.008112593495799266,0.007871725477900625
289,0.00813692553211943,0.008018279505934376
290,0.008143305378459734,0.007906328802528003
291,0.008134987469601502,0.00787603648210251
292,0.008134810739026083,0.00801930694092316
293,0.008144037636985676,0.007877491237044286
294,0.00812048908006892,0.007896031775728582
295,0.00812179284778724,0.007902337938006317
296,0.008122356338210231,0.007905122465231219
297,0.008141898119104825,0.007903256970219803
298,0.00814232030649296,0.007884101499557882
299,0.008140917124377312,0.007926369885047663
300,0.008132419363260746,0.007894126748226565
301,0.008142499688616078,0.007907190122955085
302,0.008132881461810454,0.007965873617947778
303,0.008124152199552358,0.007900852821797543
304,0.008130915515539381,0.0078908150100934
305,0.008117903551135997,0.007872911778166104
306,0.008118080946462478,0.007889622737051556
307,0.008120000834395591,0.007870562069438283
308,0.008117362623102217,0.007899342918283602
309,0.008104968637457674,0.007879306402870144
310,0.008108031497917789,0.007912602123033198
311,0.008118943962230504,0.007954506677502143
312,0.008119277804463601,0.00788176337986677
313,0.008095450986779218,0.007877118720099729
314,0.00809772234571109,0.007945164688768444
315,0.00810008492355076,0.007858629763316716
316,0.008096694693139332,0.007871112033546526
317,0.008096278714071259,0.007867633994285014
318,0.008095041677591393,0.00786443812499202
319,0.008089940543111273,0.007900924361420422
320,0.008104756611695378,0.007868337561281977
321,0.008104332857314137,0.00795249133661619
322,0.008092342112720419,0.007852215172582444
323,0.00809523139001311,0.007899298991279832
324,0.008092396731172995,0.007878107651735793
325,0.008092945081825323,0.007868420892370153
326,0.008093042355075514,0.007864845602411326
327,0.00809494198618339,0.007856747352677516
328,0.00809094797763183,0.007851190454140003
329,0.00806841813810796,0.007881732990274875
330,0.008075781179602453,0.007845654440870008
331,0.008073892290021678,0.007865067171831733
332,0.008069750708225873,0.007843019115600345
333,0.00806580215701468,0.007914445816938797
334,0.008067007877493353,0.007916596251338212
335,0.008077140793493622,0.00785055846755377
336,0.008066737959482033,0.007877839818318879
337,0.008073599219808372,0.007920211036776443
338,0.008066908551456095,0.007853806589859246
339,0.008061389596141081,0.007982514590925301
340,0.00807621604759243,0.007841272138373356
341,0.008070454720237714,0.007850597679028884
342,0.008060242504990989,0.007853106815377
343,0.008061904729000204,0.007832087735008729
344,0.008051353767723013,0.007864645889235867
345,0.0080747611457564,0.007851747455285366
346,0.008056210187316728,0.007825838448744137
347,0.008061408722553972,0.007856504137749389
348,0.008055280768025436,0.007815860870119791
349,0.008055755958032665,0.007857999187310295
350,0.008053253912959722,0.007860343827014761
351,0.008051071698151774,0.00785658772111797
352,0.00805563661042419,0.007851234598678975
353,0.008053031822351859,0.00799844015785474
354,0.008051681749483912,0.007830330401822164
355,0.008045132455003677,0.007826514318902635
356,0.008053935566146055,0.007832461860052039
357,0.008045165877479067,0.007813530882695102
358,0.008057866014728101,0.007822941697148995
359,0.008038877550172534,0.0078329805251504
360,0.00804104792510418,0.007816461197781132
361,0.008039586005167212,0.007840872717309752
362,0.008033690417112351,0.007845279459659515
363,0.008040091343480554,0.007841739252916653
364,0.008034699396629206,0.007839345021984584
365,0.008034360933947483,0.007813711995855638
366,0.008035782483026827,0.007823053638647944
367,0.008026563430099104,0.007814313157401912
368,0.008012309202550052,0.007857166188002382
369,0.00801352924183369,0.007853115089645568
370,0.008021046796752463,0.007767145540066734
371,0.008017211164488756,0.007785538728488647
372,0.008006670668846468,0.007799392456939597
373,0.00800579704278655,0.007799813168127896
374,0.00800169705956864,0.007783160951299727
375,0.00800488109076269,0.007836054743170158
376,0.008006044039375979,0.007799475930029918
377,0.008003042942230658,0.007784278635071577
378,0.008007950352667402,0.007782084229481553
379,0.00799166952394802,0.007770664534861613
380,0.007991662200874357,0.007801808666857828
381,0.007994055591398378,0.007806245519327179
382,0.007999344730005563,0.007851693504289796
383,0.007987949813382807,0.007765957059539607
384,0.007993588300482978,0.007774533562676412
385,0.00797428869850355,0.007879402404628385
386,0.007993163171114684,0.007770788290863442
387,0.007980059392025486,0.0077720559107718286
388,0.00798735516168195,0.0077745862617115856
389,0.00798184273643695,0.007755209170266781
390,0.007983302354911048,0.007769714471402926
391,0.007981369858704585,0.007896541424446103
392,0.007974652832208442,0.007771261504700971
393,0.007972837568934056,0.0077744641776339414
394,0.007970617933078013,0.00774159525209148
395,0.00797837260540864,0.007844675950545875
396,0.007974943992800361,0.007752414443813391
397,0.007961212588046149,0.007741213849815937
398,0.007975144594761611,0.007782398059130295
399,0.007964376383666113,0.0077347039952813754
400,0.00795320902106235,0.007794677113716861
401,0.007954358271628117,0.0077791186295063
402,0.007954180516896127,0.007857256260038099
403,0.007963114785324273,0.0077638883288686875
404,0.007954809828113326,0.0077601759652973475
405,0.00795364482373035,0.007744819493110791
406,0.007940724003296479,0.007733354042831805
407,0.00794320133066564,0.007900028568084465
408,0.007954329246650632,0.007755652316283232
409,0.007944865609698886,0.0077336919282480696
410,0.007942334324899939,0.0077282228731434715
411,0.0079474094483384,0.007724093805790092
412,0.007938959227921106,0.007737137094768488
413,0.0079490007464293,0.00775234671596616
414,0.007946285650691836,0.007744711648147109
415,0.007940545987212558,0.007761104470866658
416,0.007939809066108507,0.007727514384412611
417,0.007939767976067035,0.0077963186721019114
418,0.007932742802967564,0.007721088353819414
419,0.007937377940242987,0.007738382071755156
420,0.007942672979587718,0.007759990556949609
421,0.007927113626483347,0.007716539182185836
422,0.007929248602209305,0.007709942641762438
423,0.007923255587672238,0.007772298310698287
424,0.007926025940142602,0.007706756208436405
425,0.007930542704752916,0.0077031418478716125
426,0.007920987654277522,0.007723416770156548
427,0.007921394484536685,0.007697040095037062
428,0.007929362587070016,0.007709318225099029
429,0.00791343541859125,0.007721973748519618
430,0.007918659793369597,0.007728055563648832
431,0.00791563261061716,0.007732014716750151
432,0.007918919858674081,0.00774471739734563
433,0.007914762075295489,0.00772493062027264
434,0.007912653285840017,0.007693781781056405
435,0.007915020414036784,0.0077463328832305745
436,0.007915356120033513,0.007705820618621817
437,0.007912589982002853,0.007714494879282739
438,0.007907903509764813,0.007694676531280866
439,0.007904880610797957,0.007725671460566512
440,0.007902908710847863,0.007696283227384138
441,0.00790442911172815,0.007698999303910468
442,0.00790863611464731,0.007733486776314948
443,0.007922746135955385,0.007689016296347756
444,0.007910857112814276,0.007718047800882502
445,0.007896663780638082,0.007739468745053394
446,0.007909058700960645,0.007708553080533882
447,0.007899193159171087,0.007737039987206314
448,0.007907238145775682,0.007736384631448032
449,0.00790671895320018,0.007744657498877269
450,0.007900776103320864,0.0076931177514596915
451,0.00789468556872194,0.007692169983828228
452,0.007904577650595084,0.007682357874335623
453,0.007897199988305521,0.0077629322476914665
454,0.007894748969121372,0.007675612221841322
455,0.00788868131866161,0.007701087519466055
456,0.00788834185195599,0.007690763878216854
457,0.00790058023440208,0.007686808186040138
458,0.00788837053355954,0.007710200521433295
459,0.007895115435606628,0.0077226241508201185
460,0.007890150753678299,0.0077197813422895745
461,0.007884699178694056,0.0076679753578462115
462,0.007898876812604306,0.007719778664265091
463,0.007888089423272923,0.007679932546444594
464,0.007886014420917933,0.007667105179280043
465,0.007878869676140784,0.0076608887676448715
466,0.007877687701032317,0.007704171175718767
467,0.007891232641436178,0.007717275925566777
468,0.007879591147654696,0.007743636203592905
469,0.00787308836300627,0.007680281914773625
470,0.007878735058644922,0.007783767236253157
471,0.007890990105725294,0.00765701698740553
472,0.007879557891460278,0.00768004609717529
473,0.007876553325529834,0.00767120373845463
474,0.00788303038546796,0.007674166394529044
475,0.007870945622033483,0.007663187693611138
476,0.00787044336849315,0.007690229334937226
477,0.00787304886829278,0.0077201795121481145
478,0.00788004321677743,0.007678358409997901
479,0.007866959940206655,0.0076877279735841795
480,0.007872193153601608,0.0076982134474261645
481,0.007863176482885455,0.007817048903113565
482,0.007857554505696241,0.007775088748762449
483,0.007866536090381628,0.007653753673514262
484,0.007866858877167046,0.007646220740737561
485,0.007860733222237246,0.007648297784954237
486,0.007862220925791226,0.007662155915471662
487,0.007850331499623813,0.007665759715382297
488,0.007861524596258556,0.007648841162957705
489,0.007853576813558276,0.007654363930751082
490,0.007850818480666969,0.007630334493295507
491,0.007857751506891511,0.007664221525116728
492,0.007851731321447081,0.007630790869304299
493,0.007851168133759853,0.007711647839012759
494,0.007848839176739689,0.007671026894422391
495,0.007851369896332464,0.00763988267896215
496,0.007852513762153655,0.007680011406731214
497,0.007844949000216036,0.007634396031075924
498,0.007845553562784787,0.007624796294854215
499,0.007849270619192512,0.007622055948046486
500,0.007853037291456214,0.007706333244852389
501,0.007858490114666229,0.007620170303081848
502,0.007856483090656986,0.00766897910340279
503,0.00783353726274436,0.007656019312440624
504,0.007840238756882705,0.007665250167123738
505,0.007841479166331078,0.007625107447233804
506,0.007838002292721198,0.0076494430775685416
507,0.007837003000003038,0.007644947765535537
508,0.007837700332068294,0.007634831171721486
509,0.007837947179899633,0.007628316812773159
510,0.007835439604306646,0.007678056440171873
511,0.007834509361439868,0.0076346175687724465
512,0.007841114264974792,0.007637190350783809
513,0.00784943865543549,0.0076457627520980335
514,0.007834025181075326,0.007622741448669562
515,0.007840893437505794,0.007646630588761816
516,0.00782619544407062,0.007650475270006827
517,0.007828050907447731,0.0076251013996797125
518,0.007837542224216093,0.007664069292397636
519,0.007827751324687294,0.00762082591791851
520,0.007830844699569923,0.007646382154499551
521,0.007830251746470208,0.007628847565426395
522,0.007829677875416937,0.007737652878280781
523,0.00783579510631408,0.007621747652327057
524,0.007831857015145383,0.0076304964308792364
525,0.007840751989068294,0.007645302414380479
526,0.007828217353582311,0.007671294438547703
527,0.007826914511966982,0.007639341587344274
528,0.007832887556382997,0.0076426890137131775
529,0.007832820822161923,0.007626995049637575
530,0.007824831281686493,0.007653119294418495
531,0.00783403909387137,0.007624176088403321
532,0.00783772251119105,0.007627131923842821
533,0.007829918329260223,0.0076146442669731565
534,0.007831220462503698,0.007619575401715215
535,0.007824421513175445,0.00760578288865145
536,0.007819073057373324,0.0076176538339847
537,0.00782368148269178,0.007616874185184565
538,0.00782465646483356,0.007612629222554447
539,0.007817551979065848,0.007640769217232815
540,0.007828091368529562,0.007619266912631165
541,0.007820372603941049,0.007674643779679565
542,0.007827730865416835,0.007652600127780645
543,0.007817261505967454,0.007733208828266568
544,0.00781969711470833,0.007616182085616092
545,0.007817065508423255,0.007609345367826394
546,0.007816664660923643,0.007620360177321494
547,0.007822287118314408,0.0076082906204623995
548,0.0078104212805569125,0.007625475261112659
549,0.007815985835632316,0.0076217567465069426
550,0.007818795720844554,0.0075983138028335884
551,0.007818801368432368,0.007606174217858816
552,0.007816573084847296,0.007629854260548792
553,0.007815054239029642,0.007631213537176402
554,0.007817303293568788,0.0076147147378033
555,0.007815646589267627,0.0076382575120054795
556,0.007819987262328498,0.007605206590698728
557,0.00782436213819228,0.007630112317344665
558,0.007814246810692324,0.0076144140977367145
559,0.00782399277595745,0.00761022958118961
560,0.007813884514280325,0.007629570350298674
561,0.007818896184750707,0.0076269449085293265
562,0.007809711892002697,0.007634566636455441
563,0.007820790945988497,0.007630261334999247
564,0.007812864341369694,0.007714076063218802
565,0.007820944139976993,0.007591201384103912
566,0.007808488247106321,0.007629560041924922
567,0.007802439934825353,0.007618155124969629
568,0.007818016620670514,0.007608135716516799
569,0.007801811116485834,0.007615303909987671
570,0.007809677936757107,0.00759908476835366
571,0.007814172590472061,0.007648450953150221
572,0.0078121108935774565,0.007618328656499717
573,0.007811197507723844,0.007595941047082199
574,0.007802810352907074,0.007603428180013018
575,0.007814976465765289,0.007606370504099546
576,0.007816753572403334,0.00761381013315875
577,0.007813589913983813,0.007608350432067747
578,0.007807194931228296,0.00760073705356559
579,0.007798370006706736,0.007697839725729371
580,0.007805960834491625,0.007628360979216715
581,0.0078086634155353895,0.007598097740528261
582,0.0078071026743693145,0.0076156980354287526
583,0.007805464632683892,0.007623733883528741
584,0.007810254658447852,0.007687409421231141
585,0.007814634361679408,0.00759408291390004
586,0.007815887422649095,0.007614406865824313
587,0.007808314267250659,0.0077291572744454294
588,0.00780513152753035,0.007610110544493091
589,0.007813910313183256,0.007696267577312699
590,0.0078102278644688805,0.007644144851421304
591,0.007813326568544818,0.007630094104436652
592,0.007808706898382418,0.007595080190428078
593,0.007807453240889063,0.007588475144982628
594,0.007803139200000118,0.007614735814547113
595,0.007800253827700479,0.007643645013692363
596,0.007803583019946197,0.0076044539540299095
597,0.007813263727386324,0.0076643425679712015
598,0.00780168644117536,0.007631875020176148
599,0.007799410663867254,0.007681479951742937
600,0.007797215384445351,0.007620231193299228
601,0.00780478408194786,0.007621724396454592
602,0.00780271718933212,0.007596384417431826
603,0.007816947687169711,0.007618018612945384
604,0.007824260533807442,0.007599894750851229
605,0.0078110567870452174,0.0076077817603099765
606,0.00782559842379798,0.007592561154717705
607,0.007808144683028766,0.007662524076424908
608,0.007811896495515103,0.007711863923222672
609,0.007813543537997002,0.007704417010510925
610,0.007811518620887549,0.007600546851512483
611,0.007810246708278684,0.007629498026265014
612,0.0078094456784033464,0.007602076983156358
613,0.007810268457531571,0.007671341515279889
614,0.007806749776560512,0.007598474093041378
615,0.007818372293060021,0.007592261860650169
616,0.007808660456032348,0.0076932830143861914
617,0.0078064546871145935,0.00760573888875828
618,0.007804733568323766,0.007608843268637771
619,0.007818714962352076,0.007604268073222909
620,0.0078086008484049545,0.0076055275797481375
621,0.00782372559859955,0.007812499707687075
622,0.007827265566144827,0.007611183320464444
623,0.007822390812769043,0.0076076730183912596
624,0.007822941073042761,0.007655747091308514
625,0.007831137308223043,0.007644603044000082
626,0.007822445789508647,0.007620366587056586
627,0.007818451119561472,0.007604599424652205
628,0.00781687805347079,0.007688685970657353
629,0.007819940948231015,0.0076059332821406395
630,0.007820788912588448,0.007621244824244448
631,0.007815899743472604,0.007677967047178325
632,0.007817287233287545,0.007598517909766887
633,0.007812653099290365,0.0076078629643873096
634,0.0078117255124452115,0.007611378034862289
635,0.007807543810331721,0.007589514235854874
636,0.007805296663549826,0.0076277870107034264
637,0.00781272961948219,0.007605415305903745
638,0.007798380232986519,0.007575343056322836
639,0.007807882735319287,0.0076149261064845574
640,0.0078011429533093955,0.007624560109787565
641,0.007801295717055197,0.007577478169597268
642,0.007810162340818022,0.0075773858931293256
643,0.007796588689730084,0.007600295475993037
644,0.007804428796925909,0.007637101265587463
645,0.007808849701301469,0.0076021427327928656
646,0.007793502283362363,0.007576968648152944
647,0.007802570689084818,0.0076095699045628865
648,0.007804078644617282,0.007607476626026587
649,0.007799991807289678,0.007599093609875474
650,0.007793007971043344,0.007607036804219909
651,0.007793221349423055,0.007598711168265086
652,0.007801648894857296,0.007618197157604367
653,0.007797653843507803,0.007581642100743085
654,0.007788720488506522,0.007588413184461851
655,0.007799387979190693,0.007620151906250844
656,0.007795980624076102,0.007574446176066209
657,0.007787234853025529,0.007609761566669957
658,0.007775760082016476,0.0075688660258105495
659,0.007765797828827456,0.007579991713299175
660,0.00776569824777633,0.007904208779247404
661,0.00779069183443526,0.007621088097686218
662,0.007799562883285211,0.007609699779497542
663,0.0077773720302654085,0.007571503174070507
664,0.007796089457209297,0.007591954449422821
665,0.007785662073639033,0.007584851320125979
666,0.007787366634051355,0.007623830625888592
667,0.007785254274028912,0.007597282330980653
668,0.007784925962315859,0.007599297673754932
669,0.007777402870538976,0.0077826229459625
670,0.007796387101640646,0.007574739381791804
671,0.007780527935368572,0.007591292782500084
672,0.007780184952901592,0.007569066246945807
673,0.007775241833812504,0.007568069592432481
674,0.007769523078487743,0.007571880136135382
675,0.007779686152487635,0.007563046808146841
676,0.007772685558027368,0.007576484695780911
677,0.007784029525190926,0.007606231335200073
678,0.007781643188186437,0.007585411654167415
679,0.007785417442265943,0.007641469290825959
680,0.00779066623387645,0.007612081563337393
681,0.007791313638774942,0.007579227532913481
682,0.0077846742386491995,0.0076817684181469635
683,0.007788160825528509,0.00757022456259188
684,0.0077873324838170915,0.007567680893286108
685,0.007790950894970193,0.0075850163530543245
686,0.007786444029297301,0.007604047018182611
687,0.007787997598011938,0.007578079644228058
688,0.007794992180632128,0.007585771611475499
689,0.007787722216216658,0.007575470412607756
690,0.00779374201317505,0.00762094427557286
691,0.007780430589044232,0.007571721423057793
692,0.007786918230939379,0.007604357917148798
693,0.007796703969047154,0.007580498532548438
694,0.007796069113142472,0.007591599174031183
695,0.007790500151621307,0.007573964577304186
696,0.007792899481284084,0.007612944260354412
697,0.007795518872628602,0.007580705523333797
698,0.00779466975176091,0.007581227315500656
699,0.007791682996163018,0.007563980513034027
700,0.007792673614308584,0.00762147172025593
701,0.007791509197501419,0.007572440851996415
702,0.007793815527260423,0.0075750827799881265
703,0.007781978231669069,0.007773010956768523
704,0.0077904034245630995,0.007613993228684328
705,0.007770131807774305,0.007665201097074217
706,0.007770241404830622,0.007610946771328467
707,0.0077774308859001546,0.0075887180037723986
708,0.00777288954637891,0.007563789996763409
709,0.0077708605922955434,0.007569359672850259
710,0.007777882576976016,0.0075531744391378695
711,0.007773056564803382,0.007566965979335879
712,0.00776842014723904,0.007582798214222925
713,0.007771242164251349,0.0075851954910254584
714,0.007765945338691064,0.0076228678071628185
715,0.007768471428887356,0.007689598332924371
716,0.007784239694646137,0.007611304853150783
717,0.0077650952842638335,0.00756961264664916
718,0.007767351201062111,0.007541583551868905
719,0.007759638654859998,0.0075602633006181886
720,0.007760826846490725,0.00758247890351801
721,0.007772531849164381,0.007548285099101424
722,0.007748854240317574,0.007523215057091169
723,0.007741066269290218,0.00752292702915653
724,0.007743624256725451,0.00756990240202478
725,0.007744878593882959,0.007536807993694306
726,0.007738984431519663,0.007541439589641728
727,0.007740249544131555,0.0075393415268416916
728,0.00775006712019873,0.007547888289215549
729,0.007739789960674756,0.00754270368480008
730,0.007741409660748738,0.007560140932536256
731,0.007749413602423964,0.007534260602497223
732,0.007749596562197774,0.00753532155490173
733,0.007749660877515379,0.007546991906721758
734,0.00776259541426531,0.007562464897710428
735,0.00774773233290538,0.007536681220524575
736,0.007743680397059032,0.007549200823722409
737,0.007749188394234288,0.007581558718670096
738,0.007750098110348869,0.0076859285193892
739,0.007746532843489233,0.0076847719281627844
740,0.007750645354822624,0.007573457994473387
741,0.007743441859548024,0.0075308897865623455
742,0.007748554615427653,0.0075326026236035674
743,0.0077414921886795425,0.00756985047758109
744,0.007741745125899036,0.007522910585232677
745,0.007738284321145429,0.00754955357328867
746,0.00773925798981666,0.007574816655128928
747,0.007745340130581939,0.007535684929702911
748,0.007746739023692423,0.007674391913950588
749,0.007746861292402729,0.007546122623222297
750,0.007744031350200681,0.007584932900357928
751,0.007745011124664468,0.007544140326915141
752,0.007746905243893663,0.0075375718379579034
753,0.007740263600093279,0.00754016047360229
754,0.007748620857516702,0.007528242076137568
755,0.007740176764143119,0.007620501781029012
756,0.007745251283601368,0.007536309706658995
757,0.007735947403889761,0.00757367246000992
758,0.007742062785190711,0.007520629167073351
759,0.0077358915204341835,0.0075529367928842605
760,0.0077415224231087605,0.007529735961734088
761,0.007731723680785053,0.0075919014410797845
762,0.007745583813855227,0.007533440385270631
763,0.007729647813097919,0.0075225994101931724
764,0.007738233496956199,0.007564573813855213
765,0.007731635885177444,0.007513368160094513
766,0.007724748552665771,0.007517199241612877
767,0.007720614362916677,0.007516147166230721
768,0.007726990240883288,0.007517047014558765
769,0.0077230676876647985,0.007535628594506444
770,0.007726413764885729,0.007542728592958135
771,0.007727081646204734,0.007516321687621502
772,0.007729720697850824,0.0075135830735420656
773,0.007724284464709634,0.0075380336500807015
774,0.007727758477242877,0.007588628241044544
775,0.007722679553948659,0.007582697580777719
776,0.007724481870049687,0.007597715645236932
777,0.007727429016848938,0.00754739733643993
778,0.007724816177571245,0.007510779500279548
779,0.007720586786000394,0.007509518455145979
780,0.007725641027755075,0.007507078329196376
781,0.007715537346634056,0.007515193307991325
782,0.007718274204300536,0.007514503940075805
783,0.0077178969616152416,0.00751202820293418
784,0.007714202327040838,0.007508027765730702
785,0.007702709129788548,0.007570068953922872
786,0.007705426652258854,0.007522200568845769
787,0.007709840097851616,0.00749419335674703
788,0.007709807696550178,0.00750159881654024
789,0.0077058021575689695,0.0075058333571193575
790,0.007709069204351919,0.007499875065350161
791,0.0077146338984919035,0.0074940883189693564
792,0.0077026832168004674,0.00750422046503954
793,0.0077009186867454515,0.007520999245055546
794,0.007709350600224242,0.0075224645425235465
795,0.007710044957127711,0.007523386569245018
796,0.007701891964320854,0.0074935221481110545
797,0.007707058149333998,0.007575446174050238
798,0.007711455109622404,0.007498027880306734
799,0.0076996176690012335,0.007532847910781073
800,0.00770316124476904,0.007499111968486147
801,0.007701563079945081,0.007582819735101104
802,0.007702432992272347,0.007504524728049133
803,0.007700006388429048,0.007507129418999802
804,0.00769215839929145,0.007615662791705045
805,0.007707803041485546,0.007502159383223488
806,0.007700826495876901,0.007494257593834101
807,0.007693312636422242,0.007505333371345627
808,0.00769577517932515,0.007521413918509052
809,0.007698619343769894,0.007511173915012233
810,0.007701701918591539,0.007554999588167677
811,0.007694210624881536,0.007550110478507051
812,0.007691714682991358,0.0075102434671104005
813,0.007694932574732863,0.007519659534510639
814,0.007703984914208838,0.00749474815799215
815,0.007699297125144802,0.00749731352907777
816,0.007697435530250052,0.00749692697771383
817,0.007693153228521275,0.007758750818180342
818,0.0076992497328307935,0.0074965451388572255
819,0.00769272643932588,0.007486867589237046
820,0.007689923266869029,0.007513592037049765
821,0.007689517581935307,0.007493655853704621
822,0.007697251149258607,0.007508997373367506
823,0.007695326764282701,0.007561505748380493
824,0.007691482800447506,0.007508747407672541
825,0.007694407793849087,0.007487509122446168
826,0.007696638011662148,0.007521116786575231
827,0.007694613238836857,0.007496030211134452
828,0.007688937414201905,0.007488970153429526
829,0.007694801201207266,0.007515831849713782
830,0.007692692465811753,0.0074891814001248995
831,0.007692129823943679,0.007505292538175811
832,0.007695034527711218,0.007508812648971586
833,0.007691915386361633,0.007505792685212614
834,0.007696388938051878,0.007484593831262546
835,0.007682220577102026,0.007495374530206366
836,0.007690078811906427,0.007482472592277418
837,0.007697380356284812,0.007482485292783039
838,0.007694691151165791,0.007569798577307978
839,0.007700755025257913,0.007506469203444728
840,0.007703039882029052,0.007509949248108865
841,0.0076990895777839345,0.00753058358990653
842,0.007698734698398076,0.0075017777804076815
843,0.007697558191547497,0.007501491592458275
844,0.007699341742132453,0.00748862512334154
845,0.007695892910727317,0.007528255967044144
846,0.007693733545012766,0.007510548493759185
847,0.007699421581232829,0.007495186865686259
848,0.007692387176929616,0.007534427484852433
849,0.007698400153012706,0.007541404103834578
850,0.0076971322684299005,0.007499236858616805
851,0.0076994383536142,0.007490199389705089
852,0.007700068511149352,0.007615978945505904
853,0.007707620296460257,0.007515710171248646
854,0.00769807534102944,0.0074815431984393745
855,0.007695168805561417,0.007536006505266497
856,0.007693761343761288,0.00753553704919848
857,0.007694741567109135,0.007550685668767514
858,0.007695407604797183,0.007737436575780336
859,0.007715263436015269,0.007533588075054098
860,0.007694026953753254,0.007504473802907768
861,0.007690283576857218,0.007489389075617406
862,0.007688726768273416,0.00756326785261251
863,0.00768004030845254,0.007596209070464749
864,0.007700326050176107,0.0074974284420471216
865,0.00768378958757743,0.007468006006364211
866,0.0076920044473450695,0.007570622823467751
867,0.007690635974704623,0.007513456991499793
868,0.007693216088321134,0.007471636281743803
869,0.0076830315614660515,0.007501582948555936
870,0.007682768612342467,0.007468602908601484
871,0.007676400637568785,0.0074999103245581445
872,0.007686317340956272,0.007487202927301013
873,0.0076919013896794486,0.007500645125606562
874,0.007677622047365547,0.007465904523427421
875,0.007681117837486552,0.007475057221791992
876,0.007676964385615433,0.00749518475982467
877,0.007677371120430809,0.007473831571825906
878,0.00767716370393232,0.007500428459414455
879,0.007678235059319209,0.007682978790419574
880,0.007681530405557733,0.007508090047644631
881,0.007672888498598213,0.007471587755909947
882,0.007679226967074376,0.007508811739553597
883,0.007684757089685258,0.007490547120855141
884,0.00767525898149495,0.007481190128235293
885,0.0076784229299741045,0.007481790393204198
886,0.007680216523034989,0.0075062908729219575
887,0.007675416300817429,0.0074900757851470365
888,0.007681660995400363,0.0074876100330976865
889,0.007675443570524024,0.0074717018602979395
890,0.007676891709272985,0.00746557494778026
891,0.007676873545127334,0.007471340472393783
892,0.007663855965199281,0.007509643284850191
893,0.007674782097360508,0.0074642931068858425
894,0.007674346797636526,0.007490875077073592
895,0.007670097577246167,0.007496586673729128
896,0.007670154412902647,0.007463591263930873
897,0.007673375597081965,0.007462726132483475
898,0.007675847237343617,0.007466493838369267
899,0.007669559722054926,0.00745805748492866
900,0.0076737665389332655,0.0075058459549000225
901,0.007667915332984862,0.007452228187378692
902,0.007667659838542975,0.007468814389449329
903,0.0076660893557725955,0.0075070951957276755
904,0.007668041500722985,0.007461073239985778
905,0.007675871936778864,0.007472025351002148
906,0.007665212758651989,0.007474472386715669
907,0.007667607313888468,0.007489346170953542
908,0.007665837702570294,0.007485195572525021
909,0.007664921364670185,0.007486475090400315
910,0.0076715375022370635,0.007514786631600072
911,0.007662865673650423,0.007466115152262399
912,0.007668319941566194,0.007491465537096559
913,0.007672824651551686,0.007468942987497682
914,0.007682437701277536,0.00746830794975367
915,0.007678583214019207,0.007478770818818128
916,0.0076774459237529576,0.007480164545317032
917,0.007666580206763038,0.007455372480813048
918,0.0076624844350022155,0.007465634062215505
919,0.00766242455782069,0.007452171256226417
920,0.007656138567768449,0.007506106833988515
921,0.007665215950053606,0.0074582338576346325
922,0.007650061105612853,0.007694374545592896
923,0.007668981136973378,0.007464364622338144
924,0.007655553472003906,0.007468629572147749
925,0.007656733263090098,0.007470977975286707
926,0.007657617756319915,0.007472988819312199
927,0.007657867919704358,0.0074584623307763125
928,0.007661562664262813,0.0074515282331277756
929,0.007653113029557195,0.007467532285322214
930,0.007665858167433161,0.00747547556992865
931,0.00765637952082748,0.0074509037877618055
932,0.007646658596880227,0.00746716828208601
933,0.00766011962616403,0.007480098793792198
934,0.007652691788404727,0.007469114103102989
935,0.007659451581173844,0.00745637119737879
936,0.007648792689751157,0.007454602623362901
937,0.00765723027169609,0.007455651973512414
938,0.007659888071708196,0.007448498308447108
939,0.007661598188738474,0.007455354693911468
940,0.007654277000090091,0.007482518463124373
941,0.007651938196701155,0.007449687845304016
942,0.007656408231511557,0.007459382926901713
943,0.00765753536335259,0.007485397330002628
944,0.00765669043269083,0.007453430457598101
945,0.0076547202757083245,0.00762950746827462
946,0.007663314555099814,0.007450247367742771
947,0.007664378221669466,0.007461370598518766
948,0.007666058277262388,0.007461338169156707
949,0.0076557612363502585,0.007490694469984527
950,0.0076609729487952995,0.007455347819648085
951,0.007653691981873625,0.00745557358530739
952,0.007658790746663479,0.007466338905721105
953,0.0076627334034751905,0.007455420199198541
954,0.007656632745869643,0.007456865640914571
955,0.0076482959902189895,0.007450727030970247
956,0.007642741150277152,0.007442683634852019
957,0.007658248853007013,0.007453194207195359
958,0.007650923199378986,0.007455468601158186
959,0.0076546110637826,0.007453106801098837
960,0.0076548166996579445,0.0074521670732058025
961,0.0076584679990249266,0.007553624835949986
962,0.007654422648799859,0.00746188555985375
963,0.0076552312053125605,0.007442432056148654
964,0.007655597663222789,0.007452443021894202
965,0.0076473195462213985,0.007443972777149248
966,0.007658856938793671,0.007453975215590493
967,0.007647682901835733,0.0074869200688486934
968,0.0076583049914764586,0.007507094571824637
969,0.007651527149019669,0.00745819723316667
970,0.007652008137236938,0.0074562870716828695
971,0.007646906899110831,0.007468743152336338
972,0.007659284000152989,0.007460382346302537
973,0.007644653586511186,0.00744999967936943
974,0.007667485569746161,0.0074517688293248684
975,0.007645192118756789,0.007437719871718301
976,0.0076459978104645825,0.007470127270652913
977,0.007655178453606234,0.007442277476995192
978,0.007646825598527471,0.007446888591021613
979,0.007639740436025459,0.007449231430018035
980,0.007639343181835283,0.007445624730015734
981,0.0076416087697735065,0.007448711414388642
982,0.007651513834611428,0.007448368577780588
983,0.007651924361080361,0.007439770668575847
984,0.007646680855415195,0.0074614460892757795
985,0.007641925398943375,0.007460521832440843
986,0.007648040949135088,0.007442650055121525
987,0.007642768972513793,0.007444134970034706
988,0.007636683510975828,0.00744200517693104
989,0.0076527598014234114,0.007522250561531564
990,0.007637270686371003,0.007438422464716512
991,0.0076474531432889625,0.007512689191192413
992,0.007649555881011834,0.0074627521981856055
993,0.007645912953481686,0.007444506557545015
994,0.007630017750469254,0.0074599229682324525
995,0.0076413218605311944,0.007443033538332748
996,0.007636128506101996,0.007523889954761577
997,0.007632237668928382,0.007446451778451868
998,0.007643723364149909,0.007483509157701952
999,0.007631990111979534,0.007581533382994947
1000,0.007643563229235723,0.007435072868282922
1001,0.007646712430158527,0.007449767934135785
1002,0.007639606359874825,0.0074643528950759435
1003,0.007638179020787641,0.007441007992930995
1004,0.007640818499320979,0.007437826756656846
1005,0.007629833612561202,0.007611123530008352
1006,0.007636756698091666,0.007430416803779828
1007,0.007635302827495923,0.0074462621542266344
1008,0.007640156161943801,0.007443347432562252
1009,0.007636472433686161,0.007465169342825399
1010,0.007637916404971655,0.007459007251920105
1011,0.00763757038619921,0.007419956516435208
1012,0.007633732105370423,0.00749767329793088
1013,0.007634596661660817,0.007474099447918997
1014,0.007639809366572109,0.007434361787257596
1015,0.007638128482556944,0.00745462051752142
1016,0.007621156276196981,0.007689927413830019
1017,0.0076516015981558895,0.007445099207271262
1018,0.007643188306281837,0.007458025110328067
1019,0.007636092453330063,0.007454550005525761
1020,0.0076291435070073394,0.007440765746714304
1021,0.0076269755755857625,0.007428251566412192
1022,0.007628561834170162,0.007436031507764734
1023,0.007638280204250466,0.007440414012689974
1024,0.007632223609611213,0.007451340772169253
1025,0.007636170691882877,0.007431440701933286
1026,0.007632378169266079,0.0074416390228910795
1027,0.007639400003324326,0.007432969142769714
1028,0.007635080367789042,0.007483677143972769
1029,0.007636991873818984,0.007451889953377377
1030,0.0076388925421323845,0.007430968668677414
1031,0.007635108272047688,0.0074463637824421815
1032,0.0076346178147628655,0.007433318957876768
1033,0.007628219570887026,0.007472966132581306
1034,0.007637678402840638,0.007449406934093869
1035,0.007635907149591071,0.007459937770823009
1036,0.007635977707156021,0.007428692066883374
1037,0.007635163517968596,0.007445226497842424
1038,0.007632128814171204,0.007461848549789539
1039,0.0076363786236286835,0.007460274172770063
1040,0.00763457829469712,0.007422636158459209
1041,0.007634136865692462,0.00747795385857689
1042,0.007633760648655047,0.007448148980528261
1043,0.0076334599861867716,0.007453000181281315
1044,0.00763377661945774,0.007423833401198442
1045,0.007634119516174444,0.007425357290035278
1046,0.007636166870403137,0.007426145774692249
1047,0.0076396168035129195,0.00745025080827345
1048,0.007643037960693848,0.0074849241592189406
1049,0.0076328078083532916,0.0074544204776654955
1050,0.007643001845659758,0.007467944208994834
1051,0.0076336299890937135,0.007427187800401367
1052,0.007620541274464063,0.007913726193502557
1053,0.007651771322933672,0.0074464262135338945
1054,0.007627362604987464,0.007441774766366485
1055,0.007638740883819503,0.00743226948574137
1056,0.007632844091905318,0.00743454981358104
1057,0.007643235435752605,0.007452631757095371
1058,0.007630694793646125,0.00742392221523112
1059,0.007630998643042088,0.007448634664495593
1060,0.007626922033858404,0.007442681363950705
1061,0.007637064707494551,0.007429328703284505
1062,0.007633315206537422,0.007445637323642082
1063,0.007624405066000284,0.007437494860256555
1064,0.007642048681743914,0.00743206873058741
1065,0.0076327995483646445,0.007441259656231382
1066,0.0076440310398723675,0.007468360241665675
1067,0.007643088363215411,0.007425441811146745
1068,0.007629507336112334,0.007436039139624664
1069,0.007624576392444112,0.007438839234212309
1070,0.007628214234982828,0.007430082972222653
1071,0.0076360106225862945,0.007462683013683398
1072,0.007631476097975114,0.007458659365171958
1073,0.007631349053347202,0.007438908921387002
1074,0.007636399952705213,0.007448153246257572
1075,0.007634767431846326,0.0074303123272127574
1076,0.0076291171220199076,0.007450055723763634
1077,0.007624037592508513,0.007510452451213095
1078,0.0076357126642343665,0.00746946621290427
1079,0.007622148327490657,0.0074918420863732856
1080,0.007621041484910837,0.0074312053515069
1081,0.007629264991661852,0.007476510165828761
1082,0.007617507921047121,0.007638204497619799
1083,0.007640450104200143,0.007479583427222372
1084,0.007624144532051895,0.007439343857715648
1085,0.007616313255270474,0.007469218049805675
1086,0.007619717551709963,0.007430054131813728
1087,0.007627627214683806,0.007441658189403919
1088,0.007622582850242563,0.007431089555556128
1089,0.0076240267216103426,0.0074387287399267045
1090,0.007619541942226209,0.007423713821041589
1091,0.007626788992676332,0.007412811501793086
1092,0.007632569096359112,0.007410589267937081
1093,0.007620052891963119,0.007416553239036723
1094,0.007630119015581255,0.007434992428600112
1095,0.007615092219792312,0.007463925282054694
1096,0.00762187517520258,0.007427749351280329
1097,0.007615108961601846,0.007614009981916044
1098,0.007629647324185332,0.007436176984807339
1099,0.007621249428214289,0.007447059568401429
1100,0.007618046694884809,0.007428416377273354
1101,0.007621327839013312,0.0074382599357089565
1102,0.007628211130077143,0.007427390076035735
1103,0.00762437377236873,0.007446487188725963
1104,0.007613215372160232,0.007424882205999294
1105,0.007618905020858332,0.007468788997879719
1106,0.007620457779046437,0.007411851954781613
1107,0.007620468745761222,0.007435314892810095
1108,0.007617741747512471,0.007489878477321731
1109,0.007623536759067336,0.007431553123067137
1110,0.007619440703212117,0.007411360268580024
1111,0.007618737682548044,0.007423122499186458
1112,0.00761360891336341,0.007427924340598388
1113,0.007625600558335038,0.007406462072670484
1114,0.007613985375348356,0.007411945620302446
1115,0.007617151064185308,0.00744734096000181
1116,0.007619909667003575,0.007467984751362387
1117,0.00762189080785092,0.007458953593992791
1118,0.007621064357865181,0.007483059872358747
1119,0.0076281785863556795,0.007404352966182399
1120,0.007625360185395273,0.007426589871292204
1121,0.00761716800993137,0.007429260830036141
1122,0.007623363845497728,0.0074160683504324665
1123,0.007636313535440102,0.007423073348316567
1124,0.0076242701219077155,0.007437851236542477
1125,0.007626597752781202,0.007436505538114593
1126,0.007624367932402033,0.0074443675366903305
1127,0.007623558623896683,0.007448684752353037
1128,0.007622322517248084,0.007624165790981861
1129,0.00763123077612588,0.00743010536588529
1130,0.00762198246184817,0.007453058743569925
1131,0.00762692098956916,0.00742614957815926
1132,0.007618031777692042,0.007433264619018958
1133,0.007623890213507285,0.007440978298620876
1134,0.007624032846789917,0.007414746708905102
1135,0.007613741567550753,0.007611684860708456
1136,0.00762501067546807,0.007456852858077919
1137,0.007623381823975387,0.007424413452011028
1138,0.007618623057542871,0.007415626283405713
1139,0.007621853520274997,0.007437538043259729
1140,0.00762757078727321,0.007484697374618716
1141,0.0076199662808278164,0.007417648899257908
1142,0.007613960878358329,0.007416954707423797
1143,0.007617473331622308,0.007423175027139261
1144,0.0076347343766058175,0.007415171941502106
1145,0.007620334382160746,0.007458405823742144
1146,0.007613207359356079,0.007422608773572263
1147,0.007614707354280212,0.00741613129968094
1148,0.0076185197784178395,0.007476678185334123
1149,0.0076296057338096366,0.0074184354204331
1150,0.0076225649183683155,0.00747094088326913
1151,0.007622658660571226,0.007476434314779073
1152,0.0076152190448249505,0.0074220748825205695
1153,0.007616409381331087,0.00749987114103026
1154,0.007611118183971597,0.007421554054910829
1155,0.007619741534571155,0.007436528852147512
1156,0.007625927475301193,0.007443566299409931
1157,0.007609357674486094,0.007463733181100571
1158,0.007620606265717549,0.007634810511164808
1159,0.007617712830282074,0.0074487622318954025
1160,0.007612195730155664,0.007430193540908318
1161,0.007616925024590772,0.007426518242917985
1162,0.007614879881973573,0.007446408245730647
1163,0.007615423165157354,0.007542709457036183
1164,0.007613548573503216,0.007496288141790122
1165,0.007616400684761681,0.007496819602565753
1166,0.007624165549444809,0.00745448121719443
1167,0.007619143882356256,0.0074806103425437325
1168,0.007614336876918952,0.007425968545063762
1169,0.007615143330312902,0.007433678009165851
1170,0.007615124077138732,0.0074198584276986435
1171,0.0076150690537957165,0.007428793432999218
1172,0.00761099756315792,0.007425622973026102
1173,0.0076198916016571566,0.007404141823722643
1174,0.0076150671680352755,0.007625483885099273
1175,0.007616792041569757,0.0074022132329286255
1176,0.007611708281587084,0.007415879439239278
1177,0.00760773522443801,0.007404810754281664
1178,0.007609395388203611,0.007403280360915752
1179,0.007605328222735225,0.007406929616619201
1180,0.007615098651808748,0.007419269156565969
1181,0.007611136539750475,0.007413984468585939
1182,0.00761861399560272,0.007441515267644582
1183,0.007604663574201666,0.007401455691143181
1184,0.007613045179111371,0.007407479518790339
1185,0.007620024875483459,0.0074248961720612605
1186,0.007610247249724724,0.0074507802032200135
1187,0.007620849050104237,0.007448099867047233
1188,0.007626824307995882,0.0074322416544540665
1189,0.007619818044323817,0.007427758268335198
1190,0.007617570270073591,0.007422767417159442
1191,0.007615871293122789,0.007430333530096774
1192,0.007613452529091779,0.00749971077491175
1193,0.0076134147076271745,0.007414500167123544
1194,0.007613305463638303,0.007445118322799289
1195,0.007613338811175407,0.007417451589544276
1196,0.0076134548126589405,0.0074172623645112415
1197,0.007607029455663969,0.00741979957385244
1198,0.007615937346934055,0.007426580173980871
1199,0.007606750335529435,0.007425085371790721
1200,0.007606075684785294,0.007553565653157326
1201,0.0076087723371294665,0.00742752030295443
1202,0.007598848016880411,0.007405895009766796
1203,0.007601931375012195,0.007411227475048103
1204,0.007601516106180113,0.007509616704012622
1205,0.00761042649725719,0.007406292313261189
1206,0.007600826467033192,0.007448218177493423
1207,0.0076099465537019925,0.0074374347008214865
1208,0.007610219388714044,0.007390801542546579
1209,0.00760344145044064,0.007438996344856126
1210,0.0076029835051869615,0.007413165212517479
1211,0.007599761415782979,0.007476738465244414
1212,0.007607609861634009,0.007411335055268425
1213,0.0076104020103335,0.007463885740877793
1214,0.007597995207259496,0.007406709721011305
1215,0.0076079318982909165,0.007395890552704642
1216,0.007597269034393436,0.007402224259621736
1217,0.007601054649639001,0.0073980645065868855
1218,0.0076022742914887455,0.007395886070573127
1219,0.00760075162568266,0.007401068499258931
1220,0.00760174259987829,0.007423667812724473
1221,0.007598728063800413,0.007409255284308445
1222,0.007596270984681464,0.007460611222413069
1223,0.007610191052721395,0.007405804382185455
1224,0.00760473476035343,0.007407985768142698
1225,0.0076106529831259945,0.007427601726832955
1226,0.007615064471748302,0.007467225844316964
1227,0.007600162459389747,0.007436704434400057
1228,0.007590026220379829,0.007481751157558505
1229,0.007602638572460418,0.007400494574554815
1230,0.007595629036856041,0.007517680990308016
1231,0.007611733210683942,0.00740642169911931
1232,0.007596026765282532,0.007399589856610681
1233,0.007601364265554685,0.007396963868359676
1234,0.007606239229205062,0.007424280589744025
1235,0.007597592925493292,0.007417936097084268
1236,0.007595248443571876,0.007409211308963519
1237,0.007599185039330307,0.00739405208681948
1238,0.007597128902409103,0.007437950255468621
1239,0.007594653547296317,0.00740789249086177
1240,0.007598661084631808,0.0074060053008684805
1241,0.0075935312487882935,0.007395168257664227
1242,0.007602851484806014,0.007392891330700382
1243,0.0075936788581967875,0.007423200603764858
1244,0.007598659693986011,0.007403418334882286
1245,0.007596095487418726,0.007403423579519996
1246,0.0075934480933891576,0.007425183713563022
1247,0.007585919273866593,0.007408907096938737
1248,0.007586744763449228,0.0073956620682330025
1249,0.007598622850447392,0.007390279370826115
1250,0.007583994407197826,0.007446986684290162
1251,0.0075921893594793986,0.0074118729416410905
1252,0.007588515347846634,0.007399929821074299
1253,0.007583545944060656,0.007386324232306697
1254,0.007582612487795451,0.00741360307310837
1255,0.007587721577291493,0.007405834998754182
1256,0.007587905776716047,0.00752513567348285
1257,0.007592434798396402,0.007380254175030571
1258,0.007590466991344316,0.007385031960297312
1259,0.007582334568537623,0.007445136528153997
1260,0.007583186538551477,0.007684063839379454
1261,0.007591649379545422,0.007434651595506355
1262,0.007591643402378281,0.007390862970559315
1263,0.007605666671995166,0.007398938140035014
1264,0.007586654210410971,0.007387673566518208
1265,0.007580935911053987,0.007493813225315145
1266,0.00757781590959184,0.007510538515842551
1267,0.00758532914381513,0.007444724947401449
1268,0.007583712548274007,0.007407774533154949
1269,0.007582995740829514,0.007422804130378745
1270,0.007578894758434464,0.007540467311533746
1271,0.007585154927586965,0.007396138786804308
1272,0.007588490555950219,0.007398491626754947
1273,0.0075870295554053505,0.007386085522170001
1274,0.007581673159127574,0.00738912943897154
1275,0.007577183383484904,0.0073991830438822626
1276,0.00759280112283446,0.007403170505639797
1277,0.007585715454405813,0.0073847510985613155
1278,0.007581334824698438,0.007416867563426978
1279,0.0075801983300456295,0.007388028858527118
1280,0.007577914403478583,0.007488706375382364
1281,0.007582694330096865,0.0073919899430086675
1282,0.007580433356642031,0.0073977900111544745
1283,0.007585974671155381,0.007412031298957989
1284,0.007579173663074823,0.007387124109992097
1285,0.0075833010233735875,0.007410475505336164
1286,0.007583383212031556,0.007389912428598721
1287,0.007584784735438583,0.0073839463384192065
1288,0.007582469633426234,0.007405663547026778
1289,0.007577805234800825,0.007377801208839195
1290,0.0075808001668740506,0.007383428624282015
1291,0.007579084520069382,0.007386820679356775
1292,0.0075795697588906035,0.007388701097433972
1293,0.007569121562982436,0.00753285503430354
1294,0.007581650953161254,0.007396357714833763
1295,0.007577266711503076,0.00738175698108095
1296,0.007581251984338363,0.007413053666056411
1297,0.007585149117446451,0.007384794408082358
1298,0.007578275994128519,0.007378606671816386
1299,0.007577129143824856,0.0074064988414065825
1300,0.007579815099381203,0.007393204417103858
1301,0.007578219102175117,0.007380864825416946
1302,0.007575644248778864,0.007393250818192862
1303,0.007581655485249811,0.007389371667815628
1304,0.007571519099718767,0.007402497450598279
1305,0.0075786251010294195,0.0073818333317818
1306,0.007582645735787668,0.007374065581842085
1307,0.007579637418096189,0.007414711297120346
1308,0.007575623323474291,0.007432504265515522
1309,0.00757638619932308,0.007376677892945061
1310,0.007579235617650018,0.007404041024860046
1311,0.007577140943062983,0.007378694646676816
1312,0.0075721605531752015,0.00748175155070806
1313,0.007585577635069171,0.007396244476432251
1314,0.007578456596515363,0.007389174026511881
1315,0.007576603767163067,0.007403367597062899
1316,0.007572451806973943,0.0073926491305588565
1317,0.007580236542606062,0.007431516487269216
1318,0.007578784830307512,0.007375204402406527
1319,0.007588207510689958,0.007387896649621047
1320,0.007577515580058336,0.007382144073639231
1321,0.007575153895885683,0.007382897659380892
1322,0.0075757367494668935,0.007390211432241659
1323,0.007579133043168568,0.007412574574614166
1324,0.007577774497800416,0.007386136775880158
1325,0.007570458274093077,0.007381862677506867
1326,0.007587693262177171,0.0073833598627649185
1327,0.00757577839613951,0.007445673648621479
1328,0.007577166688278783,0.00740042901903826
1329,0.007575196381419706,0.007397281779059408
1330,0.007579491125140861,0.007392614554169694
1331,0.007571903767632403,0.007389257702408457
1332,0.00757572261632992,0.007390030933920194
1333,0.007583079672082244,0.007378553491635648
1334,0.0075683644670751496,0.007378966941453655
1335,0.007584958302947261,0.007398643567161113
1336,0.007563501864140801,0.007392486086038198
1337,0.007569843169832655,0.007371323730793554
1338,0.007572333543174404,0.007382659801257063
1339,0.0075658561987690534,0.007516950105648527
1340,0.007581262533859409,0.007385559798129936
1341,0.0075686216862160885,0.007393122980762379
1342,0.007575438180796689,0.007496843517464128
1343,0.007592543948805624,0.007398509577563258
1344,0.0075688866031221195,0.007371802114113404
1345,0.007561795448539876,0.007505018932522794
1346,0.0075724300006784805,0.007371560826788854
1347,0.00757084072890391,0.007376695038193334
1348,0.007566326578558565,0.007395106604940652
1349,0.00756603886997454,0.007383439152834625
1350,0.007572598793015206,0.007376198211211986
1351,0.007566278864494604,0.007411535444087065
1352,0.00756718543842077,0.00739151789426852
1353,0.007565899732320594,0.007391089940970856
1354,0.007556096564536934,0.007394040732690573
1355,0.007569397739272675,0.0075073206551004405
1356,0.007577679348547307,0.007376538573734806
1357,0.0075622514446524736,0.007366216031491563
1358,0.0075666008176381964,0.007382552385698802
1359,0.0075765620254194905,0.007380709159342815
1360,0.0075718095262137484,0.0073727378651910645
1361,0.0075665363576636014,0.007417756188298302
1362,0.007562318887991057,0.007377492636291118
1363,0.007565152315755454,0.007362042813934234
1364,0.0075705193424577995,0.00738645802702927
1365,0.007566853923002799,0.007383566060453194
1366,0.007562101841363624,0.007384453840487292
1367,0.007564307371671912,0.0073610392198214325
1368,0.007571397911834779,0.007366346048050698
1369,0.007563919141393504,0.007411297799344118
1370,0.007568314633860862,0.007369813599169786
1371,0.00756539528767427,0.0073984619101625775
1372,0.007570059684062715,0.007412627543302348
1373,0.007564047006987113,0.007373801087741555
1374,0.00756302765877045,0.007414223575648842
1375,0.0075634310687120385,0.007366434411528699
1376,0.007557177973211742,0.007387125191247787
1377,0.007565427802315204,0.00736894467520767
1378,0.007565352103089074,0.007421027695260102
1379,0.007565752964756124,0.007370581982592355
1380,0.007566782529559061,0.007369841555464296
1381,0.007562442143575204,0.0073657301994794425
1382,0.007563124696393792,0.007393623739239266
1383,0.007558504107584946,0.007379148136189892
1384,0.007557090225698854,0.007405783367756413
1385,0.007549668962376012,0.007359327550521249
1386,0.007568154424754045,0.0073705704543597554
1387,0.0075631239458924535,0.0073707968544967275
1388,0.007562232100508445,0.007372627010990451
1389,0.007567114486404545,0.007371434863711143
1390,0.007558674068362404,0.007367054309049396
1391,0.007561806272834635,0.007511907088700969
1392,0.007578513461998026,0.007461315970369354
1393,0.007554543169186987,0.007400956038847892
1394,0.007563366660933265,0.007370484331947512
1395,0.007558066014266066,0.007414643881979964
1396,0.007567511102314397,0.007386132999982712
1397,0.00756097142491415,0.007360548363728124
1398,0.007559135416783601,0.007395776692288418
1399,0.007561590699620658,0.007369526497648072
1400,0.007559274188321146,0.00737609548965546
1401,0.00755838820415499,0.007374890241923003
1402,0.007554689591886212,0.007361809032329412
1403,0.0075608930450597935,0.00737703489086803
1404,0.0075577877177070195,0.007366863681367521
1405,0.007559236482433003,0.0073586346612546805
1406,0.007554675903532198,0.007361941451217378
1407,0.00756257060979358,0.007371248900573111
1408,0.007556864851601034,0.007394445773791175
1409,0.007559296715291764,0.007361189190325511
1410,0.0075540350902202225,0.007374455992945161
1411,0.007552220191943755,0.007499690857222674
1412,0.007560645327795211,0.007368551036954796
1413,0.007560400354539494,0.007361706624990397
1414,0.007553822445937449,0.00736110096280701
1415,0.007552956551197078,0.007574896779838898
1416,0.00756336143874139,0.007382562221235627
1417,0.00755616108080845,0.007382819771960027
1418,0.007560909972910145,0.0075029147568325735
1419,0.007557229069564894,0.007358369054552243
1420,0.007551216799243867,0.007355299282030468
1421,0.007555062148878105,0.007360799607064723
1422,0.007557466156032083,0.007388061736177861
1423,0.0075542642898988824,0.007580819216821968
1424,0.0075628501709828,0.007365652519774481
1425,0.007549436303978567,0.007379599653912552
1426,0.007553682623026942,0.007463917952704652
1427,0.007554567225122328,0.007356234749481505
1428,0.0075485371709394875,0.007356342919614991
1429,0.007553488249891252,0.007390000152311742
1430,0.007557099747335057,0.00737177732340925
1431,0.007553082166032328,0.0073648976813170935
1432,0.007556588422161064,0.007370983460798727
1433,0.007557031110203486,0.0073670244134436845
1434,0.007552626056207405,0.007455426770574372
1435,0.007556227136483853,0.007362589925914302
1436,0.007550386789503147,0.0073624049503709715
1437,0.007557119039283264,0.007347241471939254
1438,0.00755394624212117,0.0073636068920215885
1439,0.007549921512973605,0.007380452420598762
1440,0.007559587817722626,0.0073518219010395335
1441,0.0075478235082932004,0.007357091439354618
1442,0.007547405351540916,0.007362206826033335
1443,0.007551421790873651,0.00745793438568675
1444,0.007549878648274225,0.007347582673634322
1445,0.0075502955019951246,0.007557053183147265
1446,0.007557071630937682,0.0073777788691826935
1447,0.007562354238729199,0.007417940610184335
1448,0.007551586354976062,0.0073724327864244715
1449,0.007554365204926058,0.007354445222973679
1450,0.007547709240083746,0.007363651305080572
1451,0.007541590878401426,0.007374424016026105
1452,0.007539832163333678,0.007412380344760872
1453,0.007544629600904196,0.007387419628539853
1454,0.0075478802078677186,0.007455098753929476
1455,0.007541308438985514,0.007512249979315158
1456,0.007544569766597809,0.0073551274035413
1457,0.007548331862033678,0.007358738947100786
1458,0.007548224046346161,0.007361221947878696
1459,0.007546063400342691,0.0074722127402042674
1460,0.007544645283884221,0.007390036567553141
1461,0.007545486404623887,0.0073591004192243
1462,0.007543084707507809,0.007381414880542521
1463,0.007545228244839691,0.007357194875831514
1464,0.007527443335754715,0.007428000851051651
1465,0.00755700513308911,0.007363391036299168
1466,0.007545133228685924,0.007371702872364746
1467,0.007539518510071252,0.007375142615234112
1468,0.007546948848383202,0.007364647455788418
1469,0.007546246329171835,0.0073650277488610414
1470,0.007541675009489585,0.007349375708652578
1471,0.007554265431868878,0.007360239412759439
1472,0.007545103736928671,0.007359119142358103
1473,0.007537780327348111,0.007365857507423207
1474,0.007540412873903616,0.007362922076105661
1475,0.0075346115533653215,0.0074179410807552705
1476,0.007544131525639322,0.007357784097867701
1477,0.007541294068730383,0.007373493659519269
1478,0.007543911183964285,0.007384137909886611
1479,0.00754666306507931,0.0074064785286796254
1480,0.007542950653353985,0.007361487143303646
1481,0.007538286740895364,0.007346426378119818
1482,0.007564735188006496,0.007365502993027104
1483,0.007542154948943682,0.007447935323573087
1484,0.007543678534514695,0.007377503701128422
1485,0.007538911701963724,0.007364364340901375
1486,0.007538140465835746,0.007340012056283224
1487,0.007533611322986521,0.007337939024004792
1488,0.007539958761687323,0.007359838043320667
1489,0.007533314915596127,0.007344877226119566
1490,0.007542176930095144,0.007332601543706264
1491,0.007534289579716227,0.007354744160147527
1492,0.0075352995136709474,0.007340243576050699
1493,0.0075264150929973545,0.007442722014330527
1494,0.007541040943978761,0.007358491410926552
1495,0.007532965124557145,0.007472768989418062
1496,0.00753197648724298,0.00741379984238299
1497,0.007534268179802512,0.00734446628739799
1498,0.007535023809007233,0.007364056221173966
1499,0.007537021598457288,0.0073435044343623315
1500,0.007531768998788824,0.007433554434065692
1501,0.007537986225321042,0.007354809997780045
1502,0.007525276193235687,0.007350296364449092
1503,0.007527488054151388,0.00741017868308787
1504,0.007539435163784542,0.007348860995821347
1505,0.007524861166741344,0.0073515265309142324
1506,0.0075356427392213226,0.0073505229930735565
1507,0.007536743181475026,0.007346874016842413
1508,0.007538549903648987,0.007358369687896914
1509,0.007530739154738245,0.007358372636707401
1510,0.007526577281444262,0.007338307315252558
1511,0.007523905338601674,0.007356488320746876
1512,0.007533948082593177,0.007345725062763242
1513,0.007527659794060682,0.00736396842192789
1514,0.007523149748170991,0.0075571628563885565
1515,0.007526644888826854,0.007337359898094472
1516,0.007521514745027996,0.00733161544153846
1517,0.007524004799229584,0.007341686490808356
1518,0.007526866270317208,0.007330154271196613
1519,0.007526893748434259,0.007337830864823599
1520,0.007524618327921872,0.007340346151450762
1521,0.0075221362000285055,0.007340463342874735
1522,0.007508083975152839,0.007334104951377429
1523,0.0075208872192806964,0.007443277740855576
1524,0.007523705978900958,0.007337880361634884
1525,0.007514869224196605,0.007385662333875145
1526,0.00752020808305141,0.007322147082981547
1527,0.0075182733491355415,0.007325622537124234
1528,0.007512436697618951,0.0073378523452915945
1529,0.007515002456266251,0.00733042774655511
1530,0.007508415429799961,0.007328065739912853
1531,0.007519360819982113,0.00732925134942854
1532,0.007511709231787843,0.007312823104727273
1533,0.007508510046282871,0.007331397810789234
1534,0.007506562746223137,0.007313454961396651
1535,0.007507705541657175,0.007315391824193244
1536,0.007502528703476998,0.007324336198236361
1537,0.007516264820022522,0.007413394695536112
1538,0.007508568642056995,0.007313429442931507
1539,0.0075038183552084015,0.007402405114836888
1540,0.007500420029970815,0.007312467016599958
1541,0.007495465333103012,0.0075130340248944555
1542,0.0075072198476138306,0.007311223388255996
1543,0.007500785032363297,0.007312400523340519
1544,0.007497899575431863,0.007314980647920208
1545,0.007498429395449314,0.007308206644093517
1546,0.007494292646986518,0.007317417570135261
1547,0.0074951606418630235,0.007358189335354246
1548,0.007496517761912439,0.0073044236117954285
1549,0.00749235769832213,0.007331227625751171
1550,0.007493221229337472,0.007308020969491757
1551,0.007492814255912629,0.007330754528989878
1552,0.00748730187876235,0.0073021129000288435
1553,0.007488521145920667,0.007355042881296838
1554,0.007496751090280526,0.007299832272700609
1555,0.00749345590547622,0.007415392655510658
1556,0.007480261371276372,0.00729458352712505
1557,0.007482892248684091,0.007357353131934118
1558,0.007484883138592287,0.007300630935436811
1559,0.007482957302199735,0.0073285550494668495
1560,0.007481676701969319,0.007296987612854874
1561,0.007480435454032367,0.007302037871156465
1562,0.007472475164840587,0.007306691698370455
1563,0.007479773521918454,0.007316366682132738
1564,0.007487177024867603,0.007299453892502616
1565,0.00746618854098195,0.0073341665704887956
1566,0.007471430331641574,0.007351172723129863
1567,0.007477100487064728,0.00731227877387431
1568,0.0074794560822220545,0.007303237150644541
1569,0.0074748252291050405,0.0073028271315379156
1570,0.007463114571759852,0.007308547767234206
1571,0.0074559377791215365,0.0072915855068517044
1572,0.007460854125482808,0.007284048620297212
1573,0.007451856266886139,0.0073957535878597285
1574,0.007455251365676343,0.007286918561811961
1575,0.0074475632348150805,0.007299548610198913
1576,0.00743857500299191,0.0072735147048407275
1577,0.007453281213540593,0.0072549840066029065
1578,0.00743858899333603,0.007271302135061512
1579,0.007438305604701834,0.007262888319929344
1580,0.0074204434316345845,0.007351103032556184
1581,0.007420902934187861,0.007239009075422695
1582,0.007420876057068404,0.007250439467033959
1583,0.007424399041957718,0.007239330515782111
1584,0.007405261674282955,0.007213936090644597
1585,0.007410680098582903,0.007353194434851384
1586,0.007399220665315803,0.007221414656238593
1587,0.007383126552232368,0.007206296002143346
1588,0.007387887185038305,0.007222599380884534
1589,0.007370401803535328,0.00718623564963056
1590,0.0073754691397301475,0.007183272700110225
1591,0.007355766852212558,0.007178403887314615
1592,0.007348955398256942,0.007167960440820054
1593,0.007344447494260042,0.007152066506756604
1594,0.007343106585859752,0.0071405277852594415
1595,0.007313236846977038,0.0072764183220129525
1596,0.007312688858340009,0.0071298986313062425
1597,0.007304716025374001,0.007136216252703833
1598,0.007296005538698313,0.007144658023375181
1599,0.00728199777198587,0.0071058662393752
1600,0.0072587642079,0.007161568308706847
1601,0.007263819127827525,0.007086895567886924
1602,0.007250470924284384,0.007090215388434695
1603,0.007232497264672104,0.007202592111114845
1604,0.007217361724110033,0.007059012270031764
1605,0.00721633944360672,0.0070492919928727355
1606,0.007202766820030799,0.007043598881044213
1607,0.007191723854608351,0.0070098317919385115
1608,0.00717777932872526,0.006995702326291717
1609,0.007167035470335626,0.006997398513203845
1610,0.007154143069407718,0.006992564731506391
1611,0.007140699519385831,0.006990291120066018
1612,0.007135072149995497,0.006946882132942345
1613,0.00711941789370403,0.00694161149108932
1614,0.0071027625334994186,0.006942074578210095
1615,0.0070994345611445995,0.006911162662396128
1616,0.007076476057849711,0.006852772302127957
1617,0.007021590381684759,0.006791085285034155
1618,0.006898106357307913,0.00665875383639906
1619,0.006808423832002237,0.006649209391506991
1620,0.006752666166116348,0.006617379093819146
1621,0.00672528979400571,0.006541519905444286
1622,0.006717691895924061,0.006543764859643393
1623,0.006688496584461941,0.006510481900412405
1624,0.006674666727577642,0.006543943404680041
1625,0.006656952544575553,0.00649170375399636
1626,0.006644788770462939,0.006460363125399855
1627,0.006627625276485952,0.00644143217825614
1628,0.006616438806483491,0.006426800462732278
1629,0.006611710293121558,0.006432942223538012
1630,0.006604037442214017,0.006414014017488883
1631,0.006591524771475095,0.00638686796795314
1632,0.0065799550312885145,0.006407937761592555
1633,0.006568325673035376,0.0063899974002588214
1634,0.006554395361192781,0.006469464110057961
1635,0.006547931909823628,0.006384680839973016
1636,0.006535692678449796,0.006392015383291056
1637,0.0065335902688149405,0.006350080763644691
1638,0.006522998168283076,0.006334344533914874
1639,0.006520932404215547,0.006343807214274338
1640,0.006509903178597279,0.006331170224777249
1641,0.006506682775491137,0.00632643969487837
1642,0.006500346960799636,0.006343164236117864
1643,0.006501002713674015,0.006338171133301723
1644,0.0064943917826402655,0.00631859939090684
1645,0.0064892441685273465,0.006317692718167229
1646,0.006493833146428613,0.006299405956198216
1647,0.006482068737827128,0.0063181123718927526
1648,0.006476691209325631,0.0062984447535021654
1649,0.006479939171452347,0.00628307017755286
1650,0.006478250121773841,0.006297105905544753
1651,0.006474575887190356,0.006297876805728732
1652,0.006464974667647297,0.006304782281636539
1653,0.006458842061725471,0.006291599887961768
1654,0.006458835511522784,0.00627052495543092
1655,0.0064486266241324626,0.00628424994723036
1656,0.006454718741756067,0.006288844551241504
1657,0.006449575044566674,0.006261134656510238
1658,0.006436081145337527,0.006269607194438758
1659,0.006434484757035613,0.006540681164868822
1660,0.006448975871216425,0.006269839062035954
1661,0.006431523375690365,0.006290196294579821
1662,0.00643030212322672,0.0062761448874362625
1663,0.006422452044019325,0.0063243141565517205
1664,0.006429517061171459,0.006238035730404261
1665,0.006417390257358742,0.006247273139845934
1666,0.006421327469773513,0.00624420588710689
1667,0.006408493358901351,0.006234262192611252
1668,0.006414621040893136,0.0062476099685547515
1669,0.006414813143883446,0.006249349140951112
1670,0.006403541023894441,0.006233360883096249
1671,0.006414212860253523,0.006253270266557963
1672,0.006401353643937193,0.006331110347080477
1673,0.006402988037880393,0.0062992673723022575
1674,0.006397062087889382,0.006225263648526705
1675,0.006393639784637358,0.0062154287454239355
1676,0.006394153994376107,0.006208585453237084
1677,0.006392306135557264,0.006210004189863668
1678,0.006384397570559796,0.00621294566911297
1679,0.00639270661097524,0.00620117785925739
1680,0.0063871917142581235,0.006246905645849569
1681,0.006387318979599793,0.006218328912623849
1682,0.0063899593361414035,0.006209143821153086
1683,0.006381880957633257,0.006206561292733903
1684,0.006374129305949347,0.006199376432139
1685,0.006375322074407907,0.006193103203028803
1686,0.00637930416926336,0.006192503654868595
1687,0.00637405580193031,0.006213436401709733
1688,0.006376919351157257,0.006235548290926343
1689,0.006368956626657608,0.0061757434722238555
1690,0.0063667787590158805,0.006192752384087441
1691,0.006367032334515698,0.00621235841622354
1692,0.006371872385500001,0.0062389720007716785
1693,0.006361688869752533,0.0064375085022756705
1694,0.006353205392022339,0.006347016875525606
1695,0.006361842858235988,0.006191222976805568
1696,0.006365383951719686,0.00617489473749215
1697,0.006351169248337479,0.006387100663392624
1698,0.006371594108327973,0.0061922586826639306
1699,0.006348172292930542,0.006231268930920405
1700,0.006361410829325835,0.00619252534569615
1701,0.006353113288022548,0.006191187044220394
1702,0.006358007037321671,0.006182719106254956
1703,0.006351530737578392,0.006268650113203883
1704,0.006359039784951196,0.006178103872655686
1705,0.006353668172845992,0.006256646844154316
1706,0.006351421105103483,0.006175370784196927
1707,0.006348432442121166,0.0061649030069945215
1708,0.0063597396790856025,0.006175736721457018
1709,0.006345618915131943,0.006309639710090021
1710,0.00634833542835877,0.006173701250634102
1711,0.006340222734081044,0.006161656439914659
1712,0.0063367630217114005,0.006183729910753238
1713,0.0063361093246067065,0.006163474599493173
1714,0.006337433119115827,0.006177484048402053
1715,0.0063342704602462755,0.006151783196232905
1716,0.006335098696447569,0.0061594425687008965
1717,0.006338950123166661,0.006144278780205986
1718,0.006334970307031615,0.006174376070127797
1719,0.006337820093711917,0.0061664579946786435
1720,0.006331709558792932,0.006153639088349307
1721,0.006328617438474138,0.0061442489865699
1722,0.006328147205205752,0.006165070441118702
1723,0.006328366085024979,0.006157657019008444
1724,0.0063286511592113605,0.006142278311778666
1725,0.006327411720978083,0.006138755046344828
1726,0.006321915359742599,0.006143848499734882
1727,0.006324862343243497,0.00614337647931963
1728,0.006328547190355839,0.006151953836735293
1729,0.00632312123345329,0.006137231341808647
1730,0.006322119281730884,0.0061402087494888055
1731,0.00632844418749583,0.006143678010298605
1732,0.006321508870993236,0.006144972191028303
1733,0.006315511785554972,0.006141747324217628
1734,0.006316787879049086,0.006185258452426295
1735,0.0063143726181033085,0.006156833371825801
1736,0.00631468241073913,0.006144696632468135
1737,0.006323794463352622,0.006131878485623672
1738,0.0063130875678063395,0.006135417308223291
1739,0.006314903618491965,0.006134709541210776
1740,0.006313202272223725,0.006154343124784209
1741,0.00631664291708719,0.006131756209314401
1742,0.006311131367986326,0.006130064640493289
1743,0.006306704590835268,0.006135052759260761
1744,0.00630764731484129,0.006122485068698458
1745,0.006307671209342414,0.006131074429449639
1746,0.0063069895580202175,0.0061903335694117895
1747,0.0063023975740124985,0.006123295004743197
1748,0.006308416890023683,0.006129954717615249
1749,0.0063068930140202095,0.006125362464192792
1750,0.006310509487217049,0.0061349702665895005
1751,0.006309569771181616,0.006137390525834839
1752,0.006308358960864757,0.006149577401391104
1753,0.006307520053227894,0.006128243929030493
1754,0.00630399831134477,0.006140225696840474
1755,0.006300006619169175,0.006306269553181053
1756,0.006302847879289316,0.006202781720605089
1757,0.006307406271930882,0.006121925247526468
1758,0.0063030831787952955,0.0061238833422873045
1759,0.006300222296401966,0.006137136576904191
1760,0.006298951019090805,0.006274126925930949
1761,0.006305807907644323,0.006137147525042924
1762,0.0063017733436856295,0.006127636266731795
1763,0.006296391973571719,0.006125878230710148
1764,0.006291136985198797,0.006131206434038796
1765,0.006290462811300762,0.006116504297158942
1766,0.006299439933616295,0.006211543644174922
1767,0.006294507582897874,0.0061224190286373525
1768,0.006296397164818928,0.0061178659542107956
1769,0.006298185037590677,0.006128169762367943
1770,0.006287317787907761,0.006119457503292779
1771,0.006289320968440454,0.006121710110501072
1772,0.00628667827352607,0.006128740233700762
1773,0.006294082537788548,0.006106691356047396
1774,0.006289462767335608,0.006112987638223805
1775,0.006289179725057965,0.006102252274597575
1776,0.006289627933926922,0.006102593125063935
1777,0.006291512326092077,0.006106976847959696
1778,0.006290408511242693,0.0061079846926951975
1779,0.006289884222490941,0.006104608086773949
1780,0.006285939101663659,0.006128456446569524
1781,0.0062796490183405825,0.00610619094691089
1782,0.00628205465400417,0.006096021234853206
1783,0.006277363245905615,0.006104974904371801
1784,0.006274141807830911,0.006154504004905162
1785,0.006280896020493954,0.006114459098433805
1786,0.0062815720216185455,0.00610807794807154
1787,0.00627305155904819,0.006131620207893611
1788,0.006275166184742084,0.006180327870586202
1789,0.00628819905543585,0.006109549002669032
1790,0.006268156148803482,0.0062554435183604555
1791,0.006281090493174531,0.006095716554145816
1792,0.006273682067040995,0.00609626811691118
1793,0.006270686069800197,0.006098748313524403
1794,0.006271111520172788,0.0061058109446405304
1795,0.006278438037641651,0.006103330206455299
1796,0.006268271479943545,0.006101323886859833
1797,0.0062769669252749774,0.006114506901793985
1798,0.006275217099155518,0.006116861938245879
1799,0.0062674281035987635,0.006325428257790747
1800,0.006283621294416481,0.006313174048292134
1801,0.0062835735896732015,0.0060990339625454585
1802,0.006272824500516665,0.006110566596833677
1803,0.0062745036792197974,0.006103803631785384
1804,0.00626817915336586,0.006096293074921051
1805,0.006270161993187175,0.006112092148153065
1806,0.006274108030796767,0.006091092076811211
1807,0.006267028628849239,0.006148722420831038
1808,0.0062735143723078165,0.00611665194200024
1809,0.006273399667890431,0.006135206371213446
1810,0.006273697757850393,0.006095552410241534
1811,0.006271354861190621,0.006104985708242398
1812,0.0062682462988154376,0.00609829596267214
1813,0.006271729616745054,0.006114330351585333
1814,0.006271694521020779,0.0061278879168138985
1815,0.006274332690930324,0.0060998859108310115
1816,0.006266490061930698,0.006095608342091484
1817,0.006263918148650466,0.00609704918082311
1818,0.006269247230855201,0.00611738545445473
1819,0.006269421558185899,0.006097074945148349
1820,0.006260408811476991,0.006102280847619485
1821,0.006260640740997081,0.006132102381839853
1822,0.006267277731167211,0.006101010033418179
1823,0.006265595122825823,0.0061172252986957795
1824,0.0062638787147078255,0.0061030916254801275
1825,0.006262597294630195,0.00609584956898959
1826,0.00626752626939749,0.0060896972120291605
1827,0.0062760660104942715,0.006109882210323168
1828,0.006264954188717805,0.006101722152267688
1829,0.006265057850736466,0.006096913697181416
1830,0.006262573687206086,0.00609902887690483
1831,0.00626171301167497,0.006101120963151848
1832,0.006266899434499163,0.0061308096502118254
1833,0.006259349099486422,0.0061054003786745826
1834,0.006262426283598257,0.006091522889412692
1835,0.0062604249019572455,0.006099249855279077
1836,0.006256306209520186,0.006114380705319134
1837,0.006260796089181669,0.006111575651231062
1838,0.006262528932272338,0.006091265026736772
1839,0.006261784755949191,0.006094697625312081
1840,0.0062600506802914955,0.00609803568633743
1841,0.006252967405786888,0.006094867260091835
1842,0.006256899514568864,0.006128502167105699
1843,0.0062608625531029565,0.006101053146930942
1844,0.006252994206103923,0.006105072749136597
1845,0.006255257849747821,0.006097195684737605
1846,0.006250763979343007,0.006139040722180119
1847,0.006262550595402121,0.006099538027104187
1848,0.006251165396895549,0.006091780965091828
1849,0.0062530219455729065,0.006098314401423989
1850,0.006251804703612438,0.006099047123802719
1851,0.0062606971937599325,0.0060887600254457795
1852,0.0062539311792489715,0.006097195006828432
1853,0.0062564083004446385,0.006102140523064262
1854,0.006252529629371208,0.006095230126933218
1855,0.0062579370343877234,0.006086333231458143
1856,0.00625629847521802,0.006082436911662057
1857,0.006254315448237405,0.00608300627416962
1858,0.006250840953638474,0.00609699805778514
1859,0.00625307130716067,0.006094019785629161
1860,0.006247138214917232,0.006085198055741295
1861,0.006251386744458619,0.0060902393988763424
1862,0.006253589531503696,0.006084116950739909
1863,0.0062535048967258654,0.0060900215169797075
1864,0.006248128525480282,0.006101534260770748
1865,0.006253398853086466,0.0060883714369553334
1866,0.0062535880070129,0.006106425047265207
1867,0.006251675627821441,0.006084254461311148
1868,0.006265488829392138,0.006083696370979126
1869,0.006246901196677437,0.006083981101518227
1870,0.006258524878262233,0.006088085890659233
1871,0.006245905008864961,0.0060930066097706
1872,0.0062531140987859,0.006094318244678768
1873,0.006252214843086642,0.006088552388097465
1874,0.0062497631427470305,0.006110034221730407
1875,0.006255195999937095,0.006086539014469944
1876,0.006252788943055871,0.006085559062203521
1877,0.0062473096353135365,0.0061006826878844825
1878,0.006255931215356287,0.00609278197370814
1879,0.006251114260649877,0.006102669452727204
1880,0.006248852699246404,0.0060868818699612625
1881,0.006254166338199062,0.006080484034347031
1882,0.0062484865675600555,0.006075283743037758
1883,0.006248286191159315,0.006106902509459445
1884,0.006250634720120982,0.006112089055829772
1885,0.006238968116048577,0.00608284610557005
1886,0.006247317190658602,0.006078693461706386
1887,0.0062459479470113165,0.006073841971661729
1888,0.006244093348966349,0.006075595276292779
1889,0.0062373761994372,0.006134191773445115
1890,0.006253043466282664,0.0060776820329274
1891,0.006245275130204624,0.006084229190216762
1892,0.006241643620510284,0.00608612412933505
1893,0.006245262406354813,0.0060941224218333334
1894,0.006242714104599791,0.006080076161512179
1895,0.006237083034525761,0.006247270762065346
1896,0.006250279747901128,0.0060789834878680095
1897,0.006243974796598486,0.006077966778195445
1898,0.006242686851670424,0.006074504175246825
1899,0.006241824394024855,0.006083365825109867
1900,0.006239027995094239,0.006078716593704641
1901,0.006240425848762234,0.006077204812816605
1902,0.006238055746522162,0.0060817867914775186
1903,0.0062390672336753794,0.006077862271792818
1904,0.006240457160289498,0.006073620300649364
1905,0.006240807923662057,0.006073051719153595
1906,0.006245349638620384,0.0060739408089308744
1907,0.006237313426878927,0.0060847613085076415
1908,0.0062440269327669546,0.0060786149843723575
1909,0.006237957192610224,0.006270621186431984
1910,0.006241717891062232,0.0060786758575948
1911,0.0062367833205301156,0.006243478901841393
1912,0.006247878871005091,0.006076798321859003
1913,0.006243896328384061,0.006072907785628979
1914,0.0062370237997256585,0.006152014345510742
1915,0.006247386972742786,0.006076285629537008
1916,0.006239229535461784,0.006117709961833866
1917,0.006243921884949251,0.006088799204064015
1918,0.0062396413668262376,0.006147753612711627
1919,0.006241253774398394,0.006075950673292636
1920,0.006251517955058689,0.006109103078169134
1921,0.006242724893475958,0.006104134538702648
1922,0.006241194871041754,0.006077222449407405
1923,0.006242118718429171,0.006103936730093185
1924,0.006236249583961966,0.006145520834441071
1925,0.006248197514933644,0.006094445252378637
1926,0.006239568225568156,0.006100227482260385
1927,0.0062398509979188395,0.006090197660442855
1928,0.006246240938185238,0.006076627255350182
1929,0.006235807508101957,0.006243121134236588
1930,0.006247079436084907,0.00607943608684636
1931,0.00624173646569073,0.0060780870887569465
1932,0.0062431411051882615,0.006086774072583405
1933,0.00623672562252411,0.006082714312851115
1934,0.006236728585755425,0.00608243855488368
1935,0.006233118169510765,0.006086909423664587
1936,0.006233091789370088,0.006084284705501911
1937,0.006238076061135631,0.006085023279426452
1938,0.006238369166394703,0.0060783262350970375
1939,0.006235944295079828,0.006112838505003646
1940,0.006245443428545188,0.006103053479021096
1941,0.006230179700639555,0.006115585097639737
1942,0.0062360399413117175,0.0062247250955748245
1943,0.0062481095929375835,0.006092523098133945
1944,0.006239713917898716,0.006084719266808937
1945,0.006238867183498519,0.006079689274026143
1946,0.006235820224868049,0.006082304068278319
1947,0.006241377913956049,0.0060907716754089744
1948,0.006236526382873782,0.006143094444932946
1949,0.006241301299066091,0.0061106906485474165
1950,0.0062400865874844514,0.006204641046454195
1951,0.006240537723047649,0.006082709057261111
1952,0.006235093997942032,0.006090391233158566
1953,0.006238362277664835,0.006074516453900332
1954,0.006234464729599971,0.006078106810060078
1955,0.006234849487364984,0.006108524009286269
1956,0.006242892868948088,0.006084467996658103
1957,0.006233193395246235,0.0060913520362847525
1958,0.00623500117401274,0.006081336918109476
1959,0.006234862363701157,0.006113770909211618
1960,0.006234854784867972,0.006090119617046231
1961,0.0062326358521642014,0.0060980166425658065
1962,0.006235053222193968,0.006090219809000727
1963,0.006231738266731211,0.006088977868442891
1964,0.006230920254572737,0.0061259354273611125
1965,0.006232472296559615,0.006087962782353356
1966,0.006232471600863889,0.006087799458738057
1967,0.006226993154352598,0.006104841265624989
1968,0.00623316048689968,0.006091395263852429
1969,0.006235641850497099,0.0060921111136572155
1970,0.006235207141704374,0.0060752448697619
