epoch,loss,val_loss
0,0.5710187181114578,0.08770075108665619
1,0.0486222962074107,0.03536426502869851
2,0.031982346180620624,0.02506115451902272
3,0.02376483915876254,0.020760469466435744
4,0.02135349107865957,0.019203703886763603
5,0.020061448695148535,0.01819639315787893
6,0.01886138514286762,0.018049941208615403
7,0.018116130293745866,0.01695316513155837
8,0.017563845682665526,0.016640111773795263
9,0.01734301429152417,0.01640565287463808
10,0.01712507805939886,0.016194769799926855
11,0.016842764600204695,0.016099725147469057
12,0.016737368899592167,0.015955031339595787
13,0.01655486162477512,0.015847414245546493
14,0.016410732705942434,0.015656025803799756
15,0.016255210191041255,0.015584879081215882
16,0.016032345469196956,0.015374997109537287
17,0.01587123511280056,0.015154298525590628
18,0.015588745550126482,0.014869650292594743
19,0.015402159488068713,0.014734445568793495
20,0.015089061437808485,0.014450118194174834
21,0.014925175115281195,0.014237532161013053
22,0.014778148389613036,0.014097667913294767
23,0.014575990308389318,0.013933926549591335
24,0.01447593623263727,0.01390793075632464
25,0.014378930505415837,0.013752456908533463
26,0.014262853898674703,0.013786770503088795
27,0.01416003987345221,0.013556136960422035
28,0.014049112856435814,0.013513017564389586
29,0.013895847002496187,0.013388117214110404
30,0.013767630163821772,0.013264807076355788
31,0.01351218611028812,0.012923322642178237
32,0.013347688277928328,0.012712456384901824
33,0.013161562741834752,0.012561796710426888
34,0.012928670560799426,0.012375202780742039
35,0.012830039465410696,0.012291495287934407
36,0.012659474736820754,0.012127155197115082
37,0.012542677026173418,0.012015424555489327
38,0.012509066215585812,0.011915844640810124
39,0.012385625384742017,0.011944777894212237
40,0.012309402357145631,0.01176157135694663
41,0.01219054529245039,0.011801574242490873
42,0.012118756556339127,0.011653391669284544
43,0.012040173301579143,0.011495114567735673
44,0.011871088254418346,0.011303725987763446
45,0.011741693892193327,0.011228771151375065
46,0.01165747236806431,0.011205601567872297
47,0.011562393033493748,0.011024420685153712
48,0.01137152607153782,0.010908680846378364
49,0.01140608808012296,0.011079742457636082
50,0.01128821488353517,0.0109987597087729
51,0.011284450980259764,0.010821489830987055
52,0.011153193161613327,0.010794286653913092
53,0.011143996580104955,0.010594079836701487
54,0.01098763208994396,0.010490742504493986
55,0.010887608151313207,0.010366678353480614
56,0.010818090262241942,0.010190551761395788
57,0.010690728840742519,0.010114630049778887
58,0.0104856161983032,0.01041294085292413
59,0.010280110443784915,0.009677753338872759
60,0.010111389827099535,0.009704389973465784
61,0.009894551002413774,0.009669790406230254
62,0.009766524195301237,0.009229916435668648
63,0.009624827787387456,0.009070221483495936
64,0.009523483702362634,0.008946255765649863
65,0.009318345217026763,0.008877801936986915
66,0.009165024856482748,0.008716832491775427
67,0.00909017038392164,0.00858973846782153
68,0.00898306179318944,0.008488744388531595
69,0.008851515398017042,0.008393448382836599
70,0.008680254207913568,0.008224373200677173
71,0.0085418956176049,0.008113136748418466
72,0.008431791055356984,0.008022811616539036
73,0.008292164819074976,0.0077915967964028695
74,0.008204959595413376,0.007698623009935468
75,0.008035993346313627,0.007561885138077771
76,0.007960325921978876,0.007436064583312083
77,0.007715683610508855,0.00731638260072419
78,0.007582637956746227,0.0072268341435308345
79,0.007509846603788668,0.007118959491203833
80,0.007395643799053468,0.006947060156423245
81,0.007286250766879731,0.006858295159050341
82,0.007127633653849578,0.006878429731476481
83,0.007014578599423123,0.006693242755261554
84,0.006962728667989361,0.006605398860085523
85,0.006836919491667691,0.006500775860101347
86,0.0069108384339253695,0.006747156286057741
87,0.0067606043283811946,0.006415464419083004
88,0.006694162519480153,0.006315747995778544
89,0.006561795012090352,0.006220913094461617
90,0.006533368105878584,0.006261800387866692
91,0.006530209170808021,0.0062633071820624026
92,0.006444921245421167,0.006154017092392682
93,0.006464888178799346,0.006123380775171402
94,0.00644778205175773,0.006113834559406847
95,0.00645760951520468,0.006071271957936852
96,0.00638569240086228,0.006081858771458111
97,0.006367495330460698,0.006092039670716648
98,0.006417239274236085,0.006354481345518445
99,0.00638178431707098,0.006052336710696286
100,0.006315472253185926,0.006034541091468526
101,0.0063252206731459395,0.006132280950669413
102,0.006345425111676356,0.005983593008448487
103,0.006341510734187545,0.0059967924605085175
104,0.006319614813280545,0.006064101836107073
105,0.006325945677571267,0.006060398277046351
106,0.006344416063186452,0.006308786772699106
107,0.006309678671050897,0.0060042723622822656
108,0.006293569198228699,0.006125599617593214
109,0.006352848287976031,0.006047515542641439
110,0.0063265836141478595,0.005999687052613603
111,0.006261038541006412,0.006389402372751986
112,0.006330819803105892,0.00596757485763157
113,0.006310993030046921,0.005996530327571303
114,0.006272685416177023,0.005927496767600595
115,0.006261753884730958,0.005988927120350404
116,0.006306281429995075,0.0059126205572409786
117,0.006287585111041132,0.005971655510184684
118,0.006269456048065824,0.005920928825125013
119,0.006228502802520967,0.005936608842777244
120,0.006239837472863179,0.005895131747997445
121,0.0062763506917206885,0.00600160338590337
122,0.006260838340207326,0.006159434282724706
123,0.00624339379671457,0.005901876636097224
124,0.006323790880482349,0.0059142968366609925
125,0.006224862942613775,0.005911125329044396
126,0.006258246562688994,0.005913561622824426
127,0.00622531896668842,0.00587711613005917
128,0.0062062215332905225,0.005901990643425241
129,0.006251492383580407,0.005954323873899738
130,0.006186933358094757,0.005854370393121837
131,0.006164073179050195,0.005840278944017219
132,0.0062011928096998205,0.005874419411899642
133,0.006243260708556259,0.005861564283315863
134,0.006141811599947506,0.006049181906459589
135,0.006187994757501649,0.005971953137993015
136,0.006153337560143707,0.005842469330871023
137,0.006151397031373244,0.0060189074851022635
138,0.006175014408852598,0.0059422238964801965
139,0.0060830381766015336,0.0058259412688592156
140,0.006059323927406982,0.00594595831003877
141,0.006113359493593438,0.0058913915712667355
142,0.006086763273029804,0.005721812566254357
143,0.006028811739991793,0.005756077113420085
144,0.006030422115655209,0.005780491842348234
145,0.0060157224023677375,0.005703323401755443
146,0.006022438533332727,0.005643716546882847
147,0.005956950722362181,0.005711902545150203
148,0.0059668482352104825,0.005603698896892242
149,0.005944730525312899,0.0055735183196914265
150,0.0059341139628367725,0.005637365138794191
151,0.005828870769837697,0.005497428518701088
152,0.005841119007227586,0.005584968340455495
153,0.005795312420523959,0.00552803081658949
154,0.005728117246225512,0.005299791507120791
155,0.005609681471150288,0.005280104250135769
156,0.005537856344858392,0.005140189351838774
157,0.0053328796057962626,0.004971098741297425
158,0.0053605864753199515,0.004930610532456191
159,0.0051452602090923975,0.004862209218905428
160,0.005026249058605779,0.004625629106066692
161,0.0048376508690923855,0.004451798608591546
162,0.004854474990875471,0.004409928875994194
163,0.004643068918988132,0.004401898536331112
164,0.00471591528578161,0.004287813377165555
165,0.004644247610233814,0.00433124003392574
166,0.004629771083107202,0.004431510452537617
167,0.004622579010701578,0.004235651620323048
168,0.004597267011080602,0.004322498898941114
169,0.0046111366370792765,0.004242929345977229
170,0.0045556757342610195,0.004416408696131054
171,0.00457708750295194,0.004230912803314983
172,0.004639120969333775,0.0042578687665520264
173,0.004582884084855358,0.0042900031803376724
174,0.004585956049944349,0.004189861357885821
175,0.00450643630839252,0.0041611240723526104
176,0.004502754437746861,0.004216371046904918
177,0.004562688730634731,0.004456647968415204
178,0.004512686840705186,0.004195255704755862
179,0.0045815458852317545,0.004437059886520918
180,0.004490371270245426,0.004336787144512252
181,0.0045102381019191656,0.004177067784965642
182,0.004555062811785908,0.004218897927667272
183,0.004519474146823534,0.004141360224660453
184,0.004510829780881611,0.0042558145877019185
185,0.0045220523841867,0.004111756515875761
186,0.004447129832616477,0.004157639772156125
187,0.004522662182741935,0.004251987969242973
188,0.004469401112498881,0.0043414701709171815
189,0.004470025699994295,0.004106628944959857
190,0.004422492751243224,0.0041060859487759855
191,0.004466129805604883,0.004062883767948183
192,0.004415534307145245,0.004077488889038527
193,0.004408540828839493,0.004071834136105753
194,0.004407187326333289,0.004060680721943106
195,0.004312871373351738,0.004223542798738035
196,0.004425671948545021,0.004016270955445944
197,0.0044089383740213706,0.0042254254391865574
198,0.004378937033256344,0.004070211643019249
199,0.004391317047943787,0.00400709850707568
200,0.004425827903133199,0.004285784199945659
201,0.004349156508589085,0.004166750100253199
202,0.00437109299515597,0.003967112266939717
203,0.004463028086474638,0.004213786674157353
204,0.004336150997080464,0.004050907165466204
205,0.004284017302321078,0.003984166334352221
206,0.004261651572982391,0.004031328045380123
207,0.004425367452107292,0.003963988458447684
208,0.004319434960539027,0.003999902420758065
209,0.004205651621179904,0.00404736120801416
210,0.004262672096350677,0.004140554746010152
211,0.004225960994374941,0.004193805768067698
212,0.004272866396500384,0.0038560887652132826
213,0.004241309594176561,0.0039469084697900175
214,0.004235909239883371,0.00407147173152667
215,0.004183222828291243,0.003980525865786786
216,0.00424679847481885,0.003912324418743584
217,0.00424617966372308,0.0038882352576786704
218,0.0042196818695644485,0.0038528342048478196
219,0.004296862306647462,0.003820256720389944
220,0.004238292861773108,0.003912313014385196
221,0.004255205825876423,0.0038636009184687434
222,0.004222006404107277,0.0038605888328074635
223,0.004242204779906689,0.0038123353785138037
224,0.004202018490246086,0.003910565654583281
225,0.004170050860581706,0.0038198375393125165
226,0.004211114098006983,0.00379952343085604
227,0.004324374550444971,0.004097490503081851
228,0.004163899391276644,0.003909696918509641
229,0.004175441474016246,0.0038079771897562955
230,0.0041404381575953185,0.0038332502226989537
231,0.004198790174439919,0.0037938934890213456
232,0.0041886795430725295,0.003811261025601084
233,0.004178869444802343,0.003822730247056699
234,0.004261158399837162,0.0038117938956346996
235,0.004144302705038873,0.003816153730068655
236,0.004144044949026634,0.0038701040407420656
237,0.004235033414888086,0.0038037358882133786
238,0.0042564861640092535,0.003867374156773187
239,0.0041469828910928805,0.003874703930367603
240,0.004189195736438883,0.003977599271647904
241,0.004180879470630526,0.0038290371933675524
242,0.0041798249675964625,0.0037790824710531197
243,0.004167085011274195,0.004018426599549031
244,0.004175680156929897,0.003933591952823882
245,0.004240526770389944,0.004192471304426494
246,0.0041454198689694355,0.0038129912556390017
247,0.0041499964997628695,0.0037775496459004844
248,0.004141087610993364,0.0038036947200544608
249,0.004158611875959487,0.0038090343923222604
250,0.004166540258778058,0.0037666653809405783
251,0.00415061662749822,0.003819009761604732
252,0.004141948335364854,0.003895867643885417
253,0.004229760965148958,0.00392171865236996
254,0.004129973948941387,0.0038039476730817715
255,0.004165689285890795,0.003777258766592999
256,0.0041646166600949105,0.0038794199834122274
257,0.004102612096776036,0.0039401782269832064
258,0.004127246755890375,0.0037880808806888284
259,0.00413759068374912,0.003754242681176836
260,0.004124858726063569,0.003756839009107597
261,0.004185176613495303,0.0038289814873614376
262,0.004175081590356065,0.004012460624746259
263,0.004174892697408735,0.003809924810348322
264,0.004167783555400977,0.003759588699165463
265,0.004176950349313638,0.003894435070358392
266,0.004140634150292763,0.0037542318216006107
267,0.004176458068716946,0.003796027847909386
268,0.004176930938247111,0.00385868220683716
269,0.0041926952151266975,0.0037670239484404416
270,0.004194543535132901,0.004003135198145645
271,0.0041445164704133125,0.003771527715643682
272,0.004089850665601768,0.003772338031430858
273,0.004179402163924815,0.003753481211861337
274,0.004143319825855814,0.003806032171655697
275,0.004154194856444307,0.003742478651184187
276,0.004143080396169097,0.0037504445315041826
277,0.0041626475690256315,0.003767486830677804
278,0.004191230929414149,0.0038784278690020364
279,0.004112413349718727,0.003757468161504755
280,0.0041395293698206935,0.0037583007376387244
281,0.0041221275627747285,0.0037590122718623832
282,0.004183906261541481,0.0040003342913888205
283,0.004135521870327173,0.003814751105964643
284,0.004160335880806379,0.0037408450605923315
285,0.004114635377634672,0.0037588303034788257
286,0.0041150973164278855,0.0038203639061388838
287,0.0041806714654377426,0.003804866074027746
288,0.004148386640651666,0.0037657054940303555
289,0.004155170720136218,0.0037679884262497793
290,0.00410343378985836,0.0038808721230219555
291,0.004098446250261606,0.0038565466450852103
292,0.00414823218837106,0.0037607105489629897
293,0.004089059197814394,0.003767835578691616
294,0.004188022785615012,0.003758672185979379
295,0.004159549919864516,0.003768239533249213
296,0.0041223699288491945,0.0037561875946641524
297,0.004105772663898068,0.003783167871991769
298,0.004147418564389809,0.0037519437372714693
299,0.004108017638215334,0.0039127367712551275
300,0.0042393819963614686,0.003764911437866377
301,0.004114884629456387,0.004091869841049526
302,0.004206040709147497,0.003796589779097282
303,0.004128607758190379,0.003787778481646212
304,0.004068316077161804,0.003740834366244665
305,0.004119136853529822,0.0037683547324888463
306,0.004151231241117927,0.003755623603878665
307,0.004191925897195136,0.0037809693254908096
308,0.004098252298234342,0.003753364702500856
309,0.004111063438284996,0.0037731962161031397
310,0.004117116517535716,0.003829925906801383
311,0.004159043447969793,0.00376474440047957
312,0.00414634445660544,0.003931914946775875
313,0.0041292659547612414,0.003752737525481933
314,0.004225258834755497,0.003760706169178765
315,0.004155687573406878,0.0038736472404822526
316,0.004115489642773334,0.003966267103788542
317,0.00419774815310434,0.003753520070219417
318,0.00418113167058405,0.004081220333959185
319,0.004140585262568487,0.0037773638644194515
320,0.00421308250997135,0.0037639000810326256
321,0.004119870540543532,0.0037577127956989957
322,0.004235345221164109,0.003805550095902428
323,0.004058718608074887,0.0038372146502735406
324,0.004096559890314006,0.003775111535550469
325,0.004132284501528709,0.00394476257492724
326,0.004160882385590787,0.0037733647063682694
327,0.004136430307457729,0.003939269532412532
328,0.004116400759786463,0.0037562249833378043
329,0.004120748247384572,0.003804601378065125
330,0.004186172973740402,0.003810786025029126
331,0.004105349404072229,0.003864998388385879
332,0.004070425092737027,0.0038985732658815306
333,0.004092079898032298,0.003767596200465044
334,0.004152704230856428,0.0038227065077726784
