epoch,loss,val_loss
0,1.1877782300666526,1.2232519129048223
1,1.1771224074893527,1.2230594676473867
2,1.1692438390519884,1.222800348116004
3,1.1695238219367132,1.2223153528959856
4,1.170122292306688,1.2216969002848086
5,1.166302967954565,1.220586102941762
6,1.156807952457004,1.2191216012705928
7,1.1597620602007266,1.2173404382622761
8,1.14454687083209,1.2124824109284773
9,1.1505339587176289,1.2095288038253784
10,1.146541295228181,1.20641305135644
11,1.1501080460018582,1.2000664524410083
12,1.1445374488830566,1.1956617365712705
13,1.1345022916793823,1.1922502776850825
14,1.1363303528891668,1.1865483263264531
15,1.1326881382200453,1.1848416172939797
16,1.1275964577992756,1.1848942145057346
17,1.1237736719625968,1.1760286818379941
18,1.1179884407255385,1.1765677980754687
19,1.1096992404372603,1.1720471848612246
20,1.1071145755273324,1.1678119638691777
21,1.1028631307460643,1.1629280162894207
22,1.0936938082730328,1.158191872679669
23,1.0836603729813188,1.1583745064942732
24,1.0857869121763442,1.1540194387021272
25,1.079890979660882,1.1469313320906267
26,1.0658899457366378,1.139601899229962
27,1.0610188687289204,1.1304526640021282
28,1.0437493368431374,1.1213241504586262
29,1.0420965044586747,1.1101540275242017
30,1.0346459459375452,1.0977898214174353
31,1.0126045633245397,1.0839085838069087
32,1.0030426493397466,1.0677701571713323
33,0.9905326587182505,1.0518330491107444
34,0.9752564386085227,1.0325737569643103
35,0.9594800670941671,1.0119439804035684
36,0.9365570390665973,0.9893483338148698
37,0.9134587049484253,0.9646360770515774
38,0.8873429276325084,0.9374571235283561
39,0.8605353810169079,0.9069726285727128
40,0.8307584170941953,0.8749563953150874
41,0.8021289529623808,0.8412485822387363
42,0.7688829059954043,0.8033407563748567
43,0.7325130745216653,0.7638522179230399
44,0.6974780228402879,0.7231137908023336
45,0.6584255010993393,0.6790074550587198
46,0.6197943334226255,0.6341196998305942
47,0.5803190182756495,0.5890486525452655
48,0.5424790603143198,0.5455962782320769
49,0.5076219505733914,0.5033388215562572
50,0.4755820433298747,0.465648441211037
51,0.4487068642068792,0.4338338711987371
52,0.42493877918631945,0.407792039539503
53,0.40731274088223773,0.3880080179027889
54,0.39301173775284376,0.3713423402413078
55,0.38089093455561884,0.3579459527264471
56,0.37020999413949474,0.3462594643883083
57,0.35969108122366444,0.3343636963678443
58,0.34661481998584887,0.3235369052575982
59,0.3347637443630784,0.31307595320369885
60,0.3247841309618067,0.30277707006620325
61,0.31351149523699723,0.2934257595435433
62,0.30347213590586625,0.2843245384485825
63,0.29527876884848986,0.2755209337110105
64,0.2851672978312881,0.2671819750381553
65,0.2776411871115367,0.25788212081660394
66,0.26839289510691605,0.24858017719310263
67,0.2606457504961226,0.24137515866238138
68,0.2502200184045015,0.23344606679418814
69,0.24141578762619584,0.2246392038853272
70,0.23279731086006872,0.21634126357410266
71,0.2243247628211975,0.20884231769520303
72,0.21598724524180093,0.19986479697020157
73,0.2064988293029644,0.19228574244872385
74,0.19744288810977229,0.1841821657574695
75,0.1891454110542933,0.1773150226344233
76,0.18051134877734715,0.1706303824549136
77,0.17249488278671546,0.16435036063194275
78,0.16616207968305657,0.1551832712214926
79,0.1611208369334539,0.1508179300505182
80,0.15225708926165546,0.14379992821942206
81,0.14742200959611823,0.13891944677933402
82,0.14250581794314915,0.13604219322619232
83,0.13621599420353217,0.1301620136136594
84,0.13047403704237054,0.12534823236258133
85,0.12834564679198796,0.1242645888224892
86,0.12599730436448697,0.12002195547456326
87,0.12011603128027033,0.11868835791297581
88,0.1171973756066075,0.11364274245241414
89,0.11360983467764324,0.11135846505994382
90,0.11242387526565129,0.10768403177675993
91,0.10767862366305457,0.1059130543599958
92,0.10698730553741809,0.1004176211097966
93,0.10236163244203285,0.09785168779932935
94,0.09931212580866283,0.09947814824788467
95,0.09986743386144992,0.09515498837699062
96,0.09663581599791844,0.0964662857029749
97,0.09638387544287576,0.09217077428879945
98,0.09445742269357045,0.09082641808883003
99,0.0923937984086849,0.09160676404185918
100,0.09101718112274453,0.0908235402210899
101,0.09138464403373224,0.08696558553239574
102,0.08872639994930338,0.0855524238684903
103,0.0870812678778613,0.08763787701078084
104,0.0872302543785837,0.08388816759638164
105,0.08865061347131376,0.0838956544580667
106,0.08477697411069164,0.08473064394100853
107,0.08487208849853939,0.08323917635109114
108,0.08563149140940772,0.08034133068893266
109,0.08490875004618256,0.07952690059724062
110,0.0832400197784106,0.08213296694600064
111,0.0847312460343043,0.07940792389537978
112,0.08502662788938593,0.07961318026418271
113,0.08438479265681019,0.08025924375523692
114,0.08291638007870426,0.08050567170848018
115,0.08341306861903933,0.07754053305024686
116,0.08022781930587909,0.07867606470118398
117,0.08035152212337211,0.07805468660333882
118,0.08061672609161448,0.07987275654854982
119,0.08185160104875211,0.07767810931672221
120,0.08057694992533436,0.07750284930934077
121,0.08161498661394473,0.07626472154389256
122,0.0795790594485071,0.07684500871793083
123,0.08194075855943891,0.07629063984622127
124,0.07949410986017298,0.07674745956192845
125,0.08011246555381352,0.0777081549167633
126,0.08082419799433814,0.07684095754571584
127,0.08005959319847601,0.07672676249690678
128,0.07892887873782052,0.07506557910338692
129,0.07996346166840305,0.07546934388254
130,0.08001762876907985,0.07525745099005492
131,0.08029622805339319,0.07413792059473369
132,0.07779070597004008,0.07618965046561282
133,0.07871059907807244,0.07633824257746986
134,0.07982329527537028,0.07438713117786076
135,0.07817301678436774,0.0753764905359434
136,0.07830659769199512,0.07353804552036783
137,0.07785640436190146,0.07497390748366066
138,0.07615270217259724,0.07226053301406943
139,0.07702510776343169,0.07291387183510739
140,0.07731515086359447,0.0731482032848441
141,0.07675116150467484,0.07394680801941
142,0.07602550448090942,0.0718560270641161
143,0.07611954626109865,0.07149599978457326
144,0.0761605699857076,0.07374822834263677
145,0.07560763894407838,0.07182352957518204
146,0.07532405328971369,0.07222050234027531
147,0.075212556178923,0.0724547952413559
148,0.07490726643138462,0.07329542351805646
149,0.07550258851713604,0.07230622353761093
150,0.07406256596247356,0.07260772909807123
151,0.07287792337161524,0.07138427897639897
152,0.07811047633488973,0.07116115546744803
153,0.07462901346109531,0.07268601137658824
154,0.0732905489427072,0.06960097829932752
155,0.07481255409894166,0.07267582124989966
156,0.07433075375027126,0.07196084021226219
157,0.07285904470417234,0.07099915393020796
158,0.07358264453985074,0.06959339943916901
159,0.0740547936271738,0.07183710194152335
160,0.07200561298264398,0.07020365479199783
161,0.07198883096377055,0.06886426294627397
162,0.071748163137171,0.07271031063535939
163,0.07147591616268512,0.06981337847916977
164,0.07031263107502903,0.07070888384528783
165,0.07115619657216249,0.06814995148907536
166,0.07108661697970496,0.0696832317373027
167,0.07145736449294621,0.06864321685355643
168,0.07206981877485912,0.06850046664476395
169,0.07089781899143148,0.0677335825951203
170,0.07092675180346877,0.06766442889752596
171,0.0720668774512079,0.06706020527559778
172,0.07109133844022397,0.07068689199893372
173,0.06874958067028611,0.06915423986704453
174,0.06986002568845395,0.06623933431894882
175,0.07039254710630134,0.06524485414442809
176,0.068752720952034,0.06611471720363783
177,0.06734107655507547,0.06762086502883745
178,0.06895972733144407,0.06609171110650768
179,0.06892800662252638,0.06715820924095485
180,0.06959385811178773,0.06603365164736043
181,0.06848301572932138,0.06626725844714952
182,0.06958866036600536,0.06474978897882544
183,0.06837823766249197,0.06730080233967822
184,0.06640549721541228,0.06479109402583993
185,0.0677343667657287,0.06607151485007742
186,0.0667267425192727,0.06523916837961777
187,0.06603762866170318,0.06695743293865868
188,0.06853765387226034,0.0646105654861616
189,0.06838587754302555,0.06692065654889397
190,0.06596999808594033,0.0643194635277209
191,0.06651681468442634,0.06673542604498241
192,0.06506405080910083,0.06458747970021289
193,0.06630045175552368,0.06303207738244015
194,0.06488848670765206,0.06359236331089684
195,0.06660300769187787,0.06589618713959404
196,0.066470084366975,0.06205632829147836
197,0.06720210942957136,0.063347896480042
198,0.06524017770533208,0.06236611306667328
199,0.06281430798548239,0.06433995715949846
200,0.06619176572119748,0.0633890661208526
201,0.06612407057373612,0.063102332794148
202,0.06436491674847072,0.0631061896033909
203,0.06362431744734447,0.06538548352925674
204,0.06412926150692834,0.06395210746837698
205,0.06431332451325876,0.061756102287251015
206,0.0633596529563268,0.06270819708057072
207,0.06406017503252735,0.06078039012525393
208,0.06321507250821148,0.061907456296941506
209,0.06409514723000703,0.06234360939782599
210,0.06287034159457242,0.06254548741423566
211,0.06461351116498311,0.061206723684849945
212,0.06268433453860106,0.060230772780335465
213,0.06295373345966693,0.060646470798098526
214,0.062381873528162636,0.06226938055909198
215,0.06528405789975766,0.0616478997728099
216,0.06236992831583376,0.05878055840730667
217,0.061635596884621516,0.06073233355646548
218,0.06316116562596073,0.06004663621601851
219,0.06357822953550904,0.05917525874531787
220,0.06199669258462058,0.05820043838542441
221,0.06099175606612806,0.058491000986617546
222,0.06355395664771397,0.06309891880854317
223,0.05936762042067669,0.058109937802605004
224,0.061629071555755754,0.059457137532856155
225,0.059605509870582156,0.05902562500989955
226,0.06077704275095904,0.058383075115473373
227,0.060302557078776534,0.057587392304254616
228,0.06150500779902494,0.06026843805675921
229,0.06124625658547437,0.0581998656625333
230,0.060244318235803535,0.059687405824661255
231,0.06036537057823605,0.05736417712076851
232,0.0582980599116396,0.056664970096038735
233,0.05850687512645015,0.058216061605059585
234,0.05907868207604797,0.05766320682090262
235,0.058122895933963636,0.056412870469300644
236,0.05793158213297526,0.05863361384557641
237,0.0593023548523585,0.055851018785134605
238,0.05814604999290572,0.056379815806513245
239,0.05775997594550804,0.05804006042687789
240,0.0602018595845611,0.05937055708921474
241,0.056866338959446656,0.05664342577042787
242,0.05670977963341607,0.05565154422884402
243,0.057355273652959754,0.056532176616399185
244,0.055734474625852376,0.05590707824929901
245,0.05653259696231948,0.05769114455451136
246,0.05702652009548964,0.05576582868462023
247,0.05816504193676843,0.05480531214371971
248,0.05569456986807011,0.054467842468748924
249,0.05587705969810486,0.055162937096927475
250,0.05526226372630508,0.055213228192018425
251,0.05592981753525911,0.05470965251974438
252,0.055944922345655936,0.05513083708027135
253,0.05466244121392568,0.055295353026493736
254,0.05812852057041945,0.053885850245537964
255,0.05419068093653078,0.05379033736560656
256,0.05649785393918002,0.05329424385791239
257,0.0538389183304928,0.05294807384843412
258,0.05407846774216051,0.05375288556451383
259,0.05449613597657946,0.05608325710763102
260,0.053635679461337904,0.05315455389411553
261,0.05427101833952798,0.05326652073341867
262,0.05379753283880375,0.05431972832783409
263,0.05351887408781935,0.05173923172380613
264,0.05338597090707885,0.05249052721521129
265,0.05251169287496143,0.05311041924616565
266,0.053810471185931456,0.05245509743690491
267,0.05362395831832179,0.05119915792475576
268,0.05286738580023801,0.05311514437198639
269,0.05315832600549415,0.0516653870758803
270,0.05281873902788869,0.05105784405832705
271,0.05202032584283087,0.0519264065053152
272,0.052176803902343465,0.04998412890278775
273,0.05221429963906606,0.05127134757197421
274,0.053629891464003814,0.051268424352873924
275,0.05244580407937368,0.050379097785638725
276,0.05157310529439538,0.05001079129136127
277,0.05119447906812032,0.04954278922599295
278,0.05114803132083681,0.050207301650358284
279,0.05270269402751216,0.049147865370563835
280,0.04992600323425399,0.04976715341858242
281,0.05071486863825056,0.04922972327989081
282,0.051140592605979356,0.04870241524084755
283,0.04963695975365462,0.04854904374350672
284,0.049453408629805955,0.050698977125727615
285,0.05174932173556752,0.04871345570553904
286,0.04977302363625279,0.047923388364522354
287,0.05099470720246986,0.048056556154852326
288,0.04902871670546355,0.04906164951946424
289,0.05076756176573259,0.04779937814759171
290,0.05029126615435989,0.048091496786345604
291,0.04880968591681233,0.04839456632085468
292,0.0510703573624293,0.04772020844013795
293,0.04828683962976491,0.047962644177934395
294,0.04893393304061006,0.04848867071711499
295,0.04877612008540719,0.04830295365789662
296,0.047819101010207775,0.04798198782879373
297,0.04893498522815881,0.04750911583719046
298,0.0479373664215759,0.049029033793055496
299,0.048107053670618266,0.0475719875615576
300,0.047801920385272416,0.04616767038469729
301,0.04868013991249932,0.047067446229250534
302,0.04775394471707167,0.0472537654897441
303,0.04906336107739696,0.047491039918816605
304,0.04722764370618043,0.04556637386912885
305,0.0473787859082222,0.04556636058765909
306,0.04645286941969836,0.04754692283661469
307,0.046385107217011626,0.04665203149551931
308,0.04669101481084471,0.04590817881019219
309,0.04733134171477071,0.045580019121584686
310,0.04569714847538206,0.04682428535559903
311,0.046985881196127996,0.04682655114194621
312,0.045762131473532426,0.04547802213093509
313,0.046899473777523744,0.04579997904922651
314,0.04697002939603947,0.046885341729806816
315,0.04592268693226355,0.04492105932339378
316,0.04581975633347476,0.04644197209373764
317,0.04676900886827045,0.04573412547292917
318,0.04603116255667475,0.04592005616944769
319,0.046221859477184435,0.04573958286124727
320,0.045642799249401796,0.04515079246914905
321,0.04704303115054413,0.04455872398355733
322,0.04460469260811806,0.04469896852970123
323,0.04724240979110753,0.04475505536665087
324,0.044460970218534825,0.0451960071273472
325,0.04612028253851114,0.044696935169074845
326,0.045672144602846215,0.04345550193734791
327,0.04470007121562958,0.044947444420793785
328,0.04635136933238418,0.04349652936925059
329,0.04361700266599655,0.04462308663388957
330,0.04386207185409687,0.04304275920857554
331,0.044329823857104336,0.04303084621610849
332,0.0435334766904513,0.04437096919054571
333,0.04381427706943618,0.042258494898029
334,0.043812929204216707,0.0428494503316672
335,0.045357948652020204,0.04380290550382241
336,0.042934541349057796,0.043598550169364265
337,0.0440776781351478,0.04324117950771166
338,0.04394688609021681,0.04217737815950228
339,0.04247228690871486,0.043052125722169876
340,0.04311980569252261,0.04219895892817041
341,0.043449882279943536,0.041729636490345
342,0.04407777664838014,0.04327489630035732
343,0.042877808351207664,0.04235840038112972
344,0.04341050058051392,0.0417471864949102
345,0.043251284708579384,0.0419190414249897
346,0.04216694555900715,0.042749595382939216
347,0.04175969392613128,0.04240725821127062
348,0.043645938789403,0.04155321921343389
349,0.04305001375851808,0.04184809975002123
350,0.041302711323455525,0.04202592227122058
351,0.04164997709018213,0.04219692718723546
352,0.041631683707237244,0.041572415634341865
353,0.041359687568964784,0.04018986905398576
354,0.04042080569046515,0.04030871164539586
355,0.04111606517323741,0.04074629299018694
356,0.041233483563970635,0.040284909307956696
357,0.04135097287319325,0.04123153278361196
358,0.04246956330758554,0.040021690661492554
359,0.041378872400080716,0.040557899876781135
360,0.040924393468432956,0.041087106842061745
361,0.04114646933696888,0.039126446389633675
362,0.04149344190955162,0.04060963006771129
363,0.040113886887276615,0.04027482413727304
364,0.04048758138109137,0.03965745202225188
365,0.03967055926720301,0.03992035661054694
366,0.04023946159415775,0.03983188938835393
367,0.03921217154021616,0.039913734826056854
368,0.041202204370940174,0.03971757351056389
369,0.03952575157637949,0.040014386339032135
370,0.04070344939827919,0.03930924913805464
371,0.03898867564620795,0.039288104228351425
372,0.03993659673465623,0.038218778112660286
373,0.03942982990432669,0.03928462140586065
374,0.03982799307063774,0.03894965383021728
375,0.04025592544564494,0.0391050658148268
376,0.03994970906663824,0.03778037072523781
377,0.04005990122203474,0.03970608730678973
378,0.03907894315542998,0.037735908737649086
379,0.03920777376603197,0.03875124875618064
380,0.03954532080226474,0.03804137962667838
381,0.038554627862241536,0.03760945780769638
382,0.03962626363392229,0.037495662660702415
383,0.04025804127256075,0.038048646696235824
384,0.04000363305762962,0.038593234413343926
385,0.038257698356001464,0.0386151104517605
386,0.03855967466477995,0.03729737047915873
387,0.03835498320835608,0.03795732136653817
388,0.038417071379997114,0.038080679495697434
389,0.03825005585396731,0.03833210014778635
390,0.038752325155116896,0.03865246069820031
391,0.038381383650832705,0.03821930548419123
392,0.038415422180184615,0.038042407968769905
393,0.03875997179636249,0.038649718722571495
394,0.03809293221544336,0.03736640350974124
395,0.03795694987531061,0.03731280468080355
396,0.037974276338462475,0.03741061930423197
397,0.03776077015532388,0.03680651651128479
398,0.037291465120183095,0.03830258580653564
399,0.03766085207462311,0.03765050645755685
400,0.03850717401063001,0.03748065994485565
401,0.039082972125874624,0.03766796754106232
402,0.038841368009646736,0.03653857209112333
403,0.03875918769174152,0.036969496828058494
404,0.03703028860467451,0.03782889878620272
405,0.03749674199907868,0.03727116516750792
406,0.03801141458529013,0.03657290663408196
407,0.03724912264280849,0.03792546721904174
408,0.037277812483134096,0.03606115670307823
409,0.037001497077721136,0.036055605372656944
410,0.03763807799529146,0.036448051100191864
411,0.03702181922616782,0.03737375302159268
412,0.03766229017465203,0.0371293561614078
413,0.03752185390503318,0.03671564712472584
414,0.03691019545550699,0.037144606528074844
415,0.03747297519886935,0.037902349363202636
416,0.03764901765518718,0.036756631310867226
417,0.036912594404485494,0.0374656617641449
418,0.03767689151896371,0.037132524601791214
419,0.03704230266588705,0.03618669331721638
420,0.03717761390187122,0.035657278545524765
421,0.037082580366620314,0.03573142089273618
422,0.03744881655331011,0.037289151516945465
423,0.0367562435567379,0.0367000020392563
424,0.03688229013372351,0.03744009234335111
425,0.03759669967823558,0.03719627986783567
426,0.03768331267767482,0.03668519822151765
427,0.036892259700430766,0.0371137458993041
428,0.038019650926192604,0.035866542354873986
429,0.036283119961067485,0.03553867242906405
430,0.03667333459964505,0.03575943766728691
431,0.03677310270291788,0.0359734777847062
432,0.03670025561694746,0.036495392413243004
433,0.03863296740584903,0.036889301046081215
434,0.03761343602780943,0.03644754964372386
435,0.036756892723065836,0.037239896862403206
436,0.0374814058067622,0.036351006316102066
437,0.03712930502714934,0.036853506189325584
438,0.0364644389461588,0.03573290242449097
439,0.03646693902987021,0.036110972904640694
440,0.03666686694379206,0.03531245336584423
441,0.03709045990749642,0.03607810353455336
442,0.036755522782052005,0.03620145826236061
443,0.03599831834435463,0.035461628566617553
444,0.036857804352486576,0.03611398715039958
445,0.036226452914653,0.03551553416511287
446,0.03620416477874473,0.03589812828146893
447,0.03673612933467935,0.03750725544017294
448,0.0363605210074672,0.036058534098708114
449,0.03676287250386344,0.036010738300240555
450,0.03681230669220289,0.03666798316914102
451,0.036907280484835304,0.03560392947300621
452,0.03742995306297585,0.037028629494749984
453,0.036708640693514434,0.035468390616385834
454,0.03559286754440378,0.035410795360803604
455,0.03676156630670583,0.03552605762429859
456,0.03622465290957027,0.03620004427173863
457,0.03673470406620591,0.03545052801137385
458,0.03695844251800467,0.036125066487685493
459,0.037214358923611815,0.036955707585034164
460,0.03655232613285383,0.03715515557838523
461,0.036460314911824686,0.036264814112497414
462,0.0361556188651809,0.03753785141136335
463,0.03696175002389484,0.03561209887266159
464,0.035855183860769975,0.035482993916324944
465,0.0365099114952264,0.036111326969188194
466,0.035935494772813936,0.03595207955526269
467,0.03630251658183557,0.035987723618745804
468,0.035691001211051586,0.035183171863141266
469,0.03557887811351706,0.037161012382610985
470,0.03584579240392755,0.036503394660742386
471,0.036263994596622606,0.03566059729327326
472,0.035337628313788665,0.03531590654798176
473,0.03688729968335894,0.0355075659311336
474,0.03550805261841527,0.03642106574514638
475,0.0365225805176629,0.03509311734334282
476,0.03534281778114813,0.03614867332836856
477,0.03708087432163733,0.03602697732655898
478,0.03559265948004193,0.03548947332993797
479,0.03586099683134644,0.03605750186935715
480,0.03543282162260126,0.03595655638238658
481,0.035556188612072555,0.03582994947614877
482,0.036322421221821395,0.03633545517273571
483,0.03755827993154526,0.03583585762459299
484,0.03660293999645445,0.034558239514413086
485,0.037047480819401915,0.03538935404756795
486,0.03596434521454352,0.034798459514327675
487,0.03582705515954229,0.03510513480590737
488,0.03572969676719771,0.03638095473465712
489,0.036372457113530904,0.0348550469978996
490,0.03618658444395772,0.03469586469556974
491,0.03546597891383701,0.03491454117971918
492,0.03569574198789067,0.03529318227716114
493,0.03563286143320578,0.0353838509839514
494,0.03559570731940093,0.035791473706131394
495,0.035426714216117504,0.034929917234441506
496,0.035296046209556085,0.03461528148340142
497,0.03535313159227371,0.03567245829364528
498,0.03568737622764376,0.034824293916640076
499,0.03704771951392845,0.03522783857972726
500,0.03569170956810316,0.03512892224218534
501,0.03692507854214421,0.034732559776824455
502,0.03501689047725112,0.03458972890739855
503,0.036357185078991786,0.035204063615073326
504,0.035995826677039815,0.035349554827679756
505,0.035797779068902684,0.03438349602662999
506,0.036911487855293135,0.03571014754150225
507,0.0352871600124571,0.03478911373278369
508,0.036114679718459095,0.03505039539026177
509,0.03582344728487509,0.034106456553158554
510,0.034884815414746605,0.035165603718032006
511,0.03568445711776062,0.03488425327383954
512,0.03530191754301389,0.03423656053517176
513,0.036901892749247725,0.03487061611984087
514,0.03526806210478147,0.03469867728974508
515,0.034943837810445716,0.03563170863882355
516,0.03528407795561685,0.03488266500441924
517,0.03503223481001677,0.03526947452970173
518,0.0357655086727054,0.0348448926663917
519,0.035443797017689106,0.0354724379013414
520,0.036428430290133866,0.03558936374990836
521,0.03619779467030808,0.034396685012008835
522,0.03467246614120625,0.035175319113161255
523,0.0348999694817596,0.03498887756596441
524,0.035023019131686955,0.03438345099920812
525,0.035611881564060845,0.03383831355882728
526,0.03503650826988397,0.03452700506085935
527,0.03604293973357589,0.03501022315543631
528,0.03507833927869797,0.035007986361565796
529,0.035512448460967454,0.03476644015830496
530,0.03479299004431124,0.0351221371927987
531,0.035097791364899385,0.03461805844436521
532,0.035709883051889914,0.03461732585792956
533,0.035360227442449994,0.033964505662088806
534,0.035752015395296946,0.034702867107546845
535,0.035557891621633815,0.03364925993525464
536,0.03449921337542711,0.03414922175200089
537,0.035809110988069465,0.033653386909028755
538,0.035108575252471144,0.03427989019647888
539,0.03574100329920098,0.03368147171061972
540,0.03465901756728137,0.03349064096160557
541,0.035145337107004945,0.03457649327490641
542,0.034185466529042634,0.03471968711718269
543,0.035937261388257695,0.033560918239147766
544,0.034420034675686446,0.034004943202371185
545,0.03562170984568419,0.03609273971422859
546,0.035192706104781896,0.03329084003749101
547,0.035336830687743646,0.033718742430210114
548,0.03540252894163132,0.033679172072721565
549,0.03516122422836445,0.03432484457026357
550,0.03415705042856711,0.03482104449168495
551,0.03566433420335805,0.03445184603333473
552,0.03437225741368753,0.03484962767233019
553,0.03416699433216342,0.03369275448114976
554,0.03430152325718491,0.033307188554950386
555,0.03491061456777431,0.03325541884354923
556,0.03442704456823843,0.033422621533922524
557,0.03424929482517419,0.03369073893712914
558,0.03432694229262846,0.03416299625583317
559,0.03502624178374255,0.034228880120360336
560,0.03458556353493973,0.03334575146436691
561,0.03397407437916155,0.033314518144597176
562,0.0338415895347242,0.034046839598728264
563,0.034592007735261214,0.033849819036929504
564,0.03406828034807135,0.03319518365289854
565,0.03481394107694979,0.03309560664322065
566,0.03423604493339857,0.034161132962807365
567,0.034808634883827634,0.033565280554087265
568,0.03507492208370456,0.03313175054348033
569,0.03655496874341258,0.03444968779449877
570,0.03544382378458977,0.033396199993465256
571,0.03435899151696099,0.033351899651081665
572,0.034464974922162515,0.03399665005829023
573,0.03405775047010846,0.033443070624185646
574,0.0356991079946359,0.03373103653607161
575,0.03459965216892737,0.03279811419222666
576,0.033907015842420084,0.033462083857992424
577,0.03414112936567377,0.034010965862999794
578,0.035345745031480434,0.03308664229900941
579,0.03476687341376587,0.03302579923816349
580,0.033690837384374055,0.033894653391578926
581,0.03464049349228541,0.03348875483093054
582,0.03437791005880744,0.033836274043373436
583,0.03418812845592146,0.033472468509622245
584,0.03374133700573886,0.032740765939588135
585,0.033677383015553154,0.03292653061773466
586,0.034680218884238494,0.033869157342807106
587,0.03392736972482116,0.03391310605018035
588,0.0345814468132125,0.03352942269133485
589,0.03390718306656237,0.03283582190456598
590,0.03385224110550351,0.03410332504173984
591,0.033772688910917,0.03245443300060604
592,0.034540227993770885,0.03362215893424075
593,0.0340007022023201,0.03357775995264883
594,0.03394615125876886,0.03240729738836703
595,0.033773422655132085,0.03249839434157247
596,0.034770731848699075,0.03310744950304861
597,0.03442928263986552,0.03383166634518167
598,0.034569636539176656,0.03279050018476403
599,0.033261154812795145,0.034270527732113136
600,0.03470521171887716,0.03250692898164625
601,0.03377300349098665,0.03315006552830986
602,0.03340444106746603,0.03246725966101107
603,0.033293281854302796,0.03374781913083533
604,0.0342530430191093,0.03368646019826765
605,0.034468432405480635,0.03222270925407824
606,0.03449616139685666,0.03252094238996506
607,0.03343619861536556,0.03247046826974205
608,0.034384146608688215,0.032207689207533134
609,0.033855937973216725,0.032224606884562454
610,0.03360742427132748,0.03230483311673869
611,0.03319829633390462,0.032887686853823456
612,0.03291819355002156,0.03284442926878515
613,0.033437838708912884,0.03231458511689435
614,0.033809129424669127,0.03329296620643657
615,0.03389334237134015,0.033152362250763436
616,0.033977509648711594,0.033277259410723396
617,0.03356615619526969,0.03282858803868294
618,0.03336793929338455,0.0324437796421673
619,0.03323517919138626,0.032506791145905205
620,0.03346959970615528,0.03218828595202902
621,0.0339957340447991,0.032454652630764504
622,0.032799825348235945,0.03291294545583103
623,0.03404343680099205,0.032553499159605606
624,0.03350937821798854,0.03229788253488748
625,0.03369434315849234,0.03220836267523144
626,0.0330007564690378,0.032940969842931496
627,0.03334216773509979,0.03289576360712881
628,0.03319443100028568,0.032359974215859955
629,0.03283884872992834,0.03235891785310662
630,0.03377674244068287,0.03148649989262871
631,0.033827765534321465,0.0327787107747534
632,0.033256432938354986,0.03249024081489314
633,0.03364509633845753,0.03216408014945362
634,0.03350248905243697,0.032034789900416916
635,0.0341981362413477,0.03162785943435586
636,0.033105898234579295,0.03153996639277624
637,0.03377984795305464,0.03206946797992872
638,0.0348274750566041,0.03198230363752531
639,0.033564435249125515,0.03142027265351752
640,0.032849647794608715,0.032048760710851006
641,0.03297082265769994,0.032193862387667534
642,0.03259029073847665,0.031648171660692795
643,0.0326732922759321,0.03123444837072621
644,0.0328347758838424,0.03207272339774215
645,0.032200638480760435,0.03196240993945495
646,0.033897841418230976,0.03155902028083801
647,0.03263737468255891,0.032514776062706245
648,0.03329285689526134,0.03147076167490171
649,0.03249409712023205,0.03215078167293383
650,0.033692792471912175,0.032097667617642364
651,0.03235965429080857,0.031612400451432106
652,0.0341761749651697,0.031515223500521286
653,0.03269837603524879,0.031748596416867295
654,0.033960671336562546,0.031045808416345844
655,0.03302347853227898,0.03150755345173504
656,0.03228076009286775,0.031831994814717254
657,0.033259859791508424,0.03189877582632977
658,0.0332745265353609,0.031085531996644062
659,0.03242495255889716,0.031205360818168392
660,0.03235477623012331,0.03214592097894005
661,0.03232322564279592,0.03189518820980321
662,0.032602001119543006,0.031620282841765365
663,0.03268337415324317,0.03187928964262423
664,0.031943737908645915,0.031189676212227863
665,0.03217057718171014,0.03168954360096351
666,0.033363628994535516,0.031349640177643814
667,0.03317505231610051,0.03121768343059913
668,0.03187526431348589,0.031932001690501755
669,0.03282258231882696,0.03157301506270533
670,0.033617404048089626,0.03137629252413045
671,0.032478013938223874,0.0315232583038185
672,0.03202476159290031,0.031127174101445988
673,0.032496975665843045,0.031254346118025154
674,0.03348752262967604,0.030997633772051853
675,0.032038128624359764,0.031101330628861553
676,0.03260307966007127,0.030643159280652584
677,0.03182718585486765,0.03120680120976075
678,0.03270477415234954,0.030829951814983204
679,0.03179246739104942,0.03085527455677157
680,0.032492746081617147,0.03097600036341211
681,0.03257736287735127,0.03115193319061528
682,0.03217477779145594,0.03099881112575531
683,0.032199090277707135,0.031208213094783867
684,0.032394251613705245,0.03133510312308436
685,0.03157384031348758,0.031105811829152313
686,0.03214434768866609,0.03037043887635936
687,0.032525484484654886,0.030707133852917214
688,0.03232199298562827,0.03066377633291742
689,0.032784401818558025,0.030647155059420544
690,0.03187677346997791,0.030962284330440605
691,0.031872636190167176,0.03151508939007054
692,0.032241632541020714,0.031671318670977715
693,0.03237009048461914,0.030744232885215595
694,0.031062984218200047,0.031084762481243713
695,0.03158601180270866,0.03072983609593433
696,0.032177558375729456,0.03053057987404906
697,0.03222337668692624,0.030540891477595204
698,0.03202570685082012,0.031227896232967792
699,0.031219356175925996,0.03043215203544368
700,0.03147811497803087,0.030936946201583614
701,0.03231096322889681,0.0299105587536874
702,0.03177628541986147,0.03130606513308442
703,0.03114941164299294,0.030332777325225914
704,0.031715058618121676,0.031128140247386436
705,0.03141308451692263,0.030333198121060497
706,0.0312512639772009,0.03036251607472482
707,0.030682119920297905,0.029568635575149372
708,0.031496886991792254,0.029960250724916874
709,0.03055607361925973,0.0300825379140999
710,0.03171489449838797,0.03016830430082653
711,0.03151569846603605,0.029583445871653763
712,0.03159007361089742,0.03053217073497565
713,0.030661632617314655,0.030379395284082577
714,0.031067150196543446,0.02984245866537094
715,0.03174962503490625,0.030062474958274677
716,0.03222223247090975,0.029442904921977417
717,0.031195944520058454,0.029595178916402485
718,0.03067618456703645,0.02943795692661534
719,0.03052901228268941,0.029924999274637386
720,0.03127647770775689,0.02986182677357093
721,0.030505313089600316,0.029107202816268673
722,0.030574092158564815,0.029195790057596954
723,0.030629577460112394,0.029462969497494076
724,0.030195908138045558,0.030170979059260826
725,0.030840408194948127,0.029260404893885487
726,0.030637031076131045,0.029560611380831055
727,0.03113069564655975,0.029415172727211662
728,0.031064432252336432,0.02933272816564726
729,0.031052650676833257,0.02882765087744464
730,0.030148415101899043,0.030088775831720104
731,0.03002629925807317,0.029620261619920315
732,0.030755762838655047,0.02869170240086058
733,0.031409649937241164,0.028490168730849804
734,0.030360690421528287,0.028914550886206005
735,0.030521593987941742,0.02898453321793805
736,0.030348386063619896,0.029701445413672405
737,0.029710117589544366,0.028561171954092773
738,0.030607290841914988,0.029258434863194176
739,0.030344060380701667,0.029084977410409763
740,0.030046542899476156,0.028288363114647243
741,0.0301078706289883,0.0297964202321094
742,0.030184680871941424,0.028999330556910972
743,0.03049697106083234,0.02853041547148124
744,0.030027652021359513,0.02848297778678977
745,0.029868158615297742,0.029411635645057842
746,0.029574659411553985,0.028621456707301346
747,0.030264847256519175,0.028384831450555637
748,0.03018309651977486,0.0286057166269292
749,0.03029936110531842,0.02832963835933934
750,0.02930892093314065,0.028723285331026367
751,0.03029126798113187,0.02882858948863071
752,0.029608947328395314,0.028050434816142788
753,0.030844509463619302,0.02844166771873184
754,0.029877665280191985,0.028411900543648262
755,0.03015099534833873,0.029103281057399254
756,0.029545813384983275,0.028241539778916733
757,0.028922309892045125,0.02826179045697917
758,0.029671250739031367,0.02753443643450737
759,0.02923345055293154,0.028180417321298435
760,0.02949490287789592,0.028600437647622566
761,0.03065537330177095,0.02750233593194381
762,0.030651220844851598,0.02812805933796841
763,0.029095607775228995,0.028348597495452217
764,0.030094705246112966,0.028132633508547493
765,0.030127687172757253,0.028344560171598972
766,0.02919507454390879,0.027872045402941498
767,0.03004232973412231,0.0285416878759861
768,0.029397694049058138,0.027468869381624718
769,0.028970727214106807,0.028058836641518967
770,0.029807403200754413,0.027268400496762733
771,0.029415142756921274,0.027563975233098736
772,0.029332459731786338,0.028421312894510185
773,0.029404523609964935,0.02752339953313703
774,0.028911413141974696,0.028254707870276077
775,0.03057424013537389,0.02711097717933033
776,0.029135031004746754,0.02741042241130186
777,0.030086476355791092,0.027684897508310234
778,0.02873948126755379,0.027244902013436607
779,0.02925492395405416,0.027621159087056698
780,0.029027622055124352,0.027069296687841415
781,0.028886888176202774,0.02731612875409748
782,0.029076493862602446,0.027358029118698578
783,0.029057338695835183,0.02688400981866795
784,0.028629853769584938,0.028115130960941315
785,0.029203550683127508,0.0268971292382997
786,0.028522895166167506,0.027818596233492313
787,0.029215133024586573,0.02692225510659425
788,0.02887189057138231,0.027409106492996216
789,0.028814597538223973,0.027109515083872753
790,0.028414374700299016,0.026851636155144028
791,0.02903649935291873,0.027281771211520485
792,0.028738701233157405,0.026696260694576347
793,0.028466135815337853,0.02754892603210781
794,0.02903493838729682,0.027362177715353344
795,0.028359263445492142,0.026434933523768963
796,0.028604088351130486,0.027112482520549194
797,0.028479415785383294,0.02712371200323105
798,0.028975223225575907,0.027297331830081734
799,0.028571456808734824,0.02722978049322315
800,0.028776382130605203,0.027309960969116375
801,0.0284876253593851,0.026801248931366463
802,0.028451933215061825,0.02681533903207468
803,0.02819309894133497,0.026853172837392143
804,0.028430657599259307,0.026373226033604664
805,0.028155072833652848,0.02655785911433075
806,0.028411484219961695,0.026827855116647224
807,0.02753434454401334,0.02694663972310398
808,0.028704794882624236,0.027804502650447514
809,0.02790077141037694,0.027636052635700806
810,0.028557112371480023,0.026559650736010593
811,0.027576480198789527,0.026664362491472908
812,0.028403226631107153,0.02644311499012553
813,0.027601535121599834,0.02671874176872813
814,0.028176958638208884,0.026211337712795837
815,0.027977428640480393,0.025918733814488285
816,0.02872457244881877,0.02622678228046583
817,0.02846876973355258,0.026483669796067734
818,0.027713142887309746,0.026310011339576347
819,0.0280933004838449,0.02600266687248064
820,0.027916025508333137,0.026936768594643345
821,0.027529706833539187,0.02611768796392109
822,0.027935040631779918,0.026800356805324554
823,0.027142495675771323,0.02623701289944027
824,0.027355937494171992,0.025698004533415256
825,0.02771147878633605,0.025827312356104023
826,0.027554656482405133,0.026445907095204228
827,0.02686237667997678,0.02652598666432111
828,0.028075578312079113,0.025578047432329342
829,0.027605018268028896,0.02612976373537727
830,0.027595910002236015,0.025869350070538727
831,0.02732456896316122,0.026440131923426754
832,0.026812129826457413,0.02698691853362581
833,0.027141142567550694,0.026515480292880016
834,0.02749118622806337,0.02575739100575447
835,0.026666874410929502,0.025548503126787102
836,0.027510775322163547,0.02625433193600696
837,0.027323726564645767,0.025505094586507134
838,0.026674655162625842,0.025620758209539497
839,0.026742654542128246,0.02607146844915722
840,0.027606221605782157,0.025808542885858078
841,0.026989268690899567,0.02570437680443992
842,0.026532949672804937,0.025281514324571774
843,0.028576850753139565,0.025342688612315967
844,0.027063854038715363,0.024880856437527615
845,0.0270358475132121,0.025770428873922512
846,0.026027381420135498,0.02493588156674219
847,0.0265227942555039,0.025647298959286316
848,0.02683480304700357,0.025024654910616253
849,0.027303659529597672,0.025788717457781666
850,0.02710834111052531,0.025493101419314095
851,0.027655140531283838,0.02607986379576766
852,0.026791968003467278,0.025341726677573246
853,0.026856018437279597,0.025532780620067017
854,0.02622633337698601,0.024915866067875988
855,0.026185459974739287,0.025474190550005955
856,0.026138316839933395,0.025816073722165565
857,0.02634601377778583,0.024979553387864777
858,0.02629130837266092,0.025999482235182888
859,0.027375589297325524,0.024917805810337482
860,0.02569646540063399,0.025320967335415924
861,0.026289053054319486,0.024841510731240978
862,0.025851703076450912,0.026239604243765705
863,0.02626161277294159,0.025737470258837162
864,0.025788681926550688,0.025432404454635536
865,0.02643196671097367,0.024856702789016392
866,0.026163504907378444,0.024181197842826015
867,0.025888967017332714,0.02560368212668792
868,0.026300909618536632,0.02528347074985504
869,0.02555209901873712,0.025300031608861427
870,0.02566632738819829,0.02505251959614132
871,0.025571647962486302,0.024299009824576584
872,0.025520388312913752,0.024420779036438984
873,0.025810328001777332,0.0258772948189922
874,0.02607952982739166,0.024958649407262386
875,0.026155213239016355,0.025588483428177627
876,0.025547877505973534,0.025098802764778553
877,0.025468703911260323,0.02508637163302173
878,0.025982691595951717,0.025052861674972202
879,0.025461307416359585,0.025480414943202682
880,0.025817557755443785,0.02511006852854853
881,0.025438855160717613,0.024955193309680275
882,0.02531625371840265,0.024465659471309704
883,0.026023075260497904,0.024816412316716236
884,0.026157041666684328,0.02518969296437243
885,0.02524246068464385,0.02405025356489679
886,0.02503532088465161,0.0246837032230004
887,0.02533882842571647,0.024941964317923008
888,0.025482950456164503,0.025104622478070465
889,0.025498478569918208,0.024579417608354404
890,0.025475232275547804,0.024725510536328606
891,0.025421181693673134,0.024360645562410355
892,0.02533728663844091,0.024020688041396763
893,0.025309668370970973,0.025229379534721375
894,0.02513601506749789,0.024191908700310665
895,0.024644509923678858,0.024817804441503857
896,0.02543372909228007,0.024493798289609993
897,0.024603773391357175,0.024918468426103176
898,0.025680097785812837,0.025749515904032665
899,0.025710407920457697,0.024079508107641468
900,0.02500362045786999,0.02450025251702122
901,0.025085907636417284,0.024478873804859493
902,0.025710103550442943,0.023892911798928097
903,0.025562727478919207,0.02544249156894891
904,0.02462006194723977,0.0245766152182351
905,0.024815407616120798,0.023986007775301518
906,0.024655764439591655,0.02434108454896056
907,0.025399150257861172,0.02437763094254162
908,0.02498969049365432,0.024779167512188786
909,0.025464131255392677,0.024357403102128403
910,0.025453814063911086,0.02524064319289249
911,0.025279640461559647,0.02430716124565705
912,0.024535249435791263,0.024859960474397823
913,0.025308470828113733,0.024939062640718792
914,0.02577417826762906,0.024088198885969494
915,0.02478467804138307,0.024666600091301876
916,0.02524593472480774,0.024099666139353878
917,0.02517524458192013,0.02443702089721742
918,0.025429621545804873,0.02414315615011298
919,0.024398839722077053,0.0248898407039435
920,0.026161639916676062,0.02472366894716802
921,0.025635808568309854,0.023821974092203636
922,0.02458163543983742,0.025019407920215442
923,0.024345121449894376,0.023745844140648842
924,0.025474854296556226,0.024053930588390515
925,0.024523732838807284,0.02410285693147908
926,0.024491068803601794,0.02404090486790823
927,0.026465264597424754,0.0246379846787971
928,0.024405299651402014,0.024360577859308407
929,0.02504045192014288,0.025108448351206986
930,0.025409289670211298,0.023907663057679714
931,0.025371042390664417,0.02368850941243379
932,0.024638804296652477,0.024499665459860927
933,0.026263791101950186,0.024167208243971287
934,0.02489752929519724,0.025025191514388374
935,0.024331579743712035,0.024315206900886868
936,0.024791444824249657,0.023752458474558334
937,0.024352521118190553,0.023662126177678936
938,0.025703728336978843,0.023823055479189625
939,0.02412981664141019,0.024066094794998997
940,0.024963799588106298,0.023505114099901657
941,0.024167281885941822,0.025016877314318783
942,0.025190982553693984,0.024424975252021915
943,0.02569188701885718,0.023600627222786778
944,0.025153881835716742,0.025273310020565987
945,0.02461435859677968,0.023937035513960796
946,0.025284157583007106,0.024324275715195614
947,0.025972025675906077,0.024496815774751747
948,0.025494597990203788,0.02368955160288707
949,0.025121742859482765,0.02439375043563221
950,0.024353591311309073,0.02460572042542955
951,0.02476906348709707,0.024393635923447815
952,0.024937690684088954,0.024316681467968483
953,0.024441834263227605,0.02409551616596139
954,0.025350774258927063,0.024519173995308254
955,0.024989995967458795,0.024393070408183594
956,0.024242516882993555,0.02467857592779657
957,0.024349302053451538,0.024586960673332214
958,0.02523596757264049,0.024730896091331608
959,0.025192577529836585,0.024722493213155994
960,0.024143996889944428,0.024790362009535664
961,0.0256559480395582,0.024051822883927303
962,0.023986476714964265,0.025175132181333458
963,0.024546422478225496,0.025255782691680866
964,0.025579714802680193,0.025099098196496136
965,0.02504263438836292,0.02481535384836404
966,0.02489329364012789,0.02456678887424262
967,0.025012040165839373,0.024638644541087357
968,0.02422788918570236,0.024766877536540447
969,0.024581603291961882,0.02491776548002077
970,0.024892662824304017,0.024470155491777088
