epoch,loss,val_loss
0,0.33827310406168304,0.31138561442494395
1,0.30962642787893613,0.30743222841620443
2,0.3073887587984403,0.3066657766103745
3,0.30686603169639903,0.30643215638399124
4,0.3067087488969167,0.30627487069368364
5,0.3066006211042404,0.3062451262176037
6,0.3065647996366024,0.3061633027791977
7,0.30653227677941325,0.3062640780508518
8,0.3065246946414312,0.30615285694599154
9,0.3064690508544445,0.3061400411128998
10,0.3064889386892319,0.3061178004145622
11,0.30645935334761937,0.3061338990628719
12,0.30644720977544787,0.3061714170873165
13,0.3064276727735996,0.30625712949037553
14,0.306414496054252,0.30617094519734384
15,0.30642646676301954,0.3060593099296093
16,0.3063830762505531,0.30607951164245606
17,0.3064068157374859,0.30608418864011766
18,0.3063673501610756,0.30611531445384027
19,0.30638251021504403,0.30611340326070785
20,0.3063723822037379,0.3060951239168644
21,0.3063885556360086,0.3061171347498894
22,0.3063741205533346,0.3060671137869358
23,0.3063787904779116,0.30616828840970994
24,0.3063459623157978,0.3063080545067787
25,0.30634091940522196,0.30600313857197764
26,0.30633130356669425,0.3060358579158783
27,0.3063390827377637,0.306035218000412
28,0.30632922338445984,0.30602305990457535
29,0.3063234679698944,0.3060526928305626
30,0.3063216290374597,0.3060781293511391
31,0.30633508832256,0.30616499134898184
32,0.3063199642399947,0.3060449337363243
33,0.3063107800980409,0.3060187092423439
34,0.3063176963527997,0.30605669459700585
35,0.30631752603252727,0.305999847561121
36,0.3063068237900734,0.3060910463631153
37,0.3063093280692895,0.3060451542139053
38,0.3063164389232794,0.3061356203556061
39,0.3063164265155792,0.3059884647428989
40,0.3063047339419524,0.30605547487735746
41,0.30629869282245636,0.30601637917757035
42,0.30630800958474474,0.30604613083600996
43,0.30630550896128017,0.306013893276453
44,0.306279327104489,0.3060984799265862
45,0.3062992703020573,0.3060012972950935
46,0.3062990972499053,0.30607069766521455
47,0.30630945070584614,0.30600767877697943
48,0.30629966246088347,0.30601254203915595
49,0.306297488451004,0.30599916067719457
50,0.3062929895122846,0.3059889864623547
51,0.30628070269028346,0.30598317202925684
52,0.3062903698484103,0.30597126734256747
53,0.3063078854481379,0.3060607353746891
54,0.30630746471881865,0.30597558441758155
55,0.3062911090751489,0.3060063555538654
56,0.30628796301285427,0.30596434605121614
57,0.30625936105847357,0.3060398398339748
58,0.30627767139673234,0.3059921761155128
59,0.3063093579014142,0.3059960334599018
60,0.3062764238317808,0.30598146507143975
61,0.3062834802965323,0.30599231022596357
62,0.3062888813217481,0.30601582291722296
63,0.30630415165424346,0.3059812214374542
64,0.30629424953460693,0.30599244144558907
65,0.3062750756343206,0.30606876143813133
66,0.306263896048069,0.30606301957368853
67,0.3062763733863831,0.3059808374941349
68,0.3062702633837859,0.3059763896465302
69,0.3062578519582748,0.3060290142893791
70,0.3062623538474242,0.3059561117589474
71,0.30626501939694084,0.3059749528169632
72,0.30626132669051487,0.306026646643877
73,0.3062666759888331,0.3059999276697636
74,0.30626128872235614,0.30594693168997766
75,0.30626714991529785,0.3059525274932384
76,0.30625722286105156,0.3060285414159298
77,0.3062512924472491,0.3059620076417923
78,0.30625431140263876,0.3060184468626976
79,0.30625153113404907,0.3060011831820011
80,0.30624876081943514,0.30597043669223783
81,0.3062474666237831,0.30597209790349006
82,0.30625625303387644,0.3061404521167278
83,0.3062540701727072,0.3059740462005138
84,0.3062449024518331,0.30610747417807577
85,0.3062680943707625,0.3059483273327351
86,0.30625346118211744,0.3060587150156498
87,0.3062508329550425,0.3060077463388443
88,0.30625243623058,0.30597392228245734
