epoch,loss,val_loss
0,0.39673257876244233,0.1310275079197547
1,0.050306668660168745,0.022504353012046674
2,0.021014502219068375,0.0169741383376807
3,0.017535144979920123,0.015157017610598558
4,0.01599747307816322,0.01431399319299768
5,0.015111533693784327,0.013406227953091493
6,0.014502081235615706,0.013056386976721126
7,0.014080257941666749,0.012586066268976636
8,0.013630526978447974,0.01242991783471124
9,0.013270931099925498,0.012964694809080959
10,0.012951430098099218,0.01188934041566343
11,0.012679975927979637,0.0115575171797102
12,0.012519256107425623,0.011657094712832161
13,0.012225163526373733,0.011391582007505549
14,0.011947763727320204,0.01104291596896312
15,0.01174931569446961,0.010982480834465586
16,0.011535946867339986,0.011088319597894209
17,0.011453667011341637,0.010505968031064824
18,0.011094843524338914,0.010294381905247405
19,0.010754702958741409,0.010004396134925536
20,0.010437924455138472,0.009612989616455679
21,0.010028068341979916,0.009311991394780703
22,0.009485649326376265,0.008881591975731233
23,0.009201180359111537,0.008570722946315544
24,0.008948593711729546,0.008384445020876105
25,0.008733395823733128,0.008164185418053216
26,0.008612723271321473,0.008159651368892686
27,0.008436831101339706,0.007988673319098964
28,0.008371079541903864,0.007843613209140949
29,0.008226066679388785,0.007765638750403008
30,0.00812598119629286,0.007641991017656726
31,0.00803477666732237,0.0075874391547423115
32,0.00791877097270494,0.007415777014149995
33,0.00783721859707796,0.007428485118774191
34,0.00771903929996302,0.007258365716292717
35,0.007634708671282539,0.007158930222326338
36,0.007573566196323801,0.0071303541458605365
37,0.007509026122767869,0.007035472474853295
38,0.0074193440780365725,0.007086828912609081
39,0.007391319942740415,0.00696710583701766
40,0.007270560463408741,0.00702708874151582
41,0.007227382529452383,0.007006206436404492
42,0.007240234443200551,0.006814520064339537
43,0.007119527570918214,0.006743103367731954
44,0.007044748922107552,0.0067448113948282
45,0.0070148258521449,0.006708345294379405
46,0.006946041168208071,0.006645150200916275
47,0.006910222559030935,0.006626345505764208
48,0.006864629593044758,0.006532749660020061
49,0.006799530560408739,0.006851473970856859
50,0.006816019536740929,0.006408276799265583
51,0.006735391413018979,0.006333127425982038
52,0.006701389911120013,0.006368093357617089
53,0.006655113372632606,0.006364757281222773
54,0.0065915399940134145,0.0064600974831968815
55,0.006635783152211848,0.00623032597701057
56,0.00652865672169374,0.006186982805237162
57,0.006532405861754051,0.006360848840259602
58,0.00648911729241737,0.006110985868739603
59,0.006442944539727284,0.006077362914076445
60,0.006385617088258052,0.006618301082396425
61,0.0064047004213277775,0.006058259138237724
62,0.006369073171723333,0.006450948289566086
63,0.00637364668623985,0.006204794162910036
64,0.006341509107914899,0.006072971914326115
65,0.006320470370265772,0.006271222449192552
66,0.0062606957080431755,0.005919547158233755
67,0.006262319189704376,0.006321412282682418
68,0.006324326990841865,0.005950536822298933
69,0.006274416787718371,0.005945189661495176
70,0.006234933006643557,0.005841863730247076
71,0.006174690536394107,0.005862667689451892
72,0.006217104302282282,0.005926277963950662
73,0.006193495142662091,0.005928402919162122
74,0.006164240843211536,0.005883227258811902
75,0.006134051447055691,0.005778173088954893
76,0.00616361103874383,0.0057451565476513596
77,0.006144742156305105,0.005799820603589797
78,0.006139542654326694,0.005804696970823956
79,0.0061339598590488716,0.00595685568073914
80,0.006168725556978065,0.00611520462253245
81,0.006123003361968874,0.005895015722426185
82,0.006120237522945703,0.005771310421028639
83,0.0061151455100581014,0.005755807288574162
84,0.006060842016385235,0.005739620572903223
85,0.006091560543200867,0.005725251830999482
86,0.00606383936997172,0.005735984420296581
87,0.0060415025912314724,0.00574102020759773
88,0.00608201024813758,0.005990621653843946
89,0.006059783544791065,0.00571935251053039
90,0.006111985990021518,0.0057443211988877545
91,0.006079131940169465,0.005867238682962876
92,0.006056242043434309,0.006013586085035926
93,0.006109294284722679,0.005764834470639046
94,0.006067584743357902,0.005930407360250497
95,0.006047507986244414,0.005720509052849152
96,0.006045533163328353,0.0057673793998361846
97,0.006072955360759894,0.005680345534365881
98,0.006052688540394207,0.005734895289152716
99,0.006043026743127142,0.005744057638375791
100,0.005991979175171941,0.005649998136369296
101,0.006004612810844131,0.0058666624839584566
102,0.006010214750057726,0.005726300945485862
103,0.00598819172710741,0.005812348293356555
104,0.006008766729681431,0.005686239460264147
105,0.005938625183132431,0.0056995027022555605
106,0.005972750250807851,0.005726827485282926
107,0.005940359721095969,0.00564809915642137
108,0.0059630551171885,0.0056508608892807755
109,0.005924355802390936,0.005771268996812663
110,0.0059612148509974525,0.005747637082275006
111,0.005972638315378761,0.0058547371763521495
112,0.0059101398930988544,0.005794575107823952
113,0.005925467645330392,0.005678486823733512
114,0.005955353971299312,0.00583122170432822
115,0.005964764305505994,0.005724795136996526
116,0.005965286531404341,0.005732252461184647
117,0.005959622817691132,0.00587641726763857
118,0.005951276417557684,0.005658816932175619
119,0.005973508310100859,0.005663729061290247
120,0.005990189809599717,0.005768025840805588
121,0.00599003582204833,0.005694182245597086
122,0.005990551591137226,0.005721361163719606
123,0.006001440581870829,0.005705698503563536
124,0.006017690503580557,0.006033943418416422
125,0.00595719660941759,0.005915795211942333
126,0.005987386436561783,0.005711756665516412
127,0.0060020228985807385,0.005774114168017184
128,0.005953666181031397,0.005680962206247441
129,0.0059939366627374206,0.005737749155722589
130,0.005997199529380775,0.005717444016816456
131,0.005984523589368626,0.005747579700190389
132,0.0059895026236563755,0.005795724383107442
133,0.005958105349470321,0.005782046580395607
134,0.005980284740660695,0.005723199576353964
135,0.006002479886041106,0.005732539944525956
136,0.006000156366334165,0.005737388970304676
137,0.005992475880296518,0.005773587361966099
