epoch,loss,val_loss
0,82.1880209253157,14.282324875261565
1,7.9931564308148175,4.8264346219424015
2,3.7918263598381756,3.00893530223008
3,2.548090962909335,2.1391475535173874
4,1.864637895046567,1.5987118282457338
5,1.4143758115050695,1.22958744906451
6,1.1029713116616036,0.969323545766863
7,0.8786648148722989,0.7798602829497709
8,0.7121373513777606,0.6355981653237478
9,0.5837143486122592,0.5235521481565025
10,0.4829317660595151,0.4344918985291409
11,0.40256201099452255,0.36230101939728854
12,0.3373372203307308,0.3044883047818944
13,0.2845066134289229,0.25719713874686956
14,0.2411021249379226,0.21841295959015541
15,0.20561384559393503,0.18649265176139995
16,0.17630237590274017,0.16035064219800033
17,0.1522309950666966,0.1389438588253773
18,0.13272867447214187,0.12155689103324918
19,0.1167964564622928,0.10790870762267735
20,0.10398715763114948,0.09614399448943545
21,0.09340251232978342,0.08654275935351703
22,0.08440486546919,0.07845802225674059
23,0.07705783788219178,0.07179850482798067
24,0.07095780042264822,0.066290223316893
25,0.06577802226066685,0.061563428026070365
26,0.06139326981716962,0.05748609057646502
27,0.05751308095786837,0.05374868896949223
28,0.05408450987061755,0.05069239039974104
29,0.05120470612239036,0.04810418057446546
30,0.04871065668863139,0.04569071681455491
31,0.04654796161145282,0.04374943653065696
32,0.04465780363196702,0.04193479571089644
33,0.04298792235714326,0.040426690472835265
34,0.04157923469640571,0.039096882551703044
35,0.04033926792675443,0.03794374536127698
36,0.03929307034688057,0.03692945787669533
37,0.038350361022796986,0.03608681473938411
38,0.037542800990949636,0.03528874176527945
39,0.036819541509195364,0.03467259709689304
40,0.03620360064222586,0.03404607292225423
41,0.035688993608276307,0.033561336284462555
42,0.03519244561250731,0.03312532327289709
43,0.03475085577612118,0.03273289373472321
44,0.034384732521634945,0.032401194072359474
45,0.03402777939283246,0.03208701727520569
46,0.03369376703118495,0.03175337098399895
47,0.03338952528669225,0.03147430790758964
48,0.0330532364833584,0.03125268775616249
49,0.03275329062194706,0.030997053223804836
50,0.032485465752520114,0.030782697705698515
51,0.03223263920158792,0.030577223896013462
52,0.03193788691233691,0.0302206288376598
53,0.03164535332724655,0.03000087914905312
54,0.03134415726556933,0.029738758655154695
55,0.031066974799474588,0.029500674879343068
56,0.03080409258794937,0.0293001132274752
57,0.03052389174640131,0.02912379687369498
58,0.030197094450350567,0.028834467143460878
59,0.029953586049467396,0.02880508207775719
60,0.029651220060222812,0.02843088267819725
61,0.029413515746629267,0.02817965369136809
62,0.02914641097372918,0.027975608853793976
63,0.028801909849954378,0.027621904246067964
64,0.028527038698319535,0.02754300758877085
65,0.028237929026349435,0.02717119114381312
66,0.02784409693884458,0.02682670475635602
67,0.027600488381637776,0.02666495188569162
68,0.027388071681591297,0.02646406409568595
69,0.02711177122644227,0.026310983311085806
70,0.026750980677296393,0.025742835225499652
71,0.026380537802560795,0.025507332078828524
72,0.02600212882178201,0.02518752274848974
73,0.025618677656855986,0.024973688228697867
74,0.02538983193520692,0.02473076858798711
75,0.025220155617515977,0.024710407089336268
76,0.024970693826925953,0.02437811361177124
77,0.024659443910631112,0.024095840419779344
78,0.024399211352841677,0.023775620248534288
79,0.024051258550006883,0.023577530802637702
80,0.02384923532339718,0.02347805954528019
81,0.02372632047953345,0.023344042782716314
82,0.023621381769736736,0.023387251702792163
83,0.02347573414415097,0.023314478981632678
84,0.02338259977424999,0.023175146500976563
85,0.023203825528134672,0.023022012857588828
86,0.023056173416747868,0.022921838047585637
87,0.022934958494579296,0.022680205496183665
88,0.022802782539513896,0.022690635031000057
89,0.02271713260740185,0.022651893131295935
90,0.022609932410021464,0.022433090184581832
91,0.0225067538633537,0.02235361114778803
92,0.022386512692251188,0.02226021930285324
93,0.022315048122013494,0.022094723001871763
94,0.022215491129432895,0.02208982430706639
95,0.022142248374340628,0.021976445466944675
96,0.022042890879406845,0.02186753619567998
97,0.02198478651998805,0.021754032019027248
98,0.02188128573198119,0.021632758640689476
99,0.0218057532543488,0.02160654961005373
100,0.021701709354658715,0.02146979309739326
101,0.021621220084496313,0.02139015921028233
102,0.021544984966856515,0.021358438528052984
103,0.021590744817794993,0.021356773617868488
104,0.021485578796689848,0.02113588138756139
105,0.021348488079406338,0.021044638603079736
106,0.021159810460716175,0.020893290612487077
107,0.021090023614036692,0.02086460177045669
108,0.020967981063748142,0.020779383673188365
109,0.02087221147747542,0.02053942344025297
110,0.020760926700609507,0.020427734587290185
111,0.02065565696566271,0.02041393748672629
112,0.020649864506110657,0.0204171746340788
113,0.02059316161417479,0.020265196493863817
114,0.020515050435568494,0.020193744434190298
115,0.020439269617677117,0.020079036742533404
116,0.02035984053933401,0.019926876574452582
117,0.020288215285753183,0.019874885781016278
118,0.02018575178976771,0.019924108833316276
119,0.020099252277464747,0.019686171287989482
120,0.02003533357278622,0.019609672802183942
121,0.019972165246412838,0.01969657480468957
122,0.0199048447067006,0.01944398196128598
123,0.019828596024858276,0.019346575974807784
124,0.019755041329644986,0.019470789461469903
125,0.0196840193926441,0.019336598577085105
126,0.019618711989071724,0.0191803315476139
127,0.019585729743673907,0.01917786562523751
128,0.01951589431610701,0.0191160943245837
129,0.019455871031767994,0.018998356803417785
130,0.019407546027653738,0.019023390569922794
131,0.01936949211119818,0.01904002957526422
132,0.019319865696006914,0.01882374606080903
133,0.019255091938778484,0.018858729586736372
134,0.019160413921469922,0.018692492587463166
135,0.019100139055511445,0.01862399513619466
136,0.019072603341863097,0.018528974726071033
137,0.019006498110256165,0.018492656937420415
138,0.01894805369431897,0.018442471945221747
139,0.018888303250957243,0.018352082266569716
140,0.01884953995526815,0.018408970830286798
141,0.01880822389918246,0.018325344654100753
142,0.018773037172239528,0.018212363917746152
143,0.018720003355703084,0.01818906375949497
144,0.018661516040020747,0.01816727662578358
145,0.018580885954481586,0.018144485678913528
146,0.01854384383909983,0.018079015801737004
147,0.01849876829550517,0.017947369379755065
148,0.018441340320104596,0.017991768803510933
149,0.018371355458885266,0.01788070169334139
150,0.018323713114963856,0.01779914024948397
151,0.01828932883985955,0.017779761713091813
152,0.018257848340555657,0.017769768644526104
153,0.01821440179199219,0.0177297190659576
154,0.018164600123367233,0.01762321548852148
155,0.01811351469778318,0.01754498257115181
156,0.018081610835939527,0.017593951253802042
157,0.01804931287626155,0.017633028551996575
158,0.018010894138607576,0.01757615469758673
159,0.017970648457745823,0.017430907481675553
160,0.017924877580067364,0.017391203514421895
161,0.01786355246037388,0.017352697851902233
162,0.017820356709001253,0.017315672577599733
163,0.017797600498066557,0.017327539046466448
164,0.01776854121376029,0.01729483303401713
165,0.01770557847628601,0.017238979181010406
166,0.01763671287316814,0.01730061286043705
167,0.017591453265485238,0.01715365263564695
168,0.01757804320392917,0.017129466742796813
169,0.017544898949414373,0.017044652143111096
170,0.017507964352949608,0.017109032400067222
171,0.017454642339425386,0.01691964352903744
172,0.0173948271292522,0.016927679240044933
173,0.017350481476357357,0.01692098693503709
174,0.017336496955053723,0.01685397104274811
175,0.017288940997452762,0.016811839915171496
176,0.017254521725050587,0.016826721866798663
177,0.01721234839212737,0.016776494243743452
178,0.017190929754280014,0.01683491724713223
179,0.017181907421062955,0.01671917377144026
180,0.017130242847055315,0.01664813790116867
181,0.017078823587440367,0.01661232282881174
182,0.017014181312230276,0.016612572797150362
183,0.016982069290470515,0.016654201554374682
184,0.016927913400240906,0.016472950556586645
185,0.016895801311372232,0.016428265303663384
186,0.016861077291433147,0.016424238248988806
187,0.016818996092335906,0.016399594560108432
188,0.01678305336037834,0.016347777306888515
189,0.016753913363437352,0.016383501086973215
190,0.016749263954333203,0.01641724565854207
191,0.016712785192173993,0.01634062664237384
192,0.016691785402673544,0.016259043184407386
193,0.016676145720573736,0.01625674981276436
194,0.016632427751504964,0.016231044805144163
195,0.01660345952280814,0.01629553298373002
196,0.016609812082291793,0.016277610496538544
197,0.01665833988208309,0.016278205641876944
198,0.01663097526633544,0.01620438475379326
199,0.01660821590426447,0.016330014828166532
200,0.01660895233062671,0.01630704895127187
201,0.01655423199329928,0.016128514758148815
202,0.01655015644891034,0.01626705950834552
203,0.016559781411213812,0.01627695726099313
204,0.01652256343170726,0.016111835125842813
205,0.016406908775236102,0.016124154368546903
206,0.016400355803187463,0.01598244370093504
207,0.016358117726568082,0.016044072341551554
208,0.016309964613731,0.01592192520589144
209,0.016302435858707557,0.015968765191044974
210,0.01624076660003683,0.0159297713198656
211,0.016247497034148038,0.015852301103566734
212,0.01622037391802423,0.0158590720785179
213,0.01618889219137289,0.015840111177985686
214,0.016160168043756074,0.015844215252961653
215,0.016152855289952337,0.015943480475026955
216,0.016121013018431617,0.015845460197846772
217,0.01610633059202718,0.015814216475139184
218,0.01611454659823874,0.015750626420839377
219,0.016101130774264054,0.01573599067978132
220,0.016073771525738093,0.015837376885907688
221,0.016101681050196517,0.01578018407881961
222,0.01608725353028533,0.015769825174963437
223,0.01607959394792827,0.01571251000734673
224,0.016095704827800667,0.015772865495258536
225,0.01608491438128549,0.015863270516184802
226,0.01605983020095013,0.015763790977383084
227,0.01605577236511189,0.015709651057779887
228,0.016050573652408855,0.015782848505087238
229,0.01613194913975447,0.015796085837729946
230,0.016101380292657282,0.01577035405892888
231,0.01606540570186199,0.015706055394289993
232,0.016022055743901944,0.01567390526358615
233,0.016008411529656645,0.015680109442265316
234,0.015998225997659186,0.015673938380299016
235,0.015961091300313045,0.015665351424520323
236,0.0159639385003176,0.015618665470150265
237,0.015894758204121985,0.015641367520656608
238,0.01587665893638535,0.015549160445687592
239,0.015879749492693655,0.015561837313994343
240,0.01588744226786449,0.015754627705901404
241,0.015871690260358243,0.015518976170010714
242,0.01583208502743772,0.015573691203585989
243,0.015812967200759795,0.015516017646727432
244,0.015816212616103283,0.01551991190220511
245,0.015782047435193895,0.01557645656769704
246,0.015760704098020294,0.015505082818429498
247,0.015759399518656958,0.01565654639272504
248,0.01578107100722788,0.015493302741250369
249,0.01575423281093995,0.015429703861668356
250,0.01574281195970513,0.015456653065641092
251,0.015709579723914735,0.015421970931711907
252,0.015718350235411557,0.015448429577191574
253,0.01569238069390444,0.015474274314166517
254,0.015690148085522784,0.015475053539603876
255,0.015677356054548553,0.015383278498605848
256,0.01566833349614381,0.015388059068776347
257,0.01566643397315585,0.015375286031783304
258,0.015671274580771298,0.015339027336418678
259,0.015649364514051196,0.015359667546757091
260,0.015635909605100213,0.015350680765057616
261,0.015633463459141593,0.015385311648297968
262,0.015617248550015655,0.01532376751784063
263,0.015620267228950397,0.015300929004028862
264,0.01562739483075585,0.01539251178394269
265,0.01559866762595524,0.015311242916620513
266,0.015598868180940254,0.015316510308663824
267,0.01556632293685018,0.015294752973498171
268,0.015542591800443453,0.01535234572887058
269,0.01557827961024902,0.015313947194128237
270,0.015600531488012753,0.015370731309225475
271,0.015567812449735006,0.015335142412294679
272,0.015576422738703228,0.015312237739079576
273,0.01556606433712978,0.01527183178573581
274,0.015537416167241082,0.015368637877357073
275,0.015530086431899865,0.015214026037721448
276,0.015507269434457878,0.015224914017397026
277,0.015487989441329857,0.015240554742376107
278,0.015500782905452199,0.015233449622783252
279,0.01551101262344896,0.015226325007353434
280,0.015508170388012624,0.015281548036227648
281,0.015506119120588677,0.015222177991835402
282,0.01546271217001186,0.015240809958751426
283,0.015447805001824688,0.01521581398596608
284,0.015442620466252248,0.015239080966322623
285,0.015429337614113756,0.015152423596500576
286,0.015403918334371668,0.015098369394830108
287,0.015386838585233764,0.015096595301613853
288,0.015367627978992996,0.015091362665350709
289,0.015355837965358773,0.015069238194215375
290,0.015338960823247297,0.015096316105759395
291,0.01532758734046554,0.01504841124425912
292,0.015320392719971791,0.015024002197305071
293,0.015299730763447771,0.015028951544577477
294,0.015306886401119902,0.015041343153991403
295,0.0152770463829104,0.015188480615585632
296,0.015289469463251132,0.01519909437552445
297,0.015284205444628378,0.015005551703086928
298,0.015264654328511228,0.015065509438460325
299,0.015260042560050447,0.01502655534449865
300,0.01525674661542412,0.014995744897525483
301,0.015229010192440261,0.01497799049781912
302,0.015233507142771332,0.014910830962052455
303,0.015219460634456528,0.014938049998046756
304,0.015213715459844224,0.015028890145267303
305,0.015215513093607295,0.014949206804398927
306,0.015205578100058533,0.014914976884607174
307,0.015212998594238674,0.014921760829339305
308,0.015192678328707897,0.015028732466992574
309,0.015195298342673993,0.014917844219853843
310,0.015188266458310444,0.014968439881498747
311,0.015186656630330319,0.014864447179181684
312,0.015151631225756496,0.014863013883558648
313,0.015133885308068164,0.014808222158250776
314,0.015100539465091102,0.0148579713352937
315,0.015102763112195975,0.014835011887772724
316,0.015111026785868087,0.014897138744423473
317,0.015085262964495284,0.01482388896554926
318,0.015091724432796072,0.014805598542493045
319,0.015083443953560961,0.014804639731173533
320,0.015069746221449253,0.014815433632162462
321,0.015056995336440586,0.014893183174232641
322,0.015067257956445838,0.014920738693372031
323,0.015051953181373872,0.014814901923260742
324,0.015029551122066161,0.014761899301097921
325,0.01504146301070507,0.014793240585321348
326,0.01504622698292506,0.01477369750092306
327,0.015053982013542714,0.014823566517201217
328,0.015055927186249924,0.014770827038607893
329,0.01503499181832286,0.01475872947484714
330,0.01501537769663038,0.014787308074116996
331,0.015032096963533886,0.014806330550706735
332,0.015035463751310868,0.014738397347980268
333,0.01499909264004951,0.014758687417286495
334,0.01499225312487496,0.014760039315467575
335,0.014987886913890263,0.014716436691425094
336,0.014964034759235965,0.014687269173761935
337,0.014961675325448844,0.01470283488082093
338,0.014966154534420411,0.014695353284840746
339,0.014968092475023816,0.014744210482211686
340,0.014915403018924024,0.014664312465824881
341,0.014920309041324761,0.014657287174852419
342,0.014895168347082871,0.014668571443991118
343,0.014886453033412237,0.01463494527275279
344,0.014880284828822121,0.01462428616805475
345,0.014873891457426156,0.014598147497970886
346,0.014865911713360642,0.014557327427096901
347,0.014867420833978393,0.01460652477021079
348,0.01484779238378744,0.014588613949855072
349,0.014847735624560553,0.014569106628847915
350,0.014860860543330018,0.014527859815848811
351,0.014834833111438014,0.014595584110005638
352,0.014829633909585574,0.014647731081630191
353,0.014810062803960352,0.014784292403279236
354,0.014829513675766626,0.014573939741322497
355,0.014782503787860621,0.014613219846526443
356,0.014787074083759129,0.014595708686674116
357,0.014784994331584443,0.014469939272696665
358,0.014789620249586596,0.014475736567646337
359,0.014764906455269807,0.014473251681941027
360,0.014761221328909823,0.0144809824667587
361,0.014756116257000676,0.014510602062599793
362,0.014743707388090648,0.014529506927424104
363,0.014743640496909285,0.014477430959893066
364,0.01472677973459204,0.01443064581249317
365,0.014741838883587701,0.014457757644421766
366,0.014725543661497897,0.014508067658178612
367,0.014710382806708375,0.014425216238139029
368,0.014699875324922767,0.014437054839840239
369,0.014705917759954308,0.014394410912307027
370,0.014690766164703403,0.014429460387655805
371,0.014693242782582227,0.014442245617194671
372,0.014685846276110033,0.014455987473637083
373,0.014691418987528099,0.014402080500998444
374,0.014657535363552425,0.014392356403377465
375,0.014667907348715419,0.014396118127045261
376,0.014650769666690317,0.014357460889321754
377,0.014654265149228806,0.014399376741647478
378,0.014648321312848475,0.014393483927595789
379,0.01464867837327399,0.014447723800091364
380,0.01463301753173407,0.014404611464888945
381,0.014629808318666261,0.014307690096984332
382,0.014614709041523542,0.014345627692010667
383,0.01460439147721466,0.014359230222444851
384,0.014600473315901667,0.014333704513681196
385,0.014599706487710758,0.01433297992205823
386,0.014585437088327899,0.014438703485491889
387,0.01459468735845758,0.014282037911140522
388,0.014583434449513261,0.014306938243215633
389,0.014585536193278573,0.014319675840854355
390,0.0146048912104425,0.014288885259074789
391,0.014560490001807268,0.014261281138190822
392,0.014558347943481252,0.014397326171011434
393,0.014547494674076119,0.014317331400557156
394,0.014560365658685912,0.014277704887919955
395,0.014553576798809824,0.014243048311355437
396,0.014532726205097999,0.014360962075310468
397,0.01454680934071159,0.014266436532840725
398,0.014535072610062585,0.014431315913059222
399,0.014520185991370076,0.014209669695174607
400,0.014512907997746053,0.01422677350148184
401,0.014501701865950711,0.014244558936965388
402,0.01450594668809751,0.01425115926386086
403,0.01450393629372955,0.014208015979744271
404,0.014497617651090276,0.01420707102118714
405,0.01448548761076384,0.014274639673440415
406,0.01449629687610939,0.014183492421656726
407,0.01448351678828462,0.014267404265369425
408,0.014465316535802103,0.01415462269230964
409,0.01446737920428463,0.01425581887388558
410,0.014477486414215963,0.014183941551779503
411,0.014468949547617602,0.01417680591078957
412,0.014473462692074912,0.014158540881946622
413,0.014454651851388958,0.014160782311018028
414,0.014443746928999527,0.014138503935239417
415,0.014436873054807429,0.014196692786911397
416,0.014432034151012702,0.014148455761246147
417,0.014441524510733408,0.014169625128224336
418,0.014427575302139534,0.014146663062727655
419,0.014420542367148676,0.014233611039182855
420,0.014429588044573775,0.01413964582206825
421,0.014419468476909031,0.014136248990283058
422,0.014425532351746808,0.014177321476766662
423,0.014434282547138851,0.014115402094312827
424,0.014397383179124878,0.014105307326530502
425,0.014396786257278643,0.01409275066908162
426,0.014392319449288449,0.014104236596371958
427,0.014397389995153423,0.014171783939994938
428,0.014379865427265126,0.014084495163680525
429,0.014379421090953248,0.014096809548853813
430,0.014377368289717824,0.014085730740956098
431,0.01437908496105189,0.014104593809564135
432,0.014371130334361016,0.014299249088441513
433,0.014381885353335627,0.014071862791141454
434,0.01436713134334553,0.014114756788982915
435,0.014358035631752234,0.014037803928794555
436,0.014337246447914929,0.014091168537083334
437,0.014345777280676403,0.014048252275873759
438,0.014331402310771976,0.014052721180039892
439,0.014338334533926533,0.014025681754098322
440,0.014341451931562874,0.014070101955487104
441,0.014326468282330742,0.014008339147014727
442,0.014319424790362294,0.014007976506017178
443,0.014312649327662108,0.014058051735845553
444,0.014319638282454328,0.014014089134101064
445,0.01432589079373426,0.014024401548872223
446,0.014329587741702008,0.014110775290560113
447,0.01430885498378399,0.014008019677690393
448,0.01430861939645534,0.0141271126742829
449,0.014302883391157449,0.013989240755172203
450,0.014304175318253813,0.014009101298204884
451,0.01430002012155097,0.014048103192505417
452,0.014298745648737093,0.013991894189869594
453,0.014299938046605325,0.013994700895487924
454,0.014281415079293059,0.014039425637092614
455,0.014283187551687868,0.014038355244566827
456,0.014282193963972924,0.013972111411138898
457,0.014283900627131172,0.01408431975099969
458,0.014303557272013233,0.01404728892501761
459,0.0142844657587399,0.014023500409306595
460,0.014286276177496457,0.013952045928798645
461,0.01430083486625106,0.014063888421283683
462,0.014291004215130765,0.013973491925018063
463,0.01426722019913795,0.014045111078161683
464,0.014264587535887503,0.013971826335036068
465,0.01427766040349312,0.013966375791195052
466,0.014291994337788862,0.01398629681354529
467,0.01428456407553368,0.014041077008732238
468,0.014279649919532747,0.014002609337828842
469,0.014278660694642769,0.013950302915168746
470,0.014297834781704663,0.013979792552611156
471,0.014283613605295018,0.013993228405762377
472,0.014256407128717062,0.013976403175183215
473,0.014266343110258145,0.014001914985109323
474,0.014276281747820856,0.014035385477432901
475,0.014266159177405105,0.013970374845765948
476,0.01425483867263584,0.013942037708302001
477,0.014243145184733087,0.01394677867951281
478,0.014239261573325213,0.01395514363382202
479,0.014241722299813556,0.014032798575272138
480,0.014236322347614601,0.01392621853345792
481,0.01421733183400024,0.013993284136316734
482,0.014217294494601324,0.013959455694353686
483,0.014215836100864878,0.013928137603310289
484,0.014216572665918865,0.013935169684704445
485,0.0142207677521593,0.01394915171511417
486,0.014232936644817801,0.01394926942960455
487,0.014253346733390999,0.014058702316404065
488,0.014243955294444286,0.014014738596015023
489,0.014225888350088181,0.013935437101178892
490,0.01422152175583703,0.013986868622190857
491,0.014222089003613464,0.013941417053184756
492,0.01420287863523651,0.013932323772898315
493,0.014198591772338646,0.013898835540125986
494,0.014208550173476088,0.013937960653765987
495,0.014191889353961444,0.01387593936437963
496,0.014190716257362103,0.013872375982962338
497,0.014195363158084232,0.01389902569836992
498,0.014182544930773177,0.013868177130618959
499,0.014183513375761224,0.013896821435338486
500,0.014180314779323373,0.01391614604339499
501,0.014165601720682996,0.013875031309007439
502,0.014185445800757675,0.013850395418159718
503,0.014164690090845927,0.013832727185052435
504,0.014147169444355085,0.013881531000191714
505,0.014148634037463735,0.013818505301690884
506,0.014121862850916251,0.013826541470428694
507,0.014135112900218313,0.014080446739193876
508,0.014152116626888823,0.013848058144438827
509,0.01411720802835983,0.01390189711693357
510,0.014113004364854723,0.01385380922675447
511,0.014117182592590682,0.013895612729702746
512,0.014121666960746312,0.013842122910267825
513,0.014116041339915977,0.013823058148762944
514,0.01412124113903774,0.01378707922934664
515,0.014106990097670722,0.013860633845281668
516,0.01410679423658131,0.013804980469844927
517,0.014092393380532368,0.013770728919652064
518,0.01409942659439804,0.013817916983030042
519,0.014104818057319562,0.013830464059866161
520,0.014110718178208635,0.013818391591963106
521,0.014092817211343204,0.013806453993618005
522,0.014079460382813496,0.013778817571778174
523,0.014087482164647457,0.013827101693814205
524,0.014073325681229465,0.013923413686708087
525,0.014080109872562203,0.013858660733038734
526,0.014066326058357118,0.013842484029274304
527,0.014094957572559389,0.013807935515586333
528,0.014079680396400517,0.013782758380543964
529,0.014075222463191176,0.013837684972388466
530,0.014076575695770421,0.013831651144164757
531,0.014060340819506047,0.013790051199024466
532,0.014065113123670352,0.013747609343564036
533,0.014058575674658827,0.013816242354762621
534,0.014066126940248488,0.013777751227824164
535,0.014050120473641745,0.013775288481612758
536,0.014047969664313537,0.013775667453612242
537,0.014056065944496921,0.013751273767815696
538,0.014040411456679705,0.01378303752201462
539,0.01405351500498881,0.013768663887457207
540,0.014044459770508916,0.013739161884498276
541,0.014054608776616611,0.013835015281466865
542,0.01403926647498643,0.013796403013103297
543,0.014050087302451948,0.013704424738334092
544,0.01404516110338384,0.013711862464715625
545,0.014023001692753681,0.013709785456754817
546,0.01403959970130884,0.013758948551670671
547,0.014018043080826489,0.013743369012998548
548,0.01402553687881741,0.013732745289494376
549,0.014025972958496086,0.013753674706838427
550,0.014029354081482434,0.013724053515739201
551,0.014014961092835001,0.01372252056557936
552,0.0140215771159439,0.013733053207548527
553,0.014044592202491194,0.013823151768963943
554,0.014021716581685864,0.01371298886122543
555,0.01402319042613093,0.013838327032818315
556,0.014031747115210737,0.013748060957969009
557,0.014027148887091537,0.013778191646719645
558,0.014044946033486707,0.013729493559730169
559,0.014026844803187206,0.013748272816104466
560,0.014013522174850619,0.013755674519261159
561,0.01402397012804822,0.01374118080980538
562,0.014014949993766528,0.013703653428005622
563,0.014001639513634414,0.013849534845887551
564,0.013997614888505663,0.013724670543003787
565,0.01399792048832576,0.01366991125461128
566,0.013996287195341553,0.013684953565181316
567,0.014008220885429171,0.013795848300609518
568,0.014005319023724075,0.013756463808722837
569,0.014009136210730355,0.013718413244947996
570,0.013993062890970631,0.013705786103073022
571,0.013987520793892795,0.013734136688442174
572,0.013991346757999174,0.013703031895194272
573,0.013989514912112509,0.013706440551679307
574,0.013977943543789147,0.013827485971255507
575,0.013984442741466199,0.013734114096505266
576,0.01399306617707038,0.01366622756867513
577,0.013976330194082424,0.01372784043798965
578,0.013976096711736665,0.013639701682158775
579,0.013972475846634328,0.013663234560775351
580,0.013962980144298535,0.013682826345866518
581,0.013964754713474034,0.013656496953306793
582,0.013955203374121502,0.013703976255529602
583,0.013956192157583966,0.01373734559322989
584,0.013952052078282146,0.01365956190266531
585,0.013947743971685203,0.013631024702307854
586,0.01394536385194863,0.01382728798703169
587,0.013932707011132979,0.013633183949148859
588,0.013953789220817142,0.013698888642733066
589,0.01394107301023791,0.013629639037829632
590,0.01391961972927861,0.01358085853370195
591,0.013938733222957751,0.013631133425343308
592,0.01392938342732821,0.0136459509049756
593,0.013926369927710205,0.013631330973741395
594,0.013923064373087607,0.01367145945262904
595,0.013932049932857578,0.013636675621749228
596,0.01392010911058387,0.013614050825696744
597,0.013917606930174619,0.013624212573926717
598,0.013923693836791168,0.013633450870126462
599,0.013917959395130937,0.01380216740207733
600,0.013910755262321668,0.013631407043081615
601,0.013918821145150306,0.013604107908813912
602,0.013909387536454286,0.013634474296953653
603,0.013922323016457266,0.013643340834560718
604,0.013928900243903848,0.013607009448449446
605,0.013914101357438308,0.013599258435879504
606,0.013898178844081106,0.013586802817488336
607,0.013903423033511525,0.01360378770379762
608,0.01391770736835569,0.013588431589637746
609,0.013917737857425947,0.013761667543772943
610,0.013899315246272746,0.01359953103316623
611,0.013879443723872436,0.013586650106267337
612,0.013875583911521898,0.01359139826369305
613,0.01389785164786731,0.01364705001894575
614,0.013896883348281904,0.013596398135026297
615,0.013894897424806062,0.01359404730538793
616,0.013888370467154526,0.013629692400422699
617,0.0138827901075574,0.013574661373554307
618,0.013887008764684869,0.013544140558082547
619,0.013887230004128025,0.013573044453296637
620,0.013880184130538837,0.013626632675685636
621,0.013875767632609039,0.013618444850923613
622,0.013867492314049299,0.013583836551311533
623,0.013880467112418459,0.01357282459394461
624,0.013887796710559232,0.013544610000554614
625,0.013883546429475228,0.013714316188503549
626,0.013871666380287029,0.013588569567380934
627,0.013874904850603725,0.013608758235826109
628,0.013879867441343775,0.013665241708213106
629,0.013873782651640588,0.01375340051655956
630,0.013888257962045333,0.013555585430891215
631,0.013878732684066145,0.013644468038518886
632,0.01388020600431604,0.013630777918442855
633,0.013880914220328423,0.013567396318003692
634,0.013848477728468022,0.013550995222148572
635,0.013866312185927236,0.013558222783845756
636,0.013853720245395211,0.013615588057825503
637,0.01385374045263442,0.013571923312376838
638,0.013861795544349928,0.013656739218784414
639,0.013852378796395347,0.013668471098320811
640,0.013836549360117165,0.013551692283483463
641,0.013846813503494732,0.013859508837824755
642,0.013854202381174883,0.013530722945408906
643,0.013851706378513856,0.013558070798497421
644,0.013845005552854846,0.01355156066637888
645,0.013831723962363908,0.013563257297659587
646,0.013838140097102993,0.013581560743369905
647,0.013845018364691897,0.01354149631273669
648,0.013836995719389929,0.013530900345364433
649,0.013842259460629178,0.013533207711771989
650,0.013841929897707734,0.013554936197842414
651,0.013826486503957413,0.013542310484297519
652,0.013819405612937683,0.013512952970786493
653,0.013821969198747527,0.013527497859174705
654,0.013828653174104264,0.013542751190218612
655,0.013821127907998615,0.013496491139556756
656,0.013809764869600605,0.013509315580570736
657,0.013831999581650174,0.013502146411968119
658,0.013825045642051533,0.013585923974525368
659,0.013822271648177011,0.01354406683102238
660,0.013817169704288841,0.013508570521755714
661,0.013811230375390468,0.013510274357145044
662,0.013812951363318915,0.013504423385384793
663,0.013812073124639744,0.013523757010577465
664,0.01380448672455177,0.01350137589247074
665,0.013832203633009528,0.01348938793623752
666,0.01380877157940184,0.013574531342643891
667,0.013802925939019247,0.013550712916598219
668,0.013807525442207785,0.013541353346790517
669,0.01380211801929556,0.013562936316163484
670,0.013810862177868095,0.013528415219464006
671,0.013811743043488364,0.013555755899933568
672,0.013800342861798594,0.013558731264066908
673,0.013795097577001592,0.013504549316360954
674,0.013801365701542844,0.013543842858140148
675,0.013797494870654528,0.013527363537231404
676,0.013807116288116114,0.013535527552463664
677,0.01380646639720524,0.013612179652110213
678,0.013803603065709432,0.013665465848023391
679,0.013813132107752958,0.013553655822666941
680,0.013812778984383644,0.013509425541592969
681,0.013805260461232392,0.01352306973454992
682,0.013792647760185458,0.013481628703405146
683,0.013792552182180964,0.013535553356821424
684,0.013789469411252163,0.01348190902696812
685,0.013794830790739522,0.013551481567407805
686,0.01377271404422766,0.013516341413115208
687,0.01378779520494662,0.013501140829069964
688,0.01378917941574553,0.013513386498045989
689,0.013793073546848266,0.013492661711834643
690,0.013781105424668953,0.013503030058078087
691,0.013781527173612192,0.013487387725755584
692,0.013778035111391277,0.013481660151592812
693,0.013778036424488998,0.013456019079682795
694,0.013765805695441554,0.01357203066071068
695,0.013773030957119096,0.013603909512179612
696,0.013774819089005812,0.013485919373730818
697,0.013772107478830698,0.013474045237503637
698,0.013757886291981889,0.01354647224462332
699,0.013772543921643158,0.013471820321468831
700,0.013763639814942908,0.013489911094042023
701,0.013755603875365374,0.013508094913520324
702,0.013759520407423103,0.013499972310796417
703,0.013761754325174206,0.013514995167072672
704,0.013752464131206822,0.013432762601442291
705,0.01374584871282379,0.013460427538521244
706,0.013764475080802786,0.013446075957350052
707,0.01375114520321234,0.013451853007174852
708,0.013759872516702184,0.013506235587293552
709,0.013761603851333631,0.013471312663047321
710,0.013737515052012485,0.013440930858610948
711,0.013755679169328237,0.013437399874831831
712,0.013734067176536524,0.01347682548691394
713,0.013744969983503903,0.013460099121551154
714,0.013740309921978376,0.013507541209392836
715,0.013745967353178894,0.013529800730610126
716,0.01374882678639254,0.01344658229469842
717,0.013742439822406412,0.013460720195876855
718,0.013737249123998839,0.013534673641451663
719,0.013753519002780665,0.013461440669437635
720,0.013747886363103735,0.013444645518387177
721,0.013730263894496917,0.013443131317042376
722,0.013732435135506363,0.013467255685197466
723,0.013745238740531037,0.013511417996340763
724,0.013720008642304602,0.013512608717555982
725,0.01373487145299192,0.013464779341525405
726,0.013744763883831407,0.013461337207279501
727,0.01372775181030349,0.013460987496030398
728,0.013740915897562564,0.013452699268954321
729,0.013727240079493405,0.01343703623679795
730,0.01372647921952178,0.01345007049806555
731,0.013722412292662862,0.013448831858679906
732,0.01374612924597376,0.013402629805319404
733,0.013744606936963394,0.013587921029236243
734,0.013728044408890274,0.013441724732929096
735,0.01373563014087174,0.013442626800795976
736,0.01371787086329024,0.013444315838504398
737,0.013716637257567112,0.013458696933461705
738,0.013726083000300168,0.013432266093210438
739,0.0137145551826784,0.013540710438124454
740,0.013735406320718072,0.013436343026893562
741,0.013722027851055392,0.013443774968198374
742,0.013715723589110412,0.013412308463764839
743,0.013719374619668918,0.013460372241526625
744,0.013721248549554614,0.013426718929750786
745,0.013700576639287561,0.013373719896163433
746,0.013708630398518329,0.013405874128312187
747,0.01371010925450785,0.013377812340559509
748,0.013714567908765175,0.013422095478910406
749,0.013709335920480703,0.013434152454228443
750,0.013728374272310514,0.013501333894581207
751,0.013711105138093257,0.013432616422319934
752,0.01369940934910046,0.013396298028649544
753,0.013679983040647473,0.013406314421822796
754,0.013704350429197088,0.01342244158798809
755,0.013715825431359062,0.013396931763070682
756,0.013708209718843763,0.013404132882155787
757,0.013694727339977928,0.013388600732922699
758,0.013707779063056525,0.013389455172666088
759,0.013681582694170807,0.013383572688515073
760,0.013687599949938378,0.013398702324361262
761,0.013707220496190749,0.013392301649459475
762,0.013688213626643101,0.013426740313914136
763,0.01368848519404236,0.0134176365005431
764,0.01369724412999743,0.013393705464530939
765,0.01367296975067227,0.013370638132391427
766,0.013678127316664084,0.013416543450366648
767,0.013679459524021042,0.01341653764263001
768,0.013687072611832208,0.0133844669311574
769,0.013673485337262205,0.013410995540640408
770,0.013675214414051574,0.013370723304220166
771,0.01367858019370356,0.013380608238908255
772,0.013676158846725074,0.013355734504287986
773,0.013667562347892716,0.013384072674288802
774,0.01367874076445285,0.013388920730223089
775,0.013671004519856767,0.013387200902219914
776,0.013689257043471233,0.013434431477112202
777,0.013679423851905775,0.013371191468672935
778,0.013663249169353298,0.01341900717095447
779,0.013659999135425321,0.01336196655768596
780,0.013655465761359164,0.01336900935344404
781,0.013677694901877684,0.013421951377702407
782,0.01365725623758389,0.013366064566602238
783,0.01366412572434442,0.01339536407072662
784,0.013644934179271767,0.013363387712125651
785,0.013653225307199982,0.013386612122807432
786,0.013652135303364791,0.013392478067485279
787,0.013651852317756896,0.013362583421043815
788,0.013656455133888749,0.013364802601853716
789,0.01366370606099705,0.013426730931197978
790,0.013665490465356504,0.01346353222430961
791,0.013649869678143838,0.01342573813000348
792,0.013642786554634285,0.013330299257688279
793,0.013655099240068296,0.013355278701575084
794,0.01364877422953888,0.013374247497577593
795,0.013660768960402001,0.013395776656446472
796,0.013650557202987188,0.01333292216645661
797,0.013651362729159663,0.013380653843501188
798,0.013645145166710055,0.013366892435327354
799,0.013651396710875991,0.013352020265986208
800,0.013643072824104964,0.013358130676419583
801,0.013659638291548452,0.013435017831158271
802,0.013644629832897022,0.013394952191996169
803,0.013640153978625424,0.013407505616630275
804,0.013646449895949962,0.013491869725087553
805,0.013638425469279195,0.013355165726783937
806,0.013634294115627308,0.01339414022222391
807,0.013643922091866609,0.01336302497066914
808,0.013637027533962022,0.01332417457150741
809,0.013634153386746482,0.013384360528497414
810,0.013634591071819477,0.013315671467994977
811,0.013633848926286586,0.013322048917237522
812,0.013625627553598989,0.01334236593975928
813,0.013643439348378451,0.01337658419498127
814,0.013638932604620083,0.013382128946670457
815,0.013628093344573263,0.01339175747307161
816,0.013649126782482437,0.013299922263196881
817,0.013617765010029578,0.013386635491224149
818,0.013632684898338287,0.013336357551824003
819,0.013631721681880178,0.013366267042776867
820,0.013627846641026085,0.01331123211840281
821,0.013630614491452494,0.013379378843257945
822,0.013619891825684603,0.013325146255170246
823,0.013624440984512634,0.013374119385206787
824,0.013612918713069659,0.013305912399324623
825,0.013615690967332037,0.013305496442564502
826,0.013621578280112331,0.01330681538793945
827,0.013620966518994233,0.013354433249509972
828,0.013612558773671799,0.013332135595429602
829,0.01361856475215945,0.013359931401080556
830,0.013629483336432158,0.013325614563891149
831,0.01362449133856665,0.013333992655664706
832,0.01362373049201681,0.013396991755200031
833,0.013619652112649143,0.013359356558272148
834,0.01361752226590824,0.013369641321902341
835,0.013614880964995099,0.013362009225553695
836,0.013609252854424108,0.013300428911741439
837,0.013614654126431676,0.013309619948419003
838,0.013615242371841179,0.013333379291753312
839,0.013606489747852158,0.013384716730301978
840,0.013614739126580252,0.01331420704595509
841,0.013614891929845748,0.013349356312555506
842,0.013604007508483432,0.013317866264468563
843,0.013606723093743129,0.01333102839715652
844,0.01360623016908729,0.013312918927886094
845,0.013610327463474773,0.013315498197431596
846,0.013598002287580836,0.013365468335853828
