epoch,loss,val_loss
0,116.61286220749061,18.2604989672906
1,11.586675864205159,7.607753708801517
2,5.523559864661138,3.9669406448837616
3,3.1110009753866326,2.393413511215915
4,1.9719241537792,1.621583535240031
5,1.4271533500680549,1.2469949687484407
6,1.117036402464104,0.9717718533935918
7,0.8895541030564625,0.7730979234922831
8,0.7127716851005371,0.5974485989227976
9,0.5582967067452027,0.48694758650160186
10,0.4481538868694901,0.4052993664631298
11,0.3864849431453656,0.35437003254213667
12,0.32583155952471554,0.2949109300548046
13,0.28106668136948293,0.25063193283086854
14,0.24958793619711747,0.23124686282336568
15,0.2226683414750714,0.21152414709015388
16,0.1989923520408887,0.1846084887673965
17,0.17964013328878664,0.16962731752275745
18,0.1652496021995552,0.15724967960917843
19,0.15106752399710105,0.1408865686992466
20,0.1357152698169335,0.12917834192828637
21,0.12457514006653435,0.11845391557913723
22,0.11426735039445474,0.10862157391709036
23,0.10544218270897006,0.1017877211112949
24,0.09774112774191902,0.09323251234112188
25,0.0897097115735229,0.08501396771136668
26,0.08130303317542263,0.07710975217002249
27,0.0741099364297976,0.07067111919468627
28,0.06799007114992321,0.06505447813435869
29,0.06268648004787172,0.06011538323851881
30,0.05787426323664961,0.055436180220178155
31,0.05341676410565002,0.05127643953951413
32,0.04978577054148201,0.04761826728575615
33,0.04611180812788544,0.04404812002522812
34,0.04318711433329994,0.04101817197161096
35,0.03989319511807805,0.03802770550535736
36,0.037130036308550184,0.03546860667107218
37,0.03471664570158629,0.03318035243787566
38,0.032499008295271664,0.031015038890620603
39,0.030484348596681397,0.029080175387537877
40,0.028650547570889716,0.027259954815580897
41,0.027033228316814827,0.025744810485902686
42,0.02559871762674794,0.024383102080634426
43,0.02428047485303602,0.023105088822295873
44,0.023207205651198225,0.021970270677422084
45,0.022148769518869033,0.021002598570634076
46,0.02112171268262106,0.02007701985888479
47,0.020177331826894927,0.01925065890649471
48,0.019405445218193616,0.01848534665645281
49,0.018686195154688518,0.017820189156345208
50,0.018009039692676143,0.01716673550772309
51,0.017370288085797915,0.016565954831594242
52,0.016769538899724056,0.0160658276667826
53,0.01624882838176526,0.015563263392433923
54,0.01577874901797697,0.015059472574563115
55,0.015324102558815975,0.014705364571979447
56,0.014866979841181667,0.014254183643659922
57,0.014440600606676242,0.013856428698013444
58,0.014088607821956551,0.013541198643762844
59,0.013694755185702689,0.013130633266973524
60,0.013304080226547343,0.012696891226212812
61,0.012906889519911466,0.012336573355044907
62,0.012539339433010336,0.011972904950078193
63,0.012161301913484036,0.011621349078768507
64,0.011806373303984288,0.011229624033626848
65,0.011432364982686299,0.01090844032873565
66,0.011111576414351659,0.010545229836120077
67,0.010752015775464792,0.010214074913620804
68,0.010393136813252378,0.00986129329490739
69,0.010049674427323192,0.009504964725482252
70,0.009690046225047355,0.009174711046028891
71,0.009380672392088642,0.008891364601074392
72,0.009093051679727671,0.008621752531390822
73,0.008845770181648081,0.008355149213717125
74,0.008624624682767831,0.008161153086511734
75,0.008431516387898795,0.008040010544644413
76,0.008270057223981815,0.007873447892155622
77,0.008136865670223824,0.007743471384800771
78,0.008036892994600024,0.007660160443933631
79,0.0079740691763029,0.007698786801478047
80,0.007908090181407139,0.007513650610668332
81,0.007748994574001472,0.007396488589070743
82,0.007635549610455314,0.00730017851962612
83,0.007532915420341101,0.007169906634592662
84,0.0074601023106741085,0.007141633758764028
85,0.007411568613500715,0.00706239676802432
86,0.007321063834753296,0.006966399126334927
87,0.007245031436360937,0.006917760593383078
88,0.007180481415027209,0.006871803826822416
89,0.007132694828327749,0.006838866587296213
90,0.007100128507938048,0.006819219465555574
91,0.00704999086786333,0.006768725521255221
92,0.006990518231538413,0.006709416631068384
93,0.006926956098135993,0.006695806255015723
94,0.006861616406601677,0.00660800708447253
95,0.00681704095004796,0.0065721009509745205
96,0.006774201482874427,0.006533763190883983
97,0.006726610409416515,0.006472002042628166
98,0.006679355190340594,0.006439186346740594
99,0.006638507280808935,0.006392588750183558
100,0.0065939790916720855,0.006395458968526956
101,0.006558264295508663,0.006342542773929922
102,0.006517523397476054,0.006295044444930428
103,0.006484270026852147,0.006273506914733004
104,0.00645451863192684,0.006230849534007271
105,0.006411143209489944,0.006206700736196034
106,0.006376807949616849,0.006162881411971571
107,0.006344037686360536,0.006146433641597786
108,0.006320308603113703,0.006134847179432879
109,0.006278372665358673,0.006075445024050404
110,0.006241041536124541,0.006066139849183805
111,0.0062190534661056476,0.006030828231267347
112,0.006192697436169231,0.006012758947848452
113,0.006164323372260821,0.005985721368312425
114,0.006131268051595354,0.005955498678034167
115,0.00610508972941469,0.005927531359474034
116,0.006075299291642572,0.005907505143370361
117,0.006048655780919606,0.005871712707892507
118,0.006024050928228755,0.0058644922957766955
119,0.006000004630473206,0.005838342259856302
120,0.00596575158535599,0.005835140717653172
121,0.005940259465973099,0.005791339113861201
122,0.005936644427042851,0.00575938779748946
123,0.0058916891291976164,0.005757041616155332
124,0.005858886894509733,0.005721442180097297
125,0.005831916930617763,0.005676447678227446
126,0.0058005522683805665,0.005653502622774869
127,0.005780218061905286,0.005625431810332718
128,0.005750535626420744,0.005609088269155246
129,0.005733304853894837,0.0056029233027065275
130,0.005708788779957162,0.0055539950729171774
131,0.005677632240726172,0.005538178971890792
132,0.005644111265857115,0.0055132387817776116
133,0.005623186407931405,0.0054861248794879644
134,0.005599533130912136,0.005467196523883385
135,0.005596716581039232,0.005460474174469709
136,0.0055705100444076155,0.005448243987881741
137,0.005549104703445617,0.005419827849262025
138,0.00553279844007557,0.0054056757879016705
139,0.005504192477591735,0.005372356329965258
140,0.005486588946560784,0.005369870311830613
141,0.005464826686288401,0.005358896854228588
142,0.0054551930699178325,0.005354420228695855
143,0.005445367753956082,0.005327200931734847
144,0.005421956688847193,0.00532155511341838
145,0.005410082982010465,0.005310695761526177
146,0.005410334246726729,0.00529186115792778
147,0.005377676806601288,0.005264453641278707
148,0.005361548372901517,0.005247689097733006
149,0.00535272420018619,0.005254774234678358
150,0.005340003959716762,0.005226095319579794
151,0.005308686912185054,0.005197730700168925
152,0.00529505648397452,0.005186151563199743
153,0.005280251690060545,0.00518543284049519
154,0.005283958627935573,0.005192682698417367
155,0.005280278057897921,0.005174565318192371
156,0.0052689966457479115,0.005169735953668004
157,0.005260572769866289,0.00514441181883663
158,0.0052500747961086855,0.005150958774452734
159,0.005242556749803541,0.005143399766532271
160,0.00521928754156445,0.0051062149932307385
161,0.005204927953022768,0.00510076588829443
162,0.005197041391359986,0.005092238877059262
163,0.005188087394030047,0.005082682795544659
164,0.005168758978279796,0.005072330168863065
165,0.005162560386774096,0.005071638757023063
166,0.00514512839171591,0.005071929947526737
167,0.005142448741228307,0.005036513599440975
168,0.005122136844551747,0.005039269898452366
169,0.005113771572087208,0.0050196139351899125
170,0.005120452532576049,0.0050174243032889984
171,0.005106940725333601,0.005075971860308668
172,0.005100854453828344,0.004993286771610657
173,0.005087582440897703,0.0049813211021608
174,0.005068617664110527,0.0049791526489733244
175,0.005054052696198678,0.004957299457828228
176,0.005043467740901858,0.004959371831836081
177,0.0050312632024124134,0.004949178554220404
178,0.005018788823459724,0.004927779836406431
179,0.0050055370736923855,0.004917434811938044
180,0.004991855230920607,0.0049127185043470216
181,0.00497682830967528,0.004892278636752085
182,0.0049755446889845605,0.0048938876723029195
183,0.004966979448551579,0.004885549235950011
184,0.004958805283814895,0.0048970528360870146
185,0.004958437373928779,0.004875659229594909
186,0.004949357566588504,0.00486476743701069
187,0.004946539368818971,0.004867555370776395
188,0.0049426608034420765,0.004843155657442019
189,0.004930614629123596,0.004837891847176201
190,0.004920371395764683,0.004844000760544415
191,0.0049110274162408925,0.004847694777136567
192,0.004907939537951023,0.004818276328465993
193,0.004893106165147417,0.004810149895838505
194,0.004889875306845534,0.004832860077478276
195,0.004885667716909806,0.004815434002969339
196,0.0048768122859815174,0.00485745034069548
197,0.00487127320190744,0.00478562613588887
198,0.004859278733328319,0.004783278913331571
199,0.004855189073698116,0.004804225584880327
200,0.0048502641538004454,0.004773080314600966
201,0.004846172877591107,0.0047708197246817
202,0.004834769193748172,0.004764654815638104
203,0.004831067517398297,0.0047557597858295005
204,0.004823664653661539,0.004764791413392367
205,0.004816881120182556,0.0047577109659167685
206,0.004819221801129733,0.004754802203055136
207,0.004811398617496745,0.004766487120669592
208,0.004807079625834194,0.004746923565302597
209,0.0048021715629496895,0.004739560311870152
210,0.004807950883322329,0.004775897179037598
211,0.004801551365122807,0.004770428591104948
212,0.00479390447231545,0.0047651723889061475
213,0.004792342704010187,0.004733407786471009
214,0.004788013967387885,0.004737664647068034
215,0.004788319586222176,0.00473909701099083
216,0.004784766612783241,0.00472844092685968
217,0.004776487885649988,0.004722688572000884
218,0.004776973230540573,0.004727133295581119
219,0.004772797953173387,0.004725488005863127
220,0.004765219980287101,0.004725876944449286
221,0.004759435601766595,0.0047123517220974305
222,0.0047545159446989735,0.0047101854960020974
223,0.004746666996835994,0.004692690744573086
224,0.004749519099892259,0.004690201676980157
225,0.004747537927541008,0.004680652864389152
226,0.004748397178871868,0.00469075070863283
227,0.004736708902348999,0.004689093167830896
228,0.0047275119707558015,0.004682152600209656
229,0.0047217286603854864,0.004665967301727671
230,0.004717907298832022,0.004671156350130461
231,0.004713961637964408,0.004663376336455019
232,0.004708960761216949,0.004664569666770809
233,0.004704575188378926,0.004668593820220725
234,0.004700934665025569,0.00465850799819583
235,0.004698907746206387,0.004639188317160536
236,0.004690636818433662,0.004645226101428029
237,0.004690181678518939,0.004642113672746142
238,0.0046788904408784845,0.004651162689906716
239,0.004669058791699531,0.00461337379529613
240,0.00465997551333717,0.004608900399368018
241,0.0046615698775597176,0.004597813574202957
242,0.00466023444897496,0.004604400580844087
243,0.004654882718071496,0.004602922402724128
244,0.004649487118258345,0.004595133066758973
245,0.004642125094023118,0.0045895409131677944
246,0.004634297083581599,0.0045897327265298085
247,0.0046341765608215,0.004577139400803791
248,0.004627662494232814,0.004603265627194423
249,0.004632608226468388,0.004563751581766237
250,0.004613397677270196,0.004563261038757443
251,0.004622101261048579,0.004561704728867185
252,0.004615689054604253,0.004563207409721524
253,0.004603392585666121,0.004564035348881214
254,0.004592013244276301,0.0045375855706046
255,0.004588187137377069,0.004535999157770393
256,0.004581558653261599,0.004530568008929709
257,0.004577887025300124,0.004523325123463887
258,0.004577092883222587,0.004519333227915993
259,0.004567797136365521,0.004503513365343443
260,0.004559510893966135,0.004497014408340468
261,0.0045505141866601425,0.004490451963538333
262,0.004543170468058523,0.004490969000521682
263,0.004535484058540866,0.004483763352474568
264,0.004530508797078895,0.004472809754967665
265,0.004522368001130471,0.004478330635189986
266,0.004519839610962616,0.004485100221843591
267,0.004505783120197079,0.004458623133457756
268,0.004500167531589922,0.004429604224060018
269,0.004487346180545403,0.004450902272739417
270,0.0044812735472488895,0.004426940526308707
271,0.004476240508741527,0.004407218745052331
272,0.0044624235222281644,0.00440294283690703
273,0.00445979688274827,0.004451988709430359
274,0.004461977978142275,0.004425039395179361
275,0.004460147423356521,0.004391502910380502
276,0.0044424588500475105,0.004380815678683245
277,0.004435374484091007,0.004375954312125081
278,0.004432944310053563,0.004382786731895087
279,0.004428942228859071,0.004362671821100965
280,0.004425090867384756,0.004365879719410717
281,0.004418615987367803,0.004358482352229075
282,0.004407627872855748,0.00435584539166876
283,0.0044023331666322016,0.004345624043325994
284,0.0043938884737523345,0.004331772167700897
285,0.004394671044948461,0.004333596735503842
286,0.0043849309783703305,0.004332160946534643
287,0.004403637394232987,0.004376400344826082
288,0.004434733846939927,0.004365555585920207
289,0.004392003879514788,0.004331754639877697
290,0.004368786488863244,0.0043102366568797115
291,0.004363948557402094,0.004314207994784716
292,0.004360575544154995,0.004305144563462322
293,0.004349879727917339,0.004303084442426737
294,0.004351132955727241,0.004287653369640226
295,0.004344905333838063,0.004285036114143436
296,0.004342782860129678,0.004278416352026279
297,0.004341276666578994,0.00426744674472176
298,0.004325387025217685,0.004275984078304297
299,0.004334401086329208,0.004284776928506049
300,0.00432455707251954,0.004263749312147172
301,0.004319615285169539,0.0042727688347825605
302,0.004322386810181735,0.004268890507715631
303,0.004319986296046654,0.004269536173715885
304,0.004317327109676263,0.004252643242481392
305,0.004304995627595102,0.004249486565591415
306,0.004314547183373876,0.004247684087241726
307,0.0043119481497043794,0.00424440729806452
308,0.004305204976084616,0.004261723833969837
309,0.004309831452954879,0.004230355622967447
310,0.00430685820153432,0.004257178056980608
311,0.004308878309917364,0.004238386052892531
312,0.004308811052246772,0.004234524598210712
313,0.004293000648988245,0.004218224112763215
314,0.0042936588515243455,0.004228539540170294
315,0.004297016766384614,0.0042464545560095815
316,0.00431885533601499,0.004249111512435687
317,0.0043219702351492365,0.004268081591367142
318,0.004310831537931036,0.004226567688951721
319,0.004303689177198003,0.0042471762632139915
320,0.004306420003637386,0.00424918775172528
321,0.004290711775003038,0.004208878536020547
322,0.004281076333456463,0.0042050603893491086
323,0.004271980227598305,0.004198120087037726
324,0.004268545493911549,0.004194810870764452
325,0.004254905061439885,0.004191027263093314
326,0.004257105044264487,0.004198674617685674
327,0.004253810244777186,0.0041877687043855565
328,0.004248829896086819,0.004193744863499037
329,0.004244750680840366,0.004182756262841209
330,0.004242708839981663,0.004191779215999147
331,0.004246449591241497,0.004192479539417872
332,0.0042454139912967755,0.004182718168877652
333,0.0042402550529277,0.004177903336157836
334,0.004232458594673461,0.004175707274505571
335,0.004236218508883261,0.004180239972757404
336,0.004227165966962067,0.004166286778791119
337,0.004223083591817903,0.004167379548551103
338,0.004224333856769318,0.004166386434838586
339,0.004222023867151206,0.004157363167463138
340,0.004224387426458723,0.004153829482810787
341,0.0042092562356726634,0.004152994199760941
342,0.004204905332976563,0.004146169993644225
343,0.00420030628407808,0.004142638751730891
344,0.0041927219468435115,0.004134844124864028
345,0.004190011109166545,0.004143410944096617
346,0.004188242737685529,0.004132732194572663
347,0.004185039854852305,0.004138639443557761
348,0.0041862283020561416,0.004152264957378912
349,0.004185315398641044,0.0041320098674307
350,0.0041777523744514315,0.004127265741959492
351,0.0041766189873140985,0.004122210482236629
352,0.004173644441437182,0.004112871203628963
353,0.004166836001230978,0.004128914586829576
354,0.00417299927760354,0.0041222851870722
355,0.004165407065324503,0.0041083422155608175
356,0.0041616615556699455,0.004130115525023551
357,0.004161727297238355,0.004104744127082177
358,0.004155434218061576,0.004096742323429807
359,0.004156932714033583,0.004095640338637049
360,0.004153950741809843,0.004082079712242577
361,0.004146301899488577,0.004095795765649059
362,0.004147334783572891,0.00408633262982527
363,0.0041429758882053115,0.004080886233126668
364,0.004143214279381607,0.004084345705985467
365,0.004136571488764474,0.004079575668899562
366,0.004137397703123364,0.004104575323921365
367,0.0041307717492003095,0.004068309454804789
368,0.0041246297914651125,0.004083159182708641
369,0.004133811048839728,0.004072043781878015
370,0.00412821297957342,0.004066884032747462
371,0.004127512982165854,0.004067556603622093
372,0.0041219727784914196,0.004060406927079784
373,0.004120168885330948,0.004063508498262605
374,0.004124696733350988,0.004067490083548419
375,0.0041191882570926625,0.004056150907165668
376,0.004120814931646789,0.004069895214655732
377,0.004117570915710542,0.004055411306935735
378,0.004110932500035263,0.004057016923105146
379,0.00412763837032211,0.004076079778155706
380,0.004135579959056179,0.004080180334046616
381,0.004126405760607093,0.004068917849207628
382,0.004116142363256936,0.004096914127518915
383,0.00410657747051387,0.004046287084721929
384,0.004096394130927298,0.0040401295748964524
385,0.004092107997279618,0.0040353437164679035
386,0.004096096975645356,0.004033026815333916
387,0.004091711672920707,0.004032174143819358
388,0.0040889509647467235,0.0040382149745238115
389,0.004086659796755192,0.004072854602037168
390,0.004096557457243101,0.004037746650507464
391,0.004090268480471426,0.004044110132932711
392,0.004088092928087179,0.0040250884211151606
393,0.004083426921830488,0.0040155450030949814
394,0.004082923232532256,0.004021401077868463
395,0.004078512487327568,0.004021192963151238
396,0.004079531030237281,0.004023550336784702
397,0.004073428544286695,0.004016897147513823
398,0.004071496030930176,0.004010271865252137
399,0.004067789123813398,0.004013134694385545
400,0.004066905272778592,0.0040182724101461365
401,0.004060905570651981,0.004005718364819147
402,0.0040618419414945395,0.004029416020873508
403,0.0040667202210708485,0.00400741149868517
404,0.004065208188112708,0.004003391109047411
405,0.00405917875878841,0.004011615346218342
406,0.004057166735724426,0.0040115461039333476
407,0.004059344882800209,0.004004362375012448
408,0.004055448548288179,0.003996384023429655
409,0.0040506174967954575,0.003996597752518897
410,0.004048124580025923,0.003994584483126992
411,0.004046402951020947,0.0039990846594887735
412,0.0040399301077594894,0.003992644950425719
413,0.004039913935257231,0.003982720785756918
414,0.004032738200889183,0.003990557870698454
415,0.004031337538899614,0.003977940723357385
416,0.004030248870531781,0.0039851349526948306
417,0.0040320453468525265,0.003989053311148192
418,0.004033974235209288,0.003978264615519783
419,0.004020813465740284,0.003974262482032712
420,0.004017778778533706,0.003978932893662038
421,0.004018241526362143,0.003957181762215068
422,0.00401440812975729,0.003962777516089338
423,0.004019453907213968,0.00395883255413849
424,0.004003909690338399,0.003948697412049659
425,0.004004989275701338,0.003956072986245288
426,0.004032025872218945,0.003987739584540883
427,0.004020311209776575,0.00395700635444388
428,0.0039957092310249015,0.00394566777854892
429,0.00400050451700912,0.003950775959562973
430,0.00399769495280118,0.003954888522188388
431,0.003991782942822604,0.003957055341029375
432,0.0039914786883497875,0.0039441940036284324
433,0.00398333526564668,0.003940994353150679
434,0.003987693377890534,0.003950005425147815
435,0.003988021416880423,0.003959520314332923
436,0.0039809804606968,0.0039540766392791435
437,0.003973332775445033,0.003933738789461487
438,0.003968237272334741,0.0039204212074792685
439,0.003971766951151663,0.003927831249862957
440,0.003966170945111588,0.003922463691546389
441,0.0039697476305526865,0.0039236317760713655
442,0.003966061986522008,0.003919287604927134
443,0.0039668268965165005,0.003915242050130098
444,0.00396658816662661,0.003919897918624913
445,0.003962542825722224,0.0039138864816090175
446,0.003952970922894006,0.0039049638986635867
447,0.003957028758359418,0.0039049271114218894
448,0.0039509418741125076,0.003911825820700918
449,0.003953263885733053,0.003914135454044302
450,0.003949323756690379,0.0038927727213109763
451,0.003939623336007205,0.003913710110602539
452,0.003934170888047859,0.0038801981547857967
453,0.0039415972324474465,0.0039025753538599367
454,0.003933707579487176,0.0038770543324888745
455,0.003922241499641533,0.003885123799974212
456,0.003924508251546561,0.0038844671216321275
457,0.00393174842985763,0.0038765670804553104
458,0.003931507308653491,0.0038858916707161665
459,0.00393675684685065,0.0038900345504217435
460,0.003926847714466976,0.0038726534075062156
461,0.003920325035754266,0.0038764231418322134
462,0.0039177704921247265,0.0038760761633690596
463,0.003916859115810216,0.003879835804968178
464,0.003911139936580824,0.0038962269338589563
465,0.003908856021571424,0.0038543923694522564
466,0.003901718227599887,0.003863740681624531
467,0.0039010466853032907,0.0038653030545531568
468,0.00389734268325677,0.003859295118494384
469,0.0039014642682743727,0.0038502716724832585
470,0.0038956620026188936,0.003868217765831744
471,0.0038964845097696093,0.0038529213673502375
472,0.0038929158444027958,0.003856357880614982
473,0.003894199518407818,0.0038489567700151087
474,0.0038907767776429677,0.0038636721280121697
475,0.0038900108421870095,0.0038530321531934364
476,0.0038892753557223762,0.00385319271418723
477,0.003888085182141766,0.003849563302150463
478,0.0038842987619620785,0.003831320633357942
479,0.003877690374915353,0.0038207775757580827
480,0.003875585423157609,0.0038361915769410493
481,0.003872900137012665,0.0038158115402123884
482,0.0038730095293867985,0.0038227078532052303
483,0.003867285723743544,0.003805359598703906
484,0.003865851951894269,0.0038059506665791376
485,0.0038600065443423195,0.003804616100590643
486,0.003865841067947143,0.003811108485462457
487,0.003870465053958271,0.003813246403656906
488,0.003871542377005204,0.0037923967416661837
489,0.003855629625198565,0.003787121873738702
490,0.003853224119465288,0.003794208166717468
491,0.003853523144289684,0.0037918460992711015
492,0.0038564654694999857,0.003798593499222642
493,0.0038504455685227797,0.0037779250531174116
494,0.0038476041881658368,0.0038076981816014812
495,0.0038480806819501043,0.0038098556082846787
496,0.003843862012892162,0.0038056531414957617
497,0.00384345701004597,0.0037917467105162343
498,0.00383765025405859,0.003775427992805379
499,0.003836448663014999,0.0037823577850697515
500,0.003845042190227428,0.0037782897157571903
501,0.00383326222298382,0.0037662176308067273
502,0.003837356873652976,0.003781824930142747
503,0.0038344968612521314,0.0037658231845389923
504,0.003831022751038138,0.0037683572955142528
505,0.00382837164495364,0.003776549165260231
506,0.0038273137242117936,0.0037677198820668125
507,0.0038281071871844193,0.0037699530954077684
508,0.0038265315290119907,0.0037738319155167176
509,0.0038380034378259252,0.003773346271770738
510,0.003825137197257007,0.0037709465050210287
511,0.003823402355625641,0.0037598314884648223
512,0.0038247155430119,0.0037493995335693294
513,0.003814108967833263,0.0037542359898922796
514,0.0038198898078499435,0.003747817375323307
515,0.00383125010447605,0.003790298976844051
516,0.003833951417720609,0.003764032263124463
517,0.003822874685703181,0.00376598553698803
518,0.003817234189809562,0.0037789103104479897
519,0.0038162321935342946,0.003744765915790843
520,0.0038116617965995906,0.003740289825976306
521,0.0038125965635391404,0.003770383987318957
522,0.0038107165060504923,0.0037493596149159826
523,0.00380766289319852,0.003744493366467607
524,0.0038070466676600177,0.0037466864638251085
525,0.0038083537134623005,0.0037439411478864884
526,0.0038169207844772845,0.003723932775145356
527,0.0038042629752427434,0.003723748029789012
528,0.003803331189616632,0.003752726242731764
529,0.0037988942147070786,0.0037227783451084916
530,0.0038075133342761174,0.003720144432495799
531,0.0038101876128816886,0.003737022416493935
532,0.003808518708925888,0.0037273744103065954
533,0.0038047090727907477,0.003722053753485524
534,0.0037980963915192766,0.0037371519186729617
535,0.0038035213197913286,0.0037199645492022393
536,0.003798266300473741,0.00371764873347826
537,0.0037910558404125054,0.0037096859097921885
538,0.0037956471812931464,0.0037294969316541736
539,0.003790382145783954,0.0037128120471571556
540,0.0037895991219754955,0.0037091931729257978
541,0.0037897466743414144,0.0037002012595105296
542,0.0037908837114579326,0.0037087395906958967
543,0.003792663541972172,0.003702617319495646
544,0.00378965516481474,0.003706644996751435
545,0.0037848557067067146,0.0037162015794278617
546,0.0037868367489412415,0.0037086174524232855
547,0.003781402175999981,0.003698018339665762
548,0.0037799690597674985,0.0037096600246140604
549,0.003777164955428832,0.0037092026326856716
550,0.0037777258802408143,0.0036899869312099444
551,0.003783231655178999,0.0036980516408681146
552,0.0037794571561519624,0.0037030462280976295
553,0.0037862406126421104,0.003715648560196355
554,0.0037914749611097517,0.003708417202963132
555,0.0037903060295504986,0.0037135210191107386
556,0.003786930363264391,0.0037018670564530976
557,0.003775854287422997,0.003673447400636651
558,0.0037719972168443632,0.003674646033561771
559,0.0037625347900900057,0.003679720920926777
560,0.0037655491500069873,0.0036767926084108815
561,0.00376947244477896,0.0036849305929694647
562,0.0037617207073447727,0.0037305414414566555
563,0.003761909310978124,0.0036793766338952243
564,0.0037639572391744325,0.0036830345413436856
565,0.0037782384266106007,0.003704235025674757
566,0.0037664715334880436,0.0036800841216242663
567,0.003764828821581552,0.0036831331346410616
568,0.0037623259982316375,0.0036871394254675096
569,0.003761890472201489,0.003676753936052951
570,0.003758180689840638,0.0036817493379064695
571,0.003757833470377901,0.003676495409819138
572,0.003757635114887495,0.003669499568996191
573,0.0037510434500768698,0.003658148550163329
574,0.003755212686523449,0.0036610311128739918
575,0.0037541805658030144,0.0036717345741700564
576,0.0037531344661096916,0.003676476438559247
577,0.0037475975813438074,0.003668141130596665
578,0.0037459143554140106,0.0036791460341203653
579,0.0037495192118716823,0.0036668242952376242
580,0.0037443037144839764,0.003668803918429946
581,0.0037435634412897453,0.00365932452732611
582,0.003735785998905106,0.003661950346194238
583,0.003734325221497372,0.0036532611566137247
584,0.003729613799656972,0.0036439811895825785
585,0.0037321789779985923,0.003656830495700772
586,0.003739384587203936,0.0036419877304339787
587,0.0037318743117380326,0.003649537904197101
588,0.0037324040143148864,0.0036529789568096496
589,0.0037262819607103105,0.003641100758414743
590,0.0037261868043734826,0.0036559660918255308
591,0.003724655254093037,0.003641613746637483
592,0.0037290508073312433,0.0036487013531360845
593,0.003732075539117066,0.0036436009042520932
594,0.003719847099974847,0.003651829626953527
595,0.00372402054004914,0.0036399383095998715
596,0.0037168010872072155,0.003641644231023362
597,0.0037144920602291704,0.0036315739733398878
598,0.00371376503191089,0.003636140618979363
599,0.00371297374177572,0.0036432838353682656
600,0.0037127234313109095,0.0036443453317996045
601,0.0037136382641072413,0.003630096057130799
602,0.003706439993447893,0.0036513258777453057
603,0.0037092718271892057,0.0036251981202996392
604,0.0037067511784072346,0.0036452458652124617
605,0.0037031274995773292,0.0036271410431132772
606,0.0037046589874092034,0.0036173040730484427
607,0.003700565787783866,0.0036613762402107875
608,0.0037078284982851356,0.0036149801922824598
609,0.0037069921419054293,0.003632374429797326
610,0.003719036249082992,0.0036238720687748285
611,0.0037063938842190084,0.0036256732658950636
612,0.003711404631755429,0.003620272734189604
613,0.0037013889548388884,0.003608871941527976
614,0.0036945043937388878,0.0036089801110949634
615,0.0036929194182396125,0.0036126320348147663
616,0.003695208708300077,0.003624592677539778
617,0.003692384563935242,0.0036166479906621666
618,0.0037022982882462543,0.0036171628362427423
619,0.00370231449691276,0.003607516482340992
620,0.0036918879397141876,0.0036032785344657405
621,0.003693884205419102,0.0036102074769832383
622,0.0036950579527884816,0.003608263647206436
623,0.003693644375315874,0.0036134133653583827
624,0.003704066588890085,0.0036398863371926915
625,0.0037146835471223816,0.0036588131100020924
626,0.003709860576474793,0.003639931508414719
627,0.0036932179263253822,0.003614820252170383
628,0.0036968576385929667,0.0036408614557212264
629,0.0036969493997780632,0.0036443413902959346
630,0.003690928350492799,0.0035907992164454054
631,0.003676082953263381,0.003591752463055885
632,0.0036753140279189573,0.003586531026645383
633,0.00367326404432579,0.003589551843739049
634,0.0036714460853236714,0.00358525487357888
635,0.0036730937957256625,0.0036051315402752583
636,0.0036721217443792223,0.003581991626156701
637,0.003672123271479809,0.0036062371572638226
638,0.0036764162826725395,0.0035735849949734442
639,0.0036711791064963045,0.0035955632076767143
640,0.003671866312199492,0.0035724020026781313
641,0.0036750392318353523,0.0035781636515017433
642,0.003673749488388435,0.0035992730027465006
643,0.0036742675718027438,0.00358194069988234
644,0.003670198371256586,0.0035816708119663153
645,0.0036654144947195623,0.0035800797517720343
646,0.0036631699223101163,0.0035806013194168863
647,0.00366577160696807,0.003578032582578312
648,0.0036612441094056834,0.0035729879382710725
649,0.0036590977881724137,0.003572427435224424
650,0.0036694572060730598,0.003573454382836166
651,0.003656334041456004,0.0035641555106365524
652,0.0036592301023412673,0.003571481036818424
653,0.0036590494891424316,0.0035813786810760997
654,0.003655519110528682,0.003569784172185956
655,0.00366035116548606,0.0035657095262102497
656,0.0036557829851960187,0.003572736803890906
657,0.0036613734623937725,0.0035617229946422945
658,0.0036533547612317236,0.0035589239758341924
659,0.0036593041219804483,0.0035574357678686227
660,0.0036493682356967365,0.003556589182807678
661,0.0036478020600136446,0.0035761702097257464
662,0.003649594530677967,0.0035598109533295746
663,0.003645770963851073,0.003559508257630883
664,0.0036534230609545954,0.0035606605740640214
665,0.0036519271162397463,0.003593258301947275
666,0.003651233026094204,0.003558047552761491
667,0.003650532214991074,0.0035649571523964645
668,0.0036529706063284408,0.003554373137563745
669,0.0036513735885076444,0.0035518239858799705
670,0.0036499644279199615,0.0035623801724467084
671,0.0036483498558989636,0.003553048672421933
672,0.003651460259668141,0.003561726977689145
673,0.0036514339207248795,0.00356955560066247
674,0.0036436723503437017,0.0035518053450771976
675,0.003640508703108999,0.0035770139264189077
676,0.003643073696528283,0.00354165178444161
677,0.003643184693737494,0.003554128272804852
678,0.0036445613859148263,0.0035487749114925674
679,0.0036386648848059297,0.003552892701383091
680,0.0036405307841781763,0.0035479815390915743
681,0.003636853205893126,0.00354342584857764
682,0.0036382682953668153,0.0035688106468383944
683,0.0036381631933027404,0.003551071229868924
684,0.003639035391061305,0.003545380465418934
685,0.003639323720962012,0.003542324791897303
686,0.003639402808256155,0.003541391639156752
687,0.003633886290672388,0.0035388563700709174
688,0.0036275891463732344,0.0035354136315605693
689,0.0036340921453973524,0.0035462905260049177
690,0.0036306925644774475,0.0035317013138755613
691,0.003628918485383423,0.0035465717544538988
692,0.0036322754418911386,0.00354390267837137
693,0.0036313410401359212,0.003530721169755177
694,0.0036268158943680907,0.003528435416753794
695,0.003627704144764939,0.0035367086542950035
696,0.0036219022487677197,0.00352698156141071
697,0.0036237856365361506,0.0035304828954442116
698,0.0036186113201597744,0.003531375403658752
699,0.0036208747647138977,0.0035528477986810753
700,0.003635609333438454,0.0035414086939541916
701,0.003620704664499033,0.003527605314327393
702,0.0036185346666821917,0.0035236142575740814
703,0.0036264861060725487,0.003538850749467423
704,0.003677599742379281,0.0035771559770932815
705,0.0036666514230795128,0.003585759591120873
706,0.003666365985013694,0.003561344643713361
707,0.003646979752139116,0.003571305352407421
708,0.003643399095714534,0.0035362247242052215
709,0.00364209881803249,0.003552020119732761
710,0.00365078099537268,0.0035500325797320573
711,0.0036405542847872665,0.0035361934472887572
712,0.0036273379096190173,0.0035340021308118722
713,0.0036128395730279108,0.0035257700757808613
714,0.0036135839290538127,0.003522064145359861
715,0.00360935246046212,0.0035239323567287863
716,0.0036070699718899375,0.0035116713360368915
717,0.003608252146274591,0.0035108653175140773
718,0.0036067315750122307,0.0035282158990000093
719,0.0036065670707486003,0.0035129944957786718
720,0.003607540850708779,0.0035323366954838078
721,0.0036072169284778444,0.003512542899501633
722,0.003610030480632909,0.0035171921193880686
723,0.003606909616261995,0.0035199800191638994
724,0.003606302096986408,0.0035133497181083382
725,0.0036070077583861887,0.0035270701781132795
726,0.003605139264135992,0.003517721003920009
727,0.0036062750427739874,0.003524041012539819
728,0.0036066914086503752,0.00350841500253295
729,0.003606073614068216,0.0035033704105323516
730,0.0036040085814878333,0.0035198754751835765
731,0.0036051323819306013,0.0035166234257257116
732,0.003608092485783134,0.003507722537006823
733,0.0036056802674808842,0.0035185580810687574
734,0.0036029422544226275,0.0035068595065113643
735,0.0035972568910014185,0.0035089012801900977
736,0.003604428857390443,0.003499492711333946
737,0.0036009636892526268,0.003513007281825478
738,0.003601231292565707,0.0035095354993446197
739,0.0036040469245378188,0.003506341067634505
740,0.0036056837265724963,0.0035164885888358055
741,0.0036064568900311587,0.003515382437073208
742,0.003607125550745617,0.003517006125470317
743,0.003603997334593339,0.003508597600673358
744,0.0036001428024093206,0.0035011091041820546
745,0.0036036294349599735,0.003505369114696327
746,0.0035976533572211135,0.0034994009632197272
747,0.003600217949291818,0.003497300499979186
748,0.003602147085392315,0.0035121999709320836
749,0.003605462822301076,0.003509143505635198
750,0.0035988805022201032,0.00350615575974573
751,0.0035991370898848167,0.003501980419143043
752,0.003596596484496784,0.003499776436339245
753,0.0036032553374457112,0.0035027042278658904
754,0.0035994100629361727,0.003499480516333299
755,0.0035986012010779185,0.003496235508822201
756,0.003596391996370257,0.0035140985701934096
757,0.00360262171634502,0.0035066522449400013
758,0.003593224401453777,0.0034973038054945285
759,0.0035941140913367986,0.0034940806906730757
760,0.0035960169567214287,0.0035279236104345402
761,0.003602473605483818,0.0035051380800399006
762,0.0035877323862660328,0.003497124314217527
763,0.0035904904095242747,0.003546698377879347
764,0.003600852894675049,0.003518149781094476
765,0.0036013050857123087,0.003507188449758018
766,0.003590245015160132,0.0035012413110109674
767,0.0035873976438414393,0.0034946162409971665
768,0.0035852375080521175,0.003494436859431928
769,0.0035889000043547374,0.0034912490457393052
770,0.0035846793540925672,0.003482543923593725
771,0.0035808763559609415,0.0034836997825271675
772,0.003582334892490239,0.0034900490668151357
773,0.003579327713786136,0.003497868373730225
774,0.0035840421961657733,0.003496006152510268
775,0.0035851430043494633,0.0035110924695826167
776,0.00358197139501512,0.0034967095742949312
777,0.0035760446162290387,0.0034877155032779325
778,0.0035772791529019134,0.0035129620637729558
779,0.0035759507483833306,0.0034818592585550753
780,0.0035707936446973568,0.003485298126751658
781,0.0035792291512991713,0.003485823777713492
782,0.0035849906080249573,0.00349898355471428
783,0.003580159366390317,0.003500252777622939
784,0.003571523507435122,0.0034845640111657197
785,0.00357585778744001,0.0035029570375692282
786,0.003577360113839611,0.0034776520809583177
787,0.0035783715793688458,0.0034796201553352825
788,0.0035734889759280212,0.003514246195773779
789,0.003577626834484078,0.003513401058115011
790,0.0035782840779219702,0.0034813958447538346
791,0.003573668826322218,0.0034807719791040657
792,0.0035737625112961394,0.0034815651849546716
793,0.0035742627722610107,0.0034840350218316644
794,0.003572316541283535,0.003500981627610744
795,0.0035698099150952454,0.0034866609791141165
796,0.0035679648824936874,0.0034969915435343548
797,0.00356692434351942,0.003476960852474808
798,0.003569211405750403,0.0034922636542710967
799,0.0035721837951942646,0.003475333346259408
800,0.0035680109212582137,0.0034813446148365904
801,0.0035677857693654593,0.0034822159737955844
802,0.003568007886816887,0.003495370686682665
803,0.003570893660837932,0.003477214046452566
804,0.0035703495868874657,0.0034757564159673664
805,0.0035660962558898023,0.003518307607791659
806,0.003565322104998058,0.003478003318730473
807,0.003564780888955196,0.0034680513120109073
808,0.0035643547805424354,0.0034773387260348307
809,0.0035621068053382984,0.003474815302986927
810,0.0035655875440487104,0.003470661889441426
811,0.0035624541772873975,0.00347859350683444
812,0.0035649695114163254,0.003475143326429797
813,0.0035610739756867685,0.003471564894862358
814,0.0035600811737053414,0.0034698018262620534
815,0.0035609845674147095,0.0034706492435084375
816,0.003559664937200023,0.003468179433634512
817,0.003561461327584077,0.0034735487314773495
818,0.003555591624368838,0.003466581747869433
819,0.003562783391988151,0.003474344182548031
820,0.0035603934935509586,0.0034716486778270396
821,0.0035576178754543404,0.003477032871354924
822,0.0035544552115516197,0.003478294403110204
823,0.0035553004410344546,0.0034725895028377054
824,0.003556533429169173,0.0034597062257277897
825,0.0035476990853525025,0.003467464896971896
826,0.0035549615110137206,0.0034714977023556576
827,0.0035557535811035846,0.0034692278452858097
828,0.003553066651349525,0.003464307527254968
829,0.0035468872518743203,0.0034654376951302347
830,0.0035483382791027225,0.003458542767413631
831,0.0035495865410395126,0.0034613787972301076
832,0.003549815203287632,0.0034667607874587624
833,0.0035473548360183847,0.0034756526254292727
834,0.003565638554465172,0.0034870868148425683
835,0.0035617820584133947,0.003481443335407165
836,0.003551374447924958,0.003460572372150622
837,0.003548311480090583,0.003469872402460809
838,0.003557259340683301,0.0034622394333277064
839,0.003560896489204014,0.003473361739390269
840,0.003556774097015325,0.0034677985153370216
841,0.0035620318189579503,0.0034704937065958325
842,0.0035664416859679526,0.0034702533655116352
843,0.003562645350260029,0.00348826349691759
844,0.003552017813239745,0.003474783403678085
845,0.0035625978671625746,0.0034867436630728397
846,0.003570038739896064,0.003474244031192552
847,0.0035580796067691666,0.0034713538775986417
848,0.0035450334171932326,0.0034620233232477214
849,0.00354115290435298,0.0034632327145347726
850,0.003539801663230714,0.0034564135047408474
851,0.003544618804164356,0.003465477528620061
852,0.0035442494779073593,0.003455182945314985
853,0.003540160137976559,0.003451911827537253
854,0.0035426414253307975,0.003449919412066648
855,0.00354323295329819,0.003448144242693183
856,0.003544206683858752,0.003444791326770636
857,0.003543811038791167,0.0034574540796488014
858,0.003541334459313555,0.0034730534438596737
859,0.0035417832203397306,0.0034502989209173225
860,0.003541645584806943,0.0034524459536855816
861,0.0035409136411336493,0.003445861190753866
862,0.0035407036031000583,0.003447946272254147
863,0.0035381101901748114,0.0034498162820651244
864,0.0035384780042443135,0.003452779943295675
865,0.003537025800186565,0.0034560176174912452
866,0.0035380691761901085,0.003469024197782321
867,0.0035381753421168598,0.0034658992819756947
868,0.003541120923041486,0.0034615289701627745
869,0.0035318505068162712,0.00344942924011399
870,0.003526167867457669,0.0034548050171823302
871,0.0035336042806175085,0.0034479773552394915
872,0.0035299963199998067,0.0034419466863746624
873,0.0035249881930664194,0.0034665585386386296
874,0.0035281472446455106,0.0034576221812963608
875,0.0035259185699646096,0.0034471493294056196
876,0.003529032392932879,0.0034531510266228387
877,0.003528702905881789,0.003441116585836588
878,0.003523725159525919,0.0034539977198848855
879,0.003526682405657261,0.0034447066043635766
880,0.0035226796997906424,0.00346576020314939
881,0.003526343663168655,0.0034430453726388846
882,0.0035229422382449657,0.003444251219914971
883,0.003521645750352342,0.0034646589700993687
884,0.0035229276670359247,0.003454402226966784
885,0.003517916061251079,0.0034465397474343156
886,0.003530366557260291,0.003442442434555145
887,0.0035218994561552978,0.0034484829044004258
888,0.003537154560192847,0.0034614139582451195
889,0.0035283823722781086,0.00343166558232101
890,0.003520084819230762,0.0034353359359175282
891,0.0035172162765414834,0.00344689575889558
892,0.003518793475515902,0.003446814716270153
893,0.0035194962723903937,0.0034448261375011027
894,0.0035214324730088275,0.0034345886299941035
895,0.0035212891526054963,0.0034377219922846636
896,0.0035188226530729555,0.003435834967331101
897,0.0035177673277683,0.0034434846532512197
898,0.003511824013532592,0.0034318631237322903
899,0.003510852198372241,0.003426300060564451
900,0.0035163396719643312,0.0034380385020350477
901,0.003532179836161417,0.003461599499342203
902,0.0035220778253066648,0.003432576499829508
903,0.0035178953879777554,0.0034381817019448614
904,0.003527532447408363,0.0034591208728723716
905,0.0035277828562995783,0.003451678954783921
906,0.0035268364606903875,0.0034646489950152233
907,0.003530915648347621,0.003448232459259391
908,0.0035220946567811615,0.0034359519026980153
909,0.003516905633300197,0.0034402001532820407
910,0.0035249811483083295,0.0034567581388467903
911,0.0035073303323376287,0.003470331095823745
912,0.0035069817121627573,0.003441973364838706
913,0.003504109726040613,0.0035521963189015376
914,0.003507472396126573,0.003422820779539506
915,0.0035091577991813398,0.003433883608608157
916,0.003504393296614528,0.0034302631819836753
917,0.0034988524984669767,0.003431062613079885
918,0.0034999528879656183,0.0034304588700026055
919,0.0035112017159424037,0.0034298788305199782
920,0.003506400486345502,0.003427540649458258
921,0.0035081744836039357,0.0034327016082506957
922,0.003504310395297191,0.003429708620933672
923,0.0035091635231987487,0.0034259490578889317
924,0.0035093357433095946,0.003457666063546796
925,0.0035051550019720348,0.003425274505782253
926,0.003511858677522863,0.003429052280790844
927,0.0035024437154110096,0.0034416112572933635
928,0.003504291128141998,0.0034130410070698
929,0.0035024478903310217,0.0034238028231274036
930,0.0034999663382694066,0.0034233107722899895
931,0.0034991671514657853,0.003419416352339083
932,0.003496807496219253,0.0034407912094496485
933,0.003495962826723011,0.0034211887911925905
934,0.0034963324385657133,0.0034183203191734362
935,0.0034995163019874796,0.003428736062409222
936,0.0034942585315773066,0.0034359441129739993
937,0.003494652980055699,0.0034178075267701424
938,0.0034935362829049054,0.003412548432788311
939,0.003504896322093767,0.0034316572955894885
940,0.003503145133849797,0.003417470914652361
941,0.0034964211304501307,0.003420230912517481
942,0.0035078027225983106,0.003432947732712122
943,0.0034942869289000455,0.003415382043658684
944,0.003487325260964475,0.0034216343912780163
945,0.003485729222560974,0.0034421793869126283
946,0.0035019989313335538,0.0034262656998221624
947,0.0035046572094966618,0.0034274170821002366
948,0.00349566912792289,0.00340817390604206
949,0.003480135850918541,0.0034415977195038218
950,0.0035134456675944086,0.0034331625496661963
951,0.00350588738185326,0.0034281277223901833
952,0.003488426627270621,0.0034147469751349526
953,0.0034797059678158657,0.0034221975444019177
954,0.0034796926002797364,0.003411997291308564
955,0.0034779896913059026,0.0034244222364812147
956,0.0034796434249192046,0.003406119076663512
957,0.0034767350872040533,0.003408777421387177
958,0.0034763727734555857,0.003406319542714702
959,0.0034754931003234094,0.0033992152577621104
960,0.0034740336095426586,0.003418766242162674
961,0.003481461498192888,0.0034205222984629367
962,0.0034751434418245305,0.003448927379609822
963,0.0034830230575284547,0.0034003007648299717
964,0.0034746335104653674,0.0033971804369011377
965,0.0034762630481466805,0.0034047072943653505
966,0.003475479880613301,0.003402938635185941
967,0.0034738095101413484,0.0034036903773545495
968,0.0034731832398899537,0.0034021309825054704
969,0.0034722771003075823,0.0034079381579341364
970,0.003475066489153046,0.0034151454199338144
971,0.003469693137435697,0.0034030585322039624
972,0.0034711152183531735,0.0034004204405361405
973,0.0034727792054626513,0.0033968193972043676
974,0.0034724339647807653,0.0034274525656413954
975,0.0034733856515548793,0.003410377135592462
976,0.003468492195857249,0.0034028187119201827
977,0.0034714227622811844,0.003393248168846769
978,0.0034711901523512873,0.0034021606956988527
979,0.003470863092033039,0.00340424386413567
980,0.003471562954290711,0.0033976104824644396
981,0.0034710696349971835,0.0034038132664257325
982,0.0034679982270985794,0.0033956433158059698
983,0.0034798042139588736,0.003436894033297546
984,0.003494952336323557,0.003425476183194821
985,0.0034865601772324645,0.003423352196694798
986,0.003465067500918149,0.0033935642637318453
987,0.003472052906767381,0.003429552624591257
988,0.003479256615485605,0.0034037354192262195
989,0.0034863799047977736,0.0034018625754149994
990,0.003464680868018272,0.003395364509513247
991,0.0034626722619164173,0.0033912368667132955
992,0.0034671184432366973,0.0034181685033968113
993,0.003467258855214326,0.003392950141090909
994,0.0034614533996485393,0.003392081702617507
995,0.0034621308734409328,0.0034429639208131296
996,0.0034739998017502627,0.0034125998898712193
997,0.0034754719274615146,0.003427341675184915
998,0.0034841560845146236,0.003413848653896459
999,0.003465565235605292,0.0033922244493289878
1000,0.0034676025755065168,0.003404602138378445
1001,0.0034639076477034486,0.003414282083151815
1002,0.0034656968380468453,0.003407193497367149
1003,0.003461887859765461,0.003393936112020029
1004,0.003463166915558821,0.0034441958364350034
1005,0.0034644354227632047,0.003393770535442516
1006,0.0034643236448536454,0.003417786095965131
1007,0.0034659635035128736,0.0034183370206650084
1008,0.0034607451608936915,0.0033868850180116352
1009,0.003459238818584918,0.0033879113683457406
1010,0.003463734723321849,0.0034010067632359916
1011,0.0034573824604223068,0.003391206164414551
1012,0.00346246195358304,0.003388299431503786
1013,0.003463489375561118,0.00338430255379555
1014,0.003463835529483455,0.0033916333789989314
1015,0.0034585444989641777,0.0033811777748925867
1016,0.0034623443364524384,0.0034087490879938865
1017,0.0034605985750825264,0.00338665857897514
1018,0.003469034044960852,0.003400841936512887
1019,0.0034662649172281412,0.0034158198436342983
1020,0.0034722692057828877,0.0034116677607924036
1021,0.0034882677948285786,0.0034252278684636173
1022,0.0034920194628443404,0.0034132735508766755
1023,0.0034910144097581087,0.003401762843079146
1024,0.00347010189427989,0.0034004008784189227
1025,0.0034732367722966296,0.003409136274213157
1026,0.003475692165490565,0.003397589317913449
1027,0.0034591355226826583,0.0033800539421635196
1028,0.0034451592600627766,0.0034063056293370418
1029,0.003453378922964414,0.0034435354641488385
1030,0.003462974031681748,0.003389201263896366
1031,0.0034612750055177436,0.003378238565600436
1032,0.0034605843897497325,0.0033992843012063366
1033,0.003471921039059209,0.0034017514026537235
1034,0.003478860987381662,0.003404194546715392
1035,0.0034847180888480287,0.0033925901590457484
1036,0.003456047577656704,0.003373275962087952
1037,0.0034458160020479616,0.0033789780408231616
1038,0.0034851394642183217,0.0034220353800301882
1039,0.0034926845712603643,0.0034246895077433633
1040,0.0034838904672525256,0.0034060633106086182
1041,0.0034886019123946312,0.003417040767874765
1042,0.003479809832652573,0.003393322023368967
1043,0.0034678786526246962,0.0033788377217440855
1044,0.0034627017035284,0.0033683767504476478
