epoch,loss,val_loss
0,0.2780557596447567,0.0593839669264853
1,0.05562284140909712,0.04909720125421882
2,0.044094850916415455,0.035539681227877734
3,0.03364629695626597,0.028063699578866362
4,0.028076920341079434,0.025165900023654104
5,0.024929476906855902,0.022346880195662378
6,0.022286445839330555,0.01993801549822092
7,0.02062570208994051,0.02032159333303571
8,0.019672459083298843,0.01773221311159432
9,0.018880122817121446,0.018272060512565077
10,0.018420375239414474,0.018298594313673675
11,0.018029919379080335,0.017008793687447905
12,0.017834154857633015,0.0189742484157905
13,0.017608324664334457,0.016828274964354933
14,0.01741343449583898,0.016766037018969657
15,0.017271107898404203,0.01626559969317168
16,0.017215651855493584,0.01598590495903045
17,0.017116258529635768,0.016553584165871143
18,0.016847102386256058,0.01719702472910285
19,0.016508031512610613,0.01569233032967895
20,0.01635237143468112,0.015411629846319556
21,0.01633301188144833,0.01524654043186456
22,0.016195270590794585,0.01633415853139013
23,0.016026374262136718,0.014888986432924866
24,0.01599045911959062,0.015592552598565818
