epoch,loss,val_loss
0,1.560648649096489,1.5607969108819961
1,1.5606486485799154,1.5607969123125076
2,1.5309805372953416,1.3191698019504547
3,1.312228832046191,1.31105848300457
4,1.310758365948995,1.3108668981790543
5,1.3106866116921108,1.310835891723633
6,1.310674411892891,1.3108241707086563
7,1.3106688901980719,1.3108180903196336
8,1.3106665821472803,1.31081638777256
9,1.3106659476359686,1.310814878344536
10,1.310664270401001,1.310813207745552
11,1.310663586417834,1.3108127338886262
12,1.3106630816857021,1.3108143209218979
13,1.310662977218628,1.3108127019405365
14,1.3106626946926117,1.3108126031160354
15,1.310662449836731,1.3108128719329835
16,1.310662245710691,1.3108128165006638
17,1.3106620657046637,1.3108120765686035
18,1.3106618727048238,1.310812416791916
19,1.3106618205706277,1.310812574028969
20,1.3106617194811503,1.310811660885811
21,1.31066146115462,1.3108121191263198
22,1.3106614010731379,1.3108121552467347
23,1.3106613565286,1.3108118577003478
24,1.3106618459622066,1.310812092781067
25,1.3106615944306055,1.310811002612114
26,1.3106610084374746,1.3108118200302123
27,1.3106609818140667,1.310811630487442
28,1.3106610082785288,1.310811480998993
29,1.310660847345988,1.3108114204406738
30,1.3106610480546952,1.3108107253313064
31,1.3106610691547393,1.3108110208511352
32,1.3106608582735062,1.3108104711771011
33,1.3106608591477076,1.310810439825058
34,1.310660910685857,1.3108110630512237
35,1.3106607146263123,1.3108104847669602
36,1.3106606480280558,1.3108100060224532
37,1.3106606343984604,1.310810298204422
38,1.3106605785687764,1.3108104482889176
39,1.3106605015993118,1.3108099578619004
40,1.3106604604323706,1.3108097970485688
41,1.310660336971283,1.3108098458051682
42,1.3106602499087652,1.3108096175193786
43,1.3106601256132127,1.310809677362442
44,1.310660069624583,1.3108096452951432
45,1.3106600676774978,1.3108096431493759
46,1.310659983197848,1.3108093878030778
47,1.3106598855654399,1.310810008764267
48,1.3106599201758702,1.310809307217598
49,1.310659921646118,1.3108096886873246
50,1.3106598103046416,1.3108093044757843
51,1.3106597640514375,1.3108093777894974
52,1.3106598469813664,1.310809451341629
53,1.310659789800644,1.3108093502521514
54,1.3106597458521525,1.310809436917305
55,1.3106597263813018,1.3108092910051345
56,1.3106600009202958,1.3108096565008163
57,1.3106598252852757,1.310810428738594
58,1.3106596935192745,1.3108099604845047
59,1.3106597383419674,1.310809617638588
60,1.3106597978671393,1.310812526702881
61,1.3106598464250565,1.3108098863363267
62,1.3106597176790238,1.3108104295730592
63,1.3106596451203028,1.3108094755411148
64,1.3106596600612004,1.3108096138238907
65,1.3106596069733303,1.310809678554535
66,1.3106598785320918,1.310809715270996
67,1.3106598894198735,1.310809850335121
68,1.3106597266991933,1.3108100093603134
69,1.310659725467364,1.3108109910488128
70,1.31065969312191,1.3108097630739213
71,1.3106596406698228,1.3108096292018891
72,1.310659698843956,1.3108101826906204
73,1.310659748752912,1.3108103268146516
74,1.3106598500410716,1.3108099426031112
75,1.3106598080794016,1.3108102823495864
76,1.3106597366730373,1.3108100467920303
77,1.310659716407458,1.3108107936382294
78,1.310659737388293,1.3108106883764268
79,1.310659718712171,1.3108106827735901
80,1.3106597019433974,1.3108100385665893
81,1.3106596647500992,1.3108098176717757
82,1.3106596922874452,1.3108098745346068
83,1.310659681280454,1.3108101204633713
84,1.3106596522331238,1.3108102009296416
85,1.3106596567233404,1.3108101353645325
86,1.3106596571207048,1.310809930562973
87,1.3106596848964691,1.3108100306987762
88,1.3106596520344416,1.3108099715709687
89,1.3106596143643061,1.3108099793195724
90,1.3106596473852794,1.3108101907968521
91,1.3106595977942148,1.3108106800317765
92,1.3106595780054728,1.3108102725744248
93,1.310659586429596,1.3108099077939988
94,1.3106595666408538,1.3108113952875138
95,1.3106595629851023,1.310809606194496
96,1.3106595752636592,1.3108101065158844
97,1.3106595732768376,1.3108101810216903
98,1.3106596322456996,1.3108097611665726
99,1.3106595641374588,1.3108099540472031
100,1.3106596202055614,1.310809824347496
101,1.310659587264061,1.310809977531433
102,1.3106595830917358,1.3108100423812865
103,1.3106595562299093,1.3108103969097138
104,1.3106595523754756,1.310810687661171
105,1.3106595430374146,1.3108095060586928
106,1.3106595395008722,1.3108098257780074
107,1.3106595379114152,1.310809700369835
108,1.3106595278978348,1.3108098368644714
109,1.310659538547198,1.3108097776174545
110,1.3106595072746277,1.3108095941543578
111,1.3106595617930095,1.310810163617134
112,1.3106595460971195,1.3108092249631882
113,1.3106595697402954,1.3108104927539825
114,1.3106594552199047,1.3108098237514496
115,1.3106595021486283,1.3108096357584
116,1.3106595319112142,1.3108097789287567
117,1.3106595906416576,1.3108094891309738
118,1.3106595262686411,1.3108099275827407
119,1.3106595546007156,1.3108100781440735
120,1.310659538467725,1.3108096803426743
121,1.3106594930092494,1.3108098970651627
122,1.3106594738165538,1.3108098111152648
123,1.310659483075142,1.310811156988144
124,1.3106594930092494,1.3108098390102387
125,1.3106595185200374,1.3108099504709243
126,1.3106594932476678,1.3108095250129699
127,1.3106595301628112,1.310809738636017
128,1.3106595122416813,1.3108097448348999
129,1.3106595627069473,1.3108092592954637
130,1.3106595155795415,1.3108096148967743
131,1.3106594942013423,1.310809674859047
132,1.3106594687700273,1.3108099941015243
133,1.3106594868103663,1.3108097151517868
134,1.3106595153013865,1.3108100011348724
135,1.3106594827572504,1.3108103606700898
136,1.310659526348114,1.310809605717659
137,1.3106594895124435,1.310810090303421
138,1.3106595120429994,1.3108097884655
139,1.3106594541072845,1.3108098467588425
140,1.3106594052314757,1.310809993505478
141,1.3106594501336415,1.3108097199201585
142,1.3106594323714573,1.310809640288353
143,1.3106595525741578,1.3108105603456497
144,1.3106593863566716,1.310809828519821
145,1.3106594206094742,1.310809952378273
146,1.3106594479878744,1.3108097336292266
147,1.310659429272016,1.3108095136880875
148,1.3106593892176945,1.3108102699518205
149,1.3106594193379084,1.3108097276687622
150,1.3106594605843227,1.3108114750385285
151,1.3106594008604686,1.3108109877109528
152,1.310659456173579,1.3108103568553924
153,1.310659411629041,1.3108102535009385
154,1.3106593715349832,1.3108102041482925
155,1.3106594027678171,1.310809683084488
156,1.310659440477689,1.3108105236291885
157,1.3106594162782033,1.310809537768364
158,1.3106593497196832,1.31081038749218
159,1.3106593616406124,1.310811564564705
160,1.3106593834956488,1.3108112539052963
161,1.3106593359708787,1.3108116790056228
162,1.3106594132979712,1.3108107649087906
163,1.3106593387126924,1.3108131654262543
164,1.3106593418916066,1.3108115111589431
165,1.3106593857606252,1.310811066508293
166,1.3106593273480733,1.3108103551864625
167,1.3106593085924785,1.310810469865799
168,1.3106593085130056,1.3108104850053788
169,1.3106592902342478,1.310813871741295
170,1.31065929321448,1.3108108471632003
171,1.310659309943517,1.3108115836381913
172,1.3106593033472698,1.3108108668327332
173,1.3106593118508656,1.3108103528022765
174,1.310659270008405,1.3108099956512451
175,1.3106592177947363,1.310811827301979
176,1.3106592698494592,1.3108104611635207
177,1.3106592820485432,1.310810665369034
178,1.3106591723759968,1.3108134974241257
179,1.3106592321793238,1.3108101245164872
180,1.3106591679255168,1.3108102934360504
181,1.3106591807603836,1.3108100152015687
182,1.3106591822306315,1.310810643196106
183,1.3106591790914535,1.3108102511167525
184,1.3106591027180354,1.3108100807666778
185,1.3106591863234838,1.310810412287712
186,1.310659217039744,1.3108122478723525
187,1.3106591747601828,1.3108097150325775
188,1.3106592268149058,1.3108110067844392
189,1.3106591666142147,1.3108097831010819
190,1.3106592002709707,1.310810506105423
191,1.3106592729091644,1.3108109970092774
192,1.3106591242949168,1.3108111219406129
193,1.3106593133211135,1.3108100155591964
194,1.3106591566006343,1.3108096935749054
195,1.3106592568159103,1.3108119243383407
196,1.3106591324806214,1.3108097417354583
197,1.3106591806809107,1.3108112308979034
198,1.3106590615113576,1.310810128927231
199,1.3106591965754826,1.3108102025985717
200,1.3106591279109319,1.3108108366727829
201,1.3106591225067774,1.3108120714426041
202,1.3106597267786662,1.3108121358156204
203,1.3106592335303624,1.3108097480535508
204,1.3106591237783431,1.3108094722032546
205,1.3106591623624166,1.3108099250793457
206,1.3106591227849325,1.3108097792863846
207,1.3106591416200002,1.3108094824552536
208,1.3106591612497966,1.3108111847639083
209,1.3106591572761537,1.3108098162412642
210,1.3106591724554697,1.3108103083372116
211,1.3106591297388077,1.3108101106882095
212,1.3106591381231945,1.3108109781742097
213,1.3106591232220333,1.3108122011423111
214,1.3106590920686723,1.3108107701539993
215,1.310659026503563,1.3108107863664626
216,1.3106591568787893,1.3108106684684753
217,1.3106604723532995,1.3108094831705093
218,1.3106590303182601,1.3108116054534913
219,1.3106590073903401,1.3108121814727782
220,1.3106590635379156,1.3108098603487015
221,1.3106591792106628,1.3108101000785828
222,1.310659106572469,1.3108099685907364
223,1.310659087697665,1.3108121736049652
224,1.3106589957873027,1.3108105367422105
225,1.3106590330203374,1.3108122880458832
226,1.310658964951833,1.3108098305463791
227,1.3106589996417364,1.310810406923294
228,1.3106589683294296,1.3108111025094986
229,1.310659242272377,1.3108091477155686
230,1.3106590369939803,1.3108109101057053
231,1.3106589459578195,1.310810392141342
232,1.3106589305003484,1.3108113532066346
233,1.310659066438675,1.310813180565834
234,1.3106589381694793,1.3108110446929933
235,1.3106588985919951,1.310811154484749
236,1.310659019311269,1.3108095903396606
237,1.3106588578224183,1.3108104432821275
238,1.3106588584184646,1.3108095695972444
239,1.310659034371376,1.3108102682828904
240,1.3106588271458943,1.3108099200725556
241,1.310658831556638,1.31081185734272
242,1.310659083088239,1.3108104712963105
243,1.3106588976780573,1.3108112032413484
244,1.31065911090374,1.3108129476308823
245,1.3106589139302571,1.3108119605779647
246,1.3106588673591615,1.310809720993042
247,1.3106588371992112,1.310810173869133
248,1.3106588506698609,1.310810379266739
249,1.310658902168274,1.3108100484609604
250,1.3106588661670684,1.3108114827871322
251,1.3106589173873266,1.310810496687889
252,1.3106588447888692,1.3108117649555207
253,1.31065880215168,1.3108102329969407
254,1.3106588896512985,1.3108122531175614
255,1.3106588793992997,1.3108103467226029
256,1.3106589142084122,1.310810738801956
257,1.3106587986151377,1.3108133982419967
258,1.31065889163812,1.3108097596168518
259,1.3106588106155395,1.3108099625110625
260,1.3106587243874868,1.310810893058777
261,1.310659015337626,1.310809783577919
262,1.3106587858597438,1.3108098108768462
263,1.3106587400436402,1.3108126534223556
264,1.3106587687333424,1.3108113391399383
265,1.3106587781906127,1.3108106931447983
266,1.3106587838729222,1.310809758067131
267,1.3106588331460953,1.3108105098009109
268,1.3106587393283844,1.3108123404979706
269,1.3106587941646577,1.3108096463680268
270,1.3106587926546733,1.3108102260828018
271,1.310658805847168,1.3108115595579148
272,1.3106587447325388,1.3108099610805513
273,1.310658874988556,1.3108125997781754
274,1.3106588217020034,1.310812507748604
275,1.3106588209867478,1.3108100886344909
276,1.310658695936203,1.3108103028535842
277,1.3106589514017104,1.3108094043731688
278,1.3106587142149608,1.3108096461296082
279,1.3106587628126145,1.3108122874498367
280,1.310658758600553,1.3108129309415817
281,1.3106586987574895,1.310812009334564
282,1.310658821105957,1.3108107368946076
283,1.3106586164633434,1.3108134984970092
284,1.3106588280995688,1.3108095667362214
285,1.3106587813695272,1.3108099873065948
286,1.3106588924328486,1.310810197710991
287,1.3106585956811905,1.3108103748559952
288,1.3106588230927785,1.3108110741376877
289,1.3106587093273798,1.3108128308057785
290,1.310658725698789,1.3108099197149277
291,1.3106586821873982,1.3108098423480987
292,1.3106586763858794,1.3108106400966644
293,1.3106587719519933,1.3108104621171952
294,1.310658689936002,1.3108096575737
295,1.3106587145725885,1.3108110847473144
296,1.310658715168635,1.3108119188547134
297,1.3106587114731472,1.3108126322031022
298,1.3106588125626246,1.3108108851909637
299,1.3106586709022523,1.3108100538253784
300,1.3106611117124558,1.3108095721006394
301,1.3106586989959081,1.3108100528717042
302,1.3106586410601935,1.3108103089332581
303,1.3106587054729462,1.3108101592063903
304,1.3106586724122364,1.3108107044696808
305,1.310658638715744,1.3108098340034484
306,1.3106586936712266,1.3108099385499954
307,1.3106587359905242,1.3108118498325347
308,1.310658757885297,1.3108100726604461
309,1.3106587033669155,1.3108115993738174
310,1.3106586244901022,1.310812517762184
311,1.3106586351394653,1.310812040090561
312,1.3106586456298828,1.3108102843761444
313,1.3106586292584737,1.3108104703426362
314,1.3106587777137757,1.3108104699850083
315,1.3106587057511012,1.3108099281787873
