epoch,loss,val_loss
0,0.9252252547000293,0.18034266727007411
1,0.09148121616237158,0.07088586849380293
2,0.07314335192748316,0.07083018952550099
3,0.07313293326881716,0.07083118761325405
4,0.07313394153996217,0.07082498076599203
5,0.07313543691443768,0.07082159623249894
6,0.07314098160191952,0.07081537510646811
7,0.053019382870846316,0.03928595491581493
8,0.03927642045269688,0.03623518417230585
9,0.03414538384730621,0.027580853196620844
10,0.025326839471467025,0.02310801971332145
11,0.02389189864458849,0.022598388531552712
12,0.023692088792200465,0.022512216938225988
13,0.023763670145367698,0.022519379435749144
14,0.023642825016422307,0.022504588475772642
15,0.023504669587907073,0.022394349665621965
16,0.02347141702482708,0.022745866527885125
17,0.023498903253109004,0.022345723469484075
18,0.023496232615161934,0.022380845426352936
19,0.02346687005002132,0.022308962389415876
20,0.023419446509489544,0.02244608894304734
21,0.02337136975019049,0.022290486778946107
22,0.02333285236019817,0.022233686715799526
23,0.023401076749587555,0.02219390081784054
24,0.023364832535314503,0.022281946792642664
25,0.023362987421995836,0.02215354350476321
26,0.023292256446124267,0.022213013943916206
27,0.02338631413847184,0.022174301402400107
28,0.023311673835802786,0.022224880339515855
29,0.023377529358128913,0.022223051184212785
30,0.02336652794207116,0.022229947861274954
31,0.023149729969563056,0.022189872025150357
32,0.023311195987536965,0.02226170892498644
33,0.02322970678786739,0.022221916686782774
34,0.023263158574938964,0.022362803810692278
35,0.023283477918840677,0.022270747125813464
36,0.023264013564853882,0.0221839073232684
37,0.023205931109784125,0.022119353151451932
38,0.023222448140251532,0.022098491062007584
39,0.023206041569562793,0.02210350890114408
40,0.023331599921477233,0.022124382658934846
41,0.023166726845159257,0.022170258057511442
42,0.023152496085596906,0.02220508237637501
43,0.023139802688319652,0.022146390541022326
44,0.023085507415861392,0.02206966147847951
45,0.023183635808080076,0.02214333013648776
46,0.023010285252077375,0.021971488249127882
47,0.023082357265347478,0.022022840706669308
48,0.02304554309657185,0.021995272357485107
49,0.023035762109775083,0.022130702283091403
50,0.022970202203699833,0.022272508713777048
51,0.023020737050615664,0.021989389781183765
52,0.022932160769502004,0.022025503352622818
53,0.022937573513405335,0.021935637155056774
54,0.023061330102867275,0.021919064306852688
55,0.02300070406193491,0.021911411388306625
56,0.023030562204024715,0.02190537684705087
57,0.023111214832938893,0.021931709159718524
58,0.022936492442512054,0.021988904828754076
59,0.022923849663250537,0.02191333740417878
60,0.022910022322204803,0.021842104237034178
61,0.022911595499770846,0.02186411934310309
62,0.0229544593162948,0.021873322473378174
63,0.02293341545115193,0.021993225026461814
64,0.022931281028328847,0.02189997207322018
65,0.022907203573396533,0.0218253944096339
66,0.022893296129661525,0.022246050141564444
67,0.02285709811614646,0.02191633769044379
68,0.022804215748766787,0.021816496759205935
69,0.02282834178011259,0.021917489126916833
70,0.022840570234913555,0.021788059128788267
71,0.02299524071791155,0.021852670365828185
72,0.022821971990042825,0.021814778383703416
73,0.0228431513585192,0.02181043496562375
74,0.022789843997853197,0.02176427388894587
75,0.022839747361832852,0.021876101795242554
76,0.0228375536445573,0.021767758331522166
77,0.022939256581069947,0.021765205309713456
78,0.022787613697272478,0.021774092717103764
79,0.02277573366150606,0.02199086308515565
80,0.022905097291577425,0.021769927084953535
81,0.02264978627326061,0.02167393501609298
82,0.022715763049461157,0.021715347157354677
83,0.022725407597873573,0.02170961746902168
84,0.022728268880310584,0.021909353073266396
85,0.022715328086773047,0.02174190054772254
86,0.022714826496865292,0.021736139247295148
87,0.022652951903563676,0.021610474794051652
88,0.022677100429816948,0.02164823449211496
89,0.022552619756067437,0.021551989257601538
90,0.02255434697841386,0.02156270205346144
91,0.022569651092835864,0.0215242269803186
92,0.022563850091064902,0.021606837758085928
93,0.022633354840956754,0.021857357820358494
94,0.02256638437712355,0.021561529312134755
95,0.022488173418003524,0.021460820956265936
96,0.022547764253256032,0.021423112821598315
97,0.022571832244340374,0.02192895029673756
98,0.022431958629320965,0.021441184227496073
99,0.022402865129162827,0.021358848976187367
100,0.022328625511440686,0.02129753073564121
101,0.02232681355738134,0.021383114282981418
102,0.022294426848403544,0.021233598132891957
103,0.022204261241828182,0.021256438643042382
104,0.022157122423533824,0.021185458040307522
105,0.022134921221946886,0.021023794833422673
106,0.02197108116952346,0.020913178699403782
107,0.021811653522131824,0.020768773978438595
108,0.02173263053025743,0.02066692740589211
109,0.021421824400727037,0.020530952846167634
110,0.021225493047848713,0.020418557444918186
111,0.02092675554802458,0.01967417791377019
112,0.020433512682600723,0.01967252766606243
113,0.01989424296373649,0.018821333686837024
114,0.019392279836478187,0.018367147651732887
115,0.01907474471194993,0.018079543907711975
116,0.018811427910563897,0.01824543933593347
117,0.018650855735582623,0.017811675072592494
118,0.01840682740168895,0.017405496561251708
119,0.01810146985594944,0.01896595926947789
120,0.018134384200549584,0.01724837574162139
121,0.01806606299089517,0.01769032742184589
122,0.01802589608545753,0.017040737242183353
123,0.01801989676193703,0.017022835772064576
124,0.017762187211435018,0.01700253374209901
125,0.017868789516872555,0.017032798789048814
126,0.017756812589122258,0.016915758311845188
127,0.01766132590419846,0.01678085858145818
128,0.01760808952090094,0.017222204692027284
129,0.01759332076559146,0.016716881661199258
130,0.017575506193994332,0.01668947320038699
131,0.01764293636879127,0.016591344459249736
132,0.017570208790178916,0.016856915552383597
133,0.0174691937498456,0.01662921998045571
134,0.017487955209556774,0.016565753065430334
135,0.01743604093297922,0.016553347202173503
136,0.017370288349013982,0.016495229340243757
137,0.01744021177948046,0.016464032225208078
138,0.017432440486881997,0.016637179591154433
139,0.017361374373575322,0.01639227673792056
140,0.017296614565307185,0.016487221358176277
141,0.017290465890901913,0.016582676337160235
142,0.01726731722182732,0.016571826633105215
143,0.017211354195212632,0.01658560116741344
144,0.017250098641499508,0.016319519840936204
145,0.017247970077284486,0.016855493753646943
146,0.017134656298240486,0.016660291250622912
147,0.017100528713235193,0.017101459673455548
148,0.016998299414678227,0.016259767868936015
149,0.01704644756071013,0.016303165909431615
150,0.017127574259658353,0.01635474414660596
151,0.01695917341619539,0.016320330939057003
152,0.016903671676112567,0.01629466786436791
153,0.01685569569352176,0.01611835280597959
154,0.016977268636518952,0.016063321709620788
155,0.016896272388348777,0.016198858191219172
156,0.01683933769924651,0.016017295027397942
157,0.016861108103371842,0.01639338228957303
158,0.01689115660958547,0.016271104908488626
159,0.01690648541113942,0.016291554964359755
160,0.016879824531511416,0.01617932209211786
161,0.016781450926309064,0.015982252644603078
162,0.01669502937517541,0.01599011066258679
163,0.01682496457334587,0.01598267465986958
164,0.016766178793757795,0.016206513387086858
165,0.016699586570668546,0.016023585986759927
166,0.016686246365016463,0.015957964380292126
167,0.01667069323104415,0.015888865740285446
168,0.01677151411187181,0.015867046671198183
169,0.0166032185026402,0.016485830552918294
170,0.01681240062095863,0.01619041178886086
171,0.01662556500397056,0.015889728627645767
172,0.016477925575422565,0.015752133914093514
173,0.01663321130472818,0.01571924255561123
174,0.01655748597323131,0.01579724988973392
175,0.016554929504694463,0.016014338783702276
176,0.016526502978393705,0.015663122747694682
177,0.016478528575099308,0.016143030025493974
178,0.016412772944389437,0.015647728048984056
179,0.016445685144487,0.0156366370258806
180,0.016392463466989173,0.015665840738983968
181,0.016431994556491854,0.01554868533597037
182,0.01626973585326305,0.01563118292594333
183,0.016369137773551257,0.015426896932472182
184,0.016286349932911445,0.01539197244544703
185,0.01627942823914526,0.015522056794744242
186,0.016224552778075274,0.015379992832595125
187,0.016231441665276753,0.015295290564158924
188,0.01628634829545398,0.015465639518771777
189,0.016173016796674464,0.015308460953365181
190,0.01620789969770955,0.015301932387404439
191,0.01610689356198327,0.015331048050869652
192,0.01602339100769704,0.015280167408293568
193,0.018377689691670567,0.018450519935638076
194,0.02001552501047631,0.018184909941469957
195,0.01768562523759991,0.01701945790058698
196,0.01677175490386945,0.015744282197077297
197,0.016419873038251653,0.015625092847497843
198,0.016070832115105144,0.015297990392014347
199,0.016008493407749482,0.015247538114768745
200,0.01591730190946566,0.015090073187686714
201,0.015807391360575098,0.014991913107129393
202,0.015924093206140928,0.015352175600482309
203,0.01617884313131424,0.015553189792035077
204,0.016564657189118995,0.01594207025399705
205,0.016700614659075408,0.01687851929032551
206,0.016755748135272603,0.0158097992348277
207,0.016739365357675964,0.01590114160737707
208,0.01661826547733348,0.015949562396657777
209,0.016572339865144153,0.01587784916331685
210,0.01645497448691685,0.015766733988442753
211,0.016484578935693415,0.015786462745176807
212,0.016547050269647205,0.01572520242564362
213,0.01641412497422784,0.015669659233296294
214,0.01650806741522039,0.01569484821116644
215,0.016569254460563367,0.015695558474924105
216,0.016452082630404957,0.015806575668318574
217,0.01653274747314121,0.016538664333776112
218,0.016615144521433464,0.015699546585510586
219,0.016459310120844048,0.015749408205591946
220,0.016524647546706912,0.015928456836228243
221,0.016511368234190728,0.015836126276043402
222,0.016719660882035,0.01621104316183178
223,0.016746712803059192,0.016179983542638395
224,0.017291153258412146,0.016862914093074426
225,0.017391353873185533,0.016540301995410827
226,0.0173363516307037,0.016943272677554605
227,0.01764308973726294,0.017013350776596853
228,0.01755496404030091,0.017765794630673775
229,0.01775449873272589,0.01692000482252528
230,0.01771173700302529,0.01696404262724584
231,0.01778087672442675,0.01701687126807923
232,0.017887138677321023,0.017214399183113113
233,0.01791656428308273,0.017220732391889707
234,0.01797167704648691,0.017342624927524232
235,0.018105604696282154,0.01792423445988214
236,0.01799577948979562,0.017350166434058067
237,0.01804305651293004,0.01731970435082429
238,0.017999207520420498,0.017318593489198016
239,0.018046157392826053,0.017304887780609984
240,0.01815977384126764,0.01733460287289318
241,0.01824270444195136,0.017455445755112972
242,0.018242510592638015,0.017506152294751404
243,0.018166781465759316,0.01731062614693573
244,0.018160833706490225,0.017341902006692455
245,0.01831900627927197,0.017417306509488303
246,0.01837688962816357,0.0176070572050033
247,0.018423993175504826,0.017688111846984062
248,0.018735610992551516,0.017888503720181703
249,0.018962878361046074,0.018448335626929248
250,0.019675180693272593,0.018715821404466277
251,0.019702598675518775,0.01900707746932203
252,0.020008052883444545,0.019020111491149842
253,0.019980735899366026,0.01924553038272931
254,0.01998628371412321,0.019246253765823392
255,0.02013124459780293,0.019327237501148276
256,0.020058310137326427,0.019076760802402885
257,0.020113318876696644,0.01913612513271948
258,0.020112179367362357,0.019682602595843056
259,0.020284460486920237,0.019086116631813678
260,0.020034484887380806,0.01937872045714973
261,0.0201023115893547,0.019273131038912022
262,0.020099360501770976,0.019254796306654776
263,0.020118752835964183,0.019136162521581967
264,0.020063560500031143,0.01957513791843584
265,0.020178900087614648,0.01939459589354555
266,0.020321616330284707,0.01920503630043768
267,0.02005250116450797,0.019493852919518995
268,0.020269952419163993,0.01937021648651782
269,0.020198495321876533,0.01924736591453293
270,0.020092943498344302,0.019253716029873344
271,0.020324392876534866,0.0195733276056088
272,0.020170771372948197,0.01936786927264682
273,0.0201173469594257,0.019282698963632064
274,0.020204051924918632,0.01925258675026681
275,0.020271561017559708,0.01956025780075126
276,0.02028917738372942,0.01930256880402855
277,0.020235741275360434,0.01918071611887879
278,0.02022234428140094,0.01933684494476297
279,0.020235611946046877,0.019369367914937517
280,0.020167500284717407,0.019315089181440204
281,0.020147977602646482,0.019234070777953492
282,0.020100455343413103,0.01917581431362219
283,0.020113202084819252,0.020157748798553476
284,0.019927365633788063,0.019294209025999636
285,0.019948396230753274,0.019011311222469043
286,0.01981864663346516,0.018872444838925966
287,0.01979352152489537,0.018973483438909488
288,0.019746762939734017,0.018946400125241337
289,0.01966051660251436,0.018915031525243712
290,0.01959821732462741,0.01925393090933102
291,0.019703877943637278,0.019007959601749565
292,0.019587745582811636,0.018932177501655843
293,0.01946938995367365,0.018587501535293347
294,0.019546097283176272,0.01864753049456145
295,0.01944693486490328,0.01870342656752489
296,0.019436908082766616,0.018492583697548456
297,0.01944545764264295,0.018728460411073615
298,0.019261522470616264,0.018379227319446793
299,0.01926892069731358,0.018495004299336204
300,0.019185638221486317,0.01823928199907869
301,0.019249862256803637,0.018734779914377282
302,0.0191587866459182,0.01824361527004768
303,0.019093983096806547,0.01828691198974727
304,0.019062556002775222,0.018251417435868812
305,0.01919236067709348,0.018262571165004304
306,0.01907438487768937,0.01817822103696027
307,0.01918453043155235,0.01825464851187432
308,0.019026082143294896,0.01831951804779355
309,0.01900386739987507,0.01802760521546671
310,0.01903382731263069,0.018452123538662723
311,0.01886768562956344,0.018305687804835557
312,0.01888773076719432,0.017900425392382045
313,0.01883200253900573,0.017797331259996062
314,0.01875687335014606,0.01784148333867633
315,0.018807431874577524,0.01798858102154219
316,0.018607733915116283,0.017831592413461606
317,0.018548380166703793,0.01763682204939951
318,0.018394682690608587,0.01772987449787926
319,0.018386157680663755,0.01756992279752086
320,0.0182503658355034,0.017623006628292998
321,0.018058507751712236,0.01747166838221983
322,0.0180287878323582,0.01726641036896375
323,0.017971327451555084,0.017106292288922624
324,0.017961297976114066,0.017054539133053628
325,0.017759938484983886,0.01697771866342834
326,0.01782099734186482,0.017013685067772674
327,0.017861350817535763,0.017013365195101823
328,0.017775051808021993,0.01688524684585504
329,0.01760573781358661,0.016805615895469306
330,0.017598709875972774,0.017169633497305017
331,0.01759407420779129,0.017380799685770287
332,0.017718416533535057,0.016755045716411343
333,0.01753567986628764,0.016737493025463766
334,0.01752534127004558,0.01675388314787658
335,0.01748535735719055,0.016785605485035167
336,0.01741206733132597,0.016599135493009145
337,0.017475664632035506,0.017133119297784126
338,0.017470171301513075,0.01743162804663133
339,0.017499709733015446,0.016795561631532674
340,0.017323102925816854,0.01657970797267515
341,0.01733161182216614,0.01675937645324632
342,0.017307777423784435,0.01641179537075811
343,0.017371671409267868,0.016764046556323114
344,0.017282792234314594,0.016753978296111294
345,0.017352445573032237,0.01678349470171325
346,0.017367487169319004,0.01640741664852829
347,0.0172005565404546,0.01633792460517654
348,0.01722905659202555,0.01647364516083124
349,0.017252231766883615,0.016397039444523427
350,0.017125624627191083,0.01653136765782246
351,0.017257291636466263,0.01665112688013527
352,0.017242151334899678,0.01645882908837977
353,0.017214042653558588,0.01638744630989077
354,0.01722340654653368,0.016390232043756232
355,0.01729596358052104,0.016646897625737043
356,0.01726087397881586,0.016361411273425077
357,0.017150813925435677,0.016575508031145113
358,0.017196369305956926,0.01633129335806946
359,0.01718857507702348,0.016307879416823434
360,0.017077580800472354,0.016279189098121816
361,0.017291250332199734,0.016370097303646712
362,0.017148527579965163,0.016350398169466374
363,0.01720409775175172,0.016491939054631356
364,0.017191308824191863,0.01651253815534897
365,0.01718210418066614,0.01624081352467302
366,0.017102155438493832,0.01630392774111695
367,0.017150274292976737,0.016275381521357334
368,0.017085239505193965,0.01625420138865274
369,0.0170500467451598,0.01624893820984327
370,0.017133142122084662,0.016201053201451307
371,0.01690796816168283,0.016217768117513534
372,0.017134646803820677,0.016247537364731546
373,0.016995141264036284,0.016237249924965197
374,0.01701968318944554,0.016156074847038064
375,0.017113252204385778,0.01651521023764711
376,0.017072535081176732,0.0162816888351365
377,0.016986288663426382,0.01617639176532421
378,0.016977746443773766,0.016231389960994685
379,0.01689339835223577,0.01651740497444958
380,0.017000858790522294,0.01620084529142866
381,0.016975041710770876,0.01610980890857453
382,0.016994964080848534,0.016238693469668535
383,0.016915290846114307,0.016099988783514076
384,0.016837855965775955,0.016048411072049795
385,0.016923281824211774,0.016167380450488298
386,0.016984341569912968,0.016291257451739333
387,0.0169601089189096,0.016310745341112626
388,0.016897418782311834,0.01635329740307772
389,0.01689587558453397,0.016612250419803392
390,0.016829532111068073,0.01634498748895074
391,0.016878086984831633,0.016757188540100085
392,0.017030344096372566,0.016176479242421802
393,0.017037109137804294,0.016526867675580634
394,0.01704496221081484,0.01612627791166789
395,0.01688421556981112,0.016145799706319144
396,0.016923892110425106,0.01615745417882491
397,0.017010036991645185,0.01616620949929503
398,0.017073105050592396,0.01619180904313112
399,0.01694612895653809,0.016371130186457125
400,0.01706992089972079,0.01613334795295443
401,0.016934538392083132,0.016244318870267102
402,0.017072730487416848,0.016611287457942478
403,0.01693375556289052,0.016173746938373822
404,0.017089334936190644,0.01645751492802389
405,0.016980657031128797,0.016312624470595897
406,0.016920041661259173,0.01612932000170248
407,0.016970023575475255,0.01628395056220592
408,0.017047128800430997,0.016089999029338845
409,0.016928874006162317,0.016212219557447685
410,0.01700886224491225,0.016053182379601693
411,0.016987819891956874,0.016458807931570917
412,0.016944720866151147,0.016080495117372695
413,0.016950634118017432,0.016137442967740386
414,0.016936629954680763,0.0161269879911249
415,0.017114794307542716,0.016342209769897798
416,0.016902680908463256,0.016203257296799358
417,0.01707146174719541,0.01607636355138584
418,0.01693792030397203,0.01608577334312216
419,0.016939075475780843,0.01605937294420293
420,0.016880300658806455,0.01609448319193752
421,0.0168669224941165,0.016125422849532122
422,0.017008830510598837,0.016108269391570843
423,0.01700720666356689,0.016219559198113978
424,0.016857303116765854,0.016050711750760616
425,0.016885899677663876,0.016065076754911103
426,0.01680966047234565,0.016295144388819262
427,0.016919566787409485,0.01609776816984211
428,0.016929769256205155,0.01621696290115177
429,0.016855280931361967,0.01622730910487999
430,0.01705059332562815,0.016390673902311755
431,0.0169074227153551,0.016130975696098872
432,0.01686377113787912,0.016299806475572873
433,0.017088374322812686,0.01604644689838865
434,0.016943835294704803,0.01627575493714525
435,0.016952471457141415,0.016053011733056663
436,0.016883100459040453,0.016014118634303316
437,0.01685960644377385,0.016035949671603225
438,0.016963526209871516,0.016304175392856758
439,0.01701588953082398,0.016082332337340105
440,0.01680239397000441,0.016111825047467214
441,0.016907631751415346,0.016068115946742352
442,0.016840071868512323,0.016021552383114146
443,0.01686948685838973,0.01605498106789149
444,0.016908664378621655,0.016110751858707712
445,0.016948596997897896,0.016261421891785886
446,0.017022754210349413,0.016044057703245393
447,0.01685944300150876,0.016038357967545564
448,0.01680311047023921,0.016009406342993686
449,0.016987419384475753,0.016133276677697244
450,0.017009458076611483,0.01632178647765423
451,0.01688932706180623,0.016017262298924983
452,0.01688853955885069,0.01610851203697973
453,0.01677087727513573,0.01600118308643065
454,0.016841747373002494,0.01607238617933386
455,0.016841605014866406,0.01617492927239856
456,0.017024345214279583,0.01608196822797996
457,0.016850167490971433,0.0161926139112855
458,0.016814467219786466,0.016024933212466192
459,0.01682148618270174,0.01598772235571226
460,0.016956288838017884,0.01600609165491704
461,0.01690813158083263,0.016137999079861683
462,0.016916814016355718,0.015954835536766614
463,0.016860384761756234,0.01605849428629595
464,0.01678160791195112,0.015989045217476138
465,0.01678972473640958,0.01609935361169889
466,0.016838212828603004,0.016000362904704593
467,0.016780362175919227,0.016127582582050673
468,0.016883818626558904,0.01639041655363828
469,0.01688389501737966,0.0160188183667318
470,0.016962197332607926,0.015978436696510053
471,0.016835962598166578,0.016088051963914773
472,0.016815392941749507,0.016420330003278583
473,0.016939284995770913,0.016152236005631242
474,0.016909177183919998,0.016258444188393815
475,0.01692403257236159,0.015979025560519555
476,0.016839430870278012,0.01655639426757046
477,0.01685058667933683,0.015989422486205218
478,0.016840804986405174,0.01606238785215683
479,0.016847174680285494,0.015965208645369208
480,0.016968958498127133,0.016460200416684053
481,0.016903511346209706,0.015975316445624936
482,0.016763085717137,0.01625127192142526
483,0.01686043822817248,0.016104834886918877
484,0.01687165059364014,0.01607400622741536
485,0.016864417864231943,0.016010708408241387
486,0.017083170523254084,0.016056682107047103
487,0.01679965256794607,0.016006631016827946
488,0.016937289500327184,0.01598800155232205
489,0.016722147328386887,0.01598126279826171
490,0.016670638479865055,0.015998037701921305
491,0.016835996892312178,0.016032240682093475
492,0.016719146620473257,0.015947516996259382
493,0.01687463758449205,0.016191225260230264
494,0.01678870059326112,0.015963081093708965
495,0.01683272605238436,0.015993195355530686
496,0.016783793075822943,0.015910675078449166
497,0.016795984888412028,0.015976463151462707
498,0.016814532595797717,0.016258555371540886
499,0.016793089980681578,0.01595818832296114
500,0.01684699599982334,0.015897347913588194
501,0.016753037626429306,0.01619245253038039
502,0.01677987691882947,0.016126384951071535
503,0.016702762943617194,0.01638673416460469
504,0.016788976524976656,0.0159235004303918
505,0.016925424002588178,0.016018950955191475
506,0.016707099267274882,0.015948608499518856
507,0.016805929425593804,0.015978880013608875
508,0.01677624586883118,0.016225647269646183
509,0.0167798979186995,0.015961129710815442
510,0.016691374066796563,0.016329363487745482
511,0.01679038795887875,0.016164560996400856
512,0.016871098415542834,0.016018883654483673
513,0.016685789541227278,0.015847387370885337
514,0.016837366799964868,0.015914138613475695
515,0.016659981106595098,0.016159204896071144
516,0.016808961536004554,0.015965559112704197
517,0.016827667419842665,0.016213873220004886
518,0.016761120230561977,0.016081031247224153
519,0.01675054304573157,0.01597203208180409
520,0.016701032963840127,0.01609045851579886
521,0.016833408859471162,0.015897206656955067
522,0.01682436505736734,0.016536854923569082
523,0.016854645478560793,0.015923042570913794
524,0.01681261479532461,0.01607852008810081
525,0.016757699631130676,0.015952069666584093
526,0.016762134504226374,0.015871767395018128
527,0.016693157097660272,0.01598932658112929
528,0.01683985235525953,0.015989640834896138
529,0.016791571175502097,0.015890497714281082
530,0.0167373673836764,0.015956250624391283
531,0.016868348137957987,0.015876578307572362
532,0.016735016759052528,0.015911448490107245
533,0.016774645049104076,0.016057592457868853
534,0.016895174967487447,0.015904138350386447
535,0.01680057694922217,0.015866195264862305
536,0.0168647469491888,0.01602019162566098
537,0.016828247348220946,0.015979500498776743
538,0.016702790400855917,0.015921675556302313
539,0.01682177582775072,0.01605734355001433
540,0.016850738857743786,0.01585549088187413
541,0.016887095510762774,0.015964358449828207
542,0.01685033920403716,0.01586490782810147
543,0.01669636309919379,0.015866653883447514
544,0.01688624412534211,0.016651910021961557
545,0.01678157398019365,0.01593463332524458
546,0.016820837050867232,0.015859080492144954
547,0.016766405789654337,0.015928840228422135
548,0.016688460567660386,0.015979382720838594
549,0.016781438005606445,0.01589614192034448
550,0.016827629497341866,0.01584729092272674
551,0.016761838629979004,0.01607610818394441
552,0.016699506131689055,0.015842829283329887
553,0.016740677189275778,0.01589203915964368
554,0.01661157466879814,0.015974316883466635
555,0.016841653831380667,0.01595818483106798
556,0.016801832433196426,0.015911809681625456
557,0.016790781797970934,0.01600793227311662
558,0.016758684251603602,0.015997998903612004
559,0.016723404880061306,0.015852030399893708
560,0.01671414587309687,0.015835549936169837
561,0.016703245760925155,0.015908517583975053
562,0.016663077314965146,0.015923276584405097
563,0.0168102854606304,0.01639785121790974
564,0.016790307903165717,0.01582325809912428
565,0.016675012254769847,0.015930826133698683
566,0.016834269955551463,0.016142767338144133
567,0.01689660455211341,0.015928261411064345
568,0.016674015125195632,0.015957412260848142
569,0.01682363235107582,0.016318967691279
570,0.01670352107747566,0.015925147467189364
571,0.016759225101716478,0.01606379534946475
572,0.01676545046073041,0.015884507294904385
573,0.01682608976760347,0.01600613363769996
574,0.016723672745285557,0.0158901468466209
575,0.016706102666369765,0.015884528549150876
576,0.01674971515215856,0.01588338487445462
577,0.01687583590882291,0.0158470343339158
578,0.01670407542319084,0.01584150375675981
579,0.016718139751158875,0.015861565271348656
