epoch,loss,val_loss
0,0.07122569336028149,0.016074979320168496
1,0.017279803975795704,0.016549520255066456
2,0.01606752190925181,0.014570879529230297
3,0.012641473651708415,0.010812380453571677
4,0.012638627178035676,0.01118705295305699
5,0.010165655555358777,0.009598743838258088
6,0.009990552753365288,0.009519210660364479
7,0.009910052609009047,0.009435646135360003
8,0.00983621592524772,0.009368367223534733
9,0.009785452959127723,0.009342719744890928
10,0.00977427356938521,0.009287348759826272
11,0.009685896525004258,0.009231465314980597
12,0.009665063959235946,0.009250297675374896
13,0.009717999069485813,0.009268663460388779
14,0.00968606699273611,0.009260085436049849
15,0.00967169262499859,0.009184593448415398
16,0.009677931147161872,0.009266766449902207
17,0.009696149807112912,0.009196792251430452
18,0.009613009402062745,0.009158718935213982
19,0.009583056793703387,0.009222245194017887
20,0.009558444875913362,0.00910782392323017
21,0.009538216394061844,0.009088967541232704
22,0.009529114505276083,0.009086860474199057
23,0.009525339344982058,0.009097817977890372
24,0.009519484480998168,0.009108896306250244
25,0.009512856268013518,0.009063554300460965
26,0.009478444912315656,0.009053105582017452
27,0.009521019408479332,0.009056804823223501
28,0.009499679024331272,0.009041566300205887
29,0.009512731409010787,0.009099601446185261
30,0.009535050205731144,0.009077549535781146
31,0.009508038205560296,0.009042683152947574
32,0.00953980496370544,0.009057807148899883
33,0.009489356903048854,0.009030633680988102
34,0.009451147640279184,0.009018734889104962
35,0.009516097652415435,0.009045707445591689
36,0.009485318099769453,0.009028576833661645
37,0.009469282064742098,0.009016730683855712
38,0.009457553793831418,0.009015468911733479
39,0.009472373894726237,0.009035602276679128
40,0.009549528241002312,0.009098571027163415
41,0.009529862713844825,0.009090172208845615
42,0.009528981475314746,0.009073815890587866
43,0.009492316818796098,0.009041682595387101
44,0.009476791863329708,0.009011152759194374
45,0.009451965150578568,0.00901967054978013
46,0.00959686733254542,0.009696808480657636
47,0.01429179899689431,0.015213356751017272
48,0.015584424519600968,0.01532393910549581
49,0.01562556445474426,0.015055413865484297
50,0.015195107396692038,0.014718342335894703
51,0.015101649829186499,0.014548755041323603
52,0.014947323933864633,0.014837999598123134
53,0.016592800803482532,0.016173508219420908
54,0.015896666937197247,0.015156952444463969
55,0.015476950620611508,0.014782568606548011
56,0.015105691133067011,0.014401358232833445
57,0.014743246421528359,0.014023714059963822
58,0.014452641838230192,0.013782280568964779
59,0.014210037926832834,0.013705111721530557
60,0.014442012753958504,0.014005425457842648
61,0.014359857130174836,0.013746481945738196
62,0.014205638028991718,0.01354869141895324
63,0.014078369268216193,0.013462126760743558
64,0.013972474451176822,0.01336906645912677
65,0.01396751605377843,0.013540475875139237
66,0.013943983755384881,0.013335963582620024
67,0.013885516499479611,0.013340185324661434
68,0.013860333109584948,0.01328656580299139
69,0.013844279431427518,0.01325250492617488
70,0.013841492183196047,0.013462962185032666
71,0.013779476899653673,0.01326403067074716
72,0.01364580572458605,0.013148884356953204
73,0.013601532688364386,0.01301318897586316
74,0.01349647567141801,0.012966550266370178
75,0.013541693951624136,0.013802538316696882
76,0.014151369029966493,0.01338257802836597
77,0.013804216362846395,0.013219094135798514
78,0.013554010099731386,0.013008281928487122
79,0.01344907347454379,0.01291564916819334
80,0.013564387237032254,0.013204247488640249
81,0.013522489347184698,0.01293906188942492
82,0.013371120740038654,0.012867784518748522
83,0.01330332287463049,0.012757628807798028
84,0.013221976920962334,0.012762735116295516
85,0.01315737545893838,0.012713705845177174
86,0.013021035945042968,0.012578435481525957
87,0.012901672310506304,0.01241873977240175
88,0.012783121727096537,0.012228830454871059
89,0.012276074403586487,0.011407873434945941
90,0.011932147815823555,0.011514761365950107
91,0.012119478138163687,0.011506672988645732
92,0.011986521741685768,0.011275466886349022
93,0.011714342187158763,0.011181258147582411
94,0.012232594127456347,0.01304536608979106
95,0.013574691405519843,0.01294106124062091
96,0.013096576871039966,0.012436150812543928
97,0.01268253464313845,0.012215674853883684
98,0.012451809692506989,0.011978262383490802
99,0.012158187100353341,0.011613482828252017
100,0.011955769362548987,0.011510830623097717
101,0.011827047511624793,0.011351917943451554
102,0.011710928175908825,0.011226460258476435
103,0.011601645109864573,0.011165707075502724
104,0.011535002121391396,0.011114047854207457
105,0.011488460049343606,0.011082662791479379
106,0.011500339653032522,0.011032481753267348
107,0.01150387893943116,0.011153125277720392
108,0.01170131397464623,0.011560028887353838
109,0.011766043660230934,0.010942208759021015
110,0.011067469088826328,0.0103709952426143
111,0.010563356585334987,0.010115706140641122
112,0.010307047563605011,0.009807837620843201
113,0.010126385464953879,0.009468086349312217
114,0.009996940278758606,0.009586942818015814
115,0.010021071179925154,0.009449418754782528
116,0.009918554284765074,0.009380568861961364
117,0.009837457097135485,0.00947088050795719
118,0.009796495840729525,0.009254077557474375
119,0.009760048154586306,0.009134529786650091
120,0.00959290983978038,0.00899811440333724
121,0.00941273020580411,0.00872288009012118
122,0.00917303972132504,0.0086974450009875
123,0.009066490104577194,0.008449213878717273
124,0.008896861424048741,0.008302962836809456
125,0.008721532075045009,0.008082855070475488
126,0.0086168628957433,0.00808499161573127
127,0.008691544412014385,0.008220232218969612
128,0.00890594836898769,0.008409294507931918
129,0.009071520283042143,0.008633586038835347
130,0.00910124728207787,0.008483621475286782
131,0.00892483734836181,0.008345123674720525
132,0.008723409085844954,0.00818201217846945
133,0.00847710156502823,0.00796438044961542
134,0.008322335730306805,0.007852813831996173
135,0.008290976007779439,0.007597624248825013
136,0.007823190107475966,0.007225417631212622
137,0.007586966253817082,0.007006185738835484
138,0.007388176208517204,0.0069511191979981955
139,0.0075761981752390664,0.00732323670340702
140,0.007668160007490466,0.007062937549315393
141,0.00749850912950933,0.0069722803896293045
142,0.007383454288666447,0.006955703951884061
143,0.007308907137562831,0.006900288465432823
144,0.0073171157663067185,0.0068705437784083185
145,0.00727362544927746,0.006932816795539111
146,0.007269712000930061,0.006821943234652281
147,0.007254117662087083,0.006800154429860413
148,0.0072634685741116605,0.006864185428246856
149,0.007267192322139938,0.006794710405636579
150,0.007263913029028723,0.006866855121683329
151,0.007268523114267737,0.006872254464309662
152,0.0073197019843695066,0.006946589679922908
153,0.007306218557059765,0.006933106396812946
154,0.007332065406565865,0.0069778925557620825
155,0.007360425741101305,0.0068775800992734734
156,0.007372582339060804,0.00708654273673892
157,0.0074131499792759615,0.0069882047157734635
158,0.007455128197558224,0.007042774591594934
159,0.007520341923460364,0.007167636076454073
160,0.007537950652496269,0.00706083609862253
161,0.007547234248214712,0.007174270272720605
162,0.0075849939704251785,0.007134454702958465
163,0.0075842731234927975,0.007175446530804038
164,0.00763091874634847,0.00720543651888147
165,0.007633696072114011,0.0071922677746042605
166,0.0076584465598377085,0.007253334286622703
167,0.007720116144201408,0.007251875373534858
168,0.00771166931030651,0.007329648198559881
169,0.007788473618682474,0.0073024525567889215
170,0.007794967755520095,0.007314428346697241
171,0.007808299236465245,0.00731396638834849
172,0.007797130261703084,0.007299458180554211
173,0.007806541265454143,0.007385684275999665
174,0.007832857489275435,0.0073211730401963
175,0.007974144450233629,0.007532193763181567
176,0.00812533233795936,0.007718314888887108
177,0.008335631382185966,0.007856209370307624
178,0.008454049198577802,0.008063067047856748
179,0.00859655833725507,0.00823810321651399
180,0.008784473631531,0.00851841238513589
181,0.008884162294523169,0.008513988382183015
182,0.008958659009852757,0.008741435815114528
183,0.009148495091591031,0.008969926523044706
184,0.009253043230623008,0.008938584083225579
185,0.00952190583680446,0.009235481310635806
186,0.009818058707285672,0.009379016081802548
187,0.009872336809212963,0.00952219351194799
188,0.009865696298268934,0.009705029493197799
189,0.009880638274829835,0.00936036869417876
190,0.009897806584990274,0.009450643948279321
191,0.009867764508041242,0.00950672643026337
192,0.009969521700249364,0.009443290914874523
193,0.010002249757759273,0.00973857265478
194,0.010082410969150564,0.009622775694355368
195,0.0100762592482691,0.009576855046674609
196,0.010118758376377324,0.00971577172819525
197,0.010170561014208943,0.009680880426894873
198,0.010232938931323588,0.009887893240433186
199,0.01024146103175978,0.009681246728170664
200,0.010229068822072198,0.00981242691585794
201,0.010281115688228358,0.009838368718978018
202,0.010267604645807296,0.009689142661169171
203,0.010276670136488975,0.009718211909756065
204,0.010243766486644745,0.009747571835294367
205,0.010031880759634078,0.008995718856807798
206,0.009368470359127969,0.008677662077825516
207,0.009118003387469799,0.00847962365904823
208,0.009044127712647121,0.008463994040619581
209,0.008985165514517576,0.008367487157694996
210,0.008941330710581194,0.008501771917100996
211,0.008954594655583303,0.008668748909141868
212,0.008955156451867272,0.008383560044690966
213,0.008939308129871886,0.008367102870251983
214,0.008930845818016678,0.008489548759534955
215,0.008953503225774815,0.008367398259229959
216,0.008948910266781848,0.008569526253733783
217,0.008902574640388291,0.008356438850518316
218,0.008916768302985777,0.008381683370098472
219,0.008941610461100936,0.008676896693184971
220,0.008915571750452121,0.00843594531295821
221,0.00889461356246223,0.008357474549673498
222,0.008885913657800604,0.008356991806067526
223,0.00888184181942294,0.00830536992335692
224,0.00887398510131364,0.008328636329155415
225,0.00887844907756274,0.008317624086514114
226,0.008885805840914448,0.008477050294168294
227,0.008892896765687813,0.008393323035445065
228,0.008860479729094853,0.00839831696683541
229,0.008850438949186355,0.008386817464139313
230,0.008827846138738096,0.00849342980561778
231,0.008853519730114688,0.008315689852461219
232,0.008849460052481542,0.008327695637010038
233,0.008827549928644051,0.008355427192058415
234,0.008804500630746285,0.008239061250817031
235,0.008767482377588749,0.008368143398314714
236,0.008756356072301666,0.00834416949795559
237,0.00873212359007448,0.008241207148414104
238,0.008758255559951068,0.008253029329236597
239,0.008724705651092032,0.008205500786192714
240,0.008695717678405344,0.008144855761900544
241,0.008670867638507237,0.008176217764150352
242,0.008660310335302105,0.008215529507491737
243,0.008640797921456396,0.008325128215365112
244,0.008612664661525438,0.008342317529954017
245,0.008622318119897197,0.008084981721825897
246,0.008613363528468957,0.008075283158104867
247,0.008627541486329089,0.008131403579376638
248,0.008592495446714261,0.008047834650147707
249,0.00861451520305127,0.008152147041633724
