epoch,loss,val_loss
0,1.5713554444136444,1.5805665254592896
1,1.5713175314444083,1.580516499021779
2,1.5712651941511366,1.580448751864226
3,1.571203108187075,1.5803608738857766
4,1.571110522305524,1.5802478945773581
5,1.5710092032397236,1.580105817836264
6,1.5708686731479786,1.5799241532450137
7,1.5706929719006573,1.5796961266061533
8,1.570478011060644,1.5794099258339924
9,1.5702124569151137,1.5790497634721838
10,1.569868599926984,1.5786064500394075
11,1.5694471023700856,1.5780567293581755
12,1.5689068149637293,1.5773705295894458
13,1.5682191186481051,1.5765203652174578
14,1.567427357037862,1.5754808550295623
15,1.5664182813079268,1.574201858561972
16,1.5651153590944078,1.5726241339807925
17,1.5635993657288727,1.5706966597100962
18,1.5616602897644043,1.568340944207233
19,1.5593292448255751,1.5654816731162693
20,1.5562357461010967,1.562006255854731
21,1.5530196737360071,1.5578228183414624
22,1.5488204073022913,1.5527950680774192
23,1.5437762207455106,1.546830882196841
24,1.5375244440855804,1.5397442786589912
25,1.5303349848146792,1.5313374426053918
26,1.521442832770171,1.5212898098904153
27,1.5102612530743633,1.5092702585717905
28,1.4980120438116569,1.4950103915256003
29,1.4827334306858204,1.4780038336048955
30,1.4651279758524012,1.4578076186387434
31,1.4435023245988068,1.4342650175094604
32,1.6673681294476543,1.4148897347242937
33,1.406124507939374,1.4091753285864126
34,1.3978942102856107,1.4005707087724104
35,1.3897682207602042,1.3895363755848096
36,1.3779079428425542,1.3759697261063948
37,1.3629504574669733,1.3599795880525007
38,1.3468699366958052,1.341783388801243
39,1.3277961898733068,1.3208490817443184
40,1.3050625324249268,1.297459602355957
41,1.2811336473182395,1.2711304063382356
42,1.2519670283352886,1.2411804147388623
43,1.2218481346412942,1.207576000172159
44,1.1863336916323062,1.1696247328882632
45,1.1471527329197637,1.1269581110581108
46,1.102163588559186,1.0798601948696633
47,1.0535027737970706,1.0266962595607922
48,0.9979321426815457,0.9682388279748999
49,0.9361851149135165,0.9032769358676412
50,0.8683894718134845,0.8332967473113019
51,0.7963906614868729,0.7574363143547721
52,0.7193793455759684,0.6775696407193723
53,0.6364149804468509,0.5948079591212065
54,0.5542873188301369,0.5117023639056993
55,0.47199380618554576,0.4315301503824151
56,0.39300496379534405,0.35820234858471417
57,0.325522851060938,0.2971906065940857
58,0.27065353371478895,0.25019849512888037
59,0.23327736666908971,0.21811541007912677
60,0.21306276431790105,0.19871865990369217
61,0.20015395791442306,0.18596392222072766
62,0.19551109936502245,0.17518056151659592
63,0.18517602097105096,0.16436694108921548
64,0.1712227894200219,0.1520657435707424
65,1.5187260652029957,0.14713058879841928
66,0.15417037738694084,0.14839904593384784
67,0.1504064550002416,0.1496722672296607
68,0.15136952311904342,0.19963437642740167
69,0.15010480251577166,0.14788196721802588
70,0.15008065270053017,0.1439571834128836
71,0.1438088279079508,0.14726414175137229
72,0.1374213899727221,0.1344068604318992
73,0.1337996494990808,0.1271221708992253
74,0.12884669171439278,631.7193097352334
75,0.12547211017873552,0.11615737851547159
76,0.12151929846516361,0.11214378055023111
77,0.11756441355855377,0.10973269524781601
78,0.11740682191318935,0.6266708225011826
79,0.11838318738672468,0.10497981180315433
80,0.14400236032627248,0.10418425176454627
81,0.10798615079235148,0.10303452610969543
82,0.10593519525395499,0.1848093935328981
83,0.10524229263817822,0.10082712639933047
84,0.10391402244567871,0.15518971370614093
85,0.10279651041384097,0.09893163196418596
86,0.10058810672274342,0.09827118237381396
87,0.1040124010156702,0.12683585026989813
88,0.10852436776514407,0.09698130546704582
89,0.0982230904477614,0.09606620669364929
90,0.09761235752591381,0.09533895390189212
91,0.09539238860209782,0.14646685965683148
92,0.09478315462668736,0.0990292805692424
93,0.09761839056456531,0.12565713375806808
94,0.09435268684669777,0.09309528832850249
95,0.09441727179068106,0.09243619441986084
96,0.09240572927174745,0.09200547765130582
97,0.0916160993553974,0.09414749398179677
98,0.09123099236576646,0.0918014891769575
99,0.09062886789993004,0.09063851023497789
100,0.0897844069533878,0.09013733041027318
101,0.08932614988750881,0.08974157111800235
102,0.0888814843363232,0.23927169746678809
103,0.08885758839271686,0.08911600903324458
104,0.08830378949642181,0.08869320802066637
105,0.08815098139974806,0.08839354242967523
106,0.08710403933569237,0.08802968004475469
107,0.08694467583188305,0.08772570737030196
108,0.08628511014911863,0.08732767953820851
109,0.08572527021169662,0.12230884218993394
110,0.08553904432941366,0.10141625158164812
111,0.08646594236294429,0.08611704473910124
112,0.08531247438104064,0.08590529729490695
113,0.08444405733435242,0.08584294403376787
114,0.08398937930663426,0.0850988270147987
115,0.08384390340911017,0.08574368415967278
116,0.08366099745035172,0.08460899669191112
117,0.08331349933588947,0.08406626076801964
118,0.08303331500954098,0.08385163999122122
119,0.08293352138113093,0.08358802419641743
120,0.08233660569897404,0.0834052663134492
121,0.08250349649676571,0.08311697840690613
122,0.08178088731235927,0.08289593717326289
123,0.08446531439269031,0.08243336496145828
124,0.08191246180622666,0.08291849040466806
125,0.0811252185591945,0.0858638513347377
126,0.08053197932464105,0.0817426974358766
127,0.08027402145995034,0.08148152899482976
128,0.0802115320607468,0.08124161738416423
129,0.07982798638167204,0.0809751094683357
130,0.07982570153695566,0.08492568945107253
131,0.08247145182556576,0.08049417675837227
132,0.0792745026173415,0.08046834073636842
133,0.07901918612144611,0.08191990625599156
134,0.07893201846767355,0.0798111246979755
135,0.07865304858596237,0.07947383659041446
136,0.07820865401515255,0.07928167575079462
137,0.07829167086769033,0.07977377105018367
138,0.07873413104701925,0.07858115693797237
139,0.0776020211202127,0.07914526695790498
140,0.07795444710387124,0.07833898909713911
141,0.07755175950350585,0.0780786240230436
142,0.076980608480948,0.07889581520272337
143,0.0774519603561472,0.33334030567303946
144,0.07758074033039587,0.07605358342761578
145,0.07671699755721623,0.07602661977643552
146,0.07636836115960721,0.07567757044149481
147,0.07565416837180103,0.0755384029901546
148,0.07622947957780626,0.07556607282680014
149,0.07589695988981812,0.07534327892505605
150,0.07532689858365942,0.1476097813119059
151,0.08055561698145336,0.0776818705641705
152,0.07529098016244394,0.07570157038128894
153,0.07515521595875423,0.07907930470031241
154,0.07521723735111731,0.0751147189218065
155,0.07439297078936188,0.0742594693665919
156,0.07436798099014494,0.07404561502778012
157,0.07551301132749628,0.07382219705892645
158,0.07408469225521441,0.07372358036429985
159,0.1344753349268878,0.07360628765562306
160,0.07411020911402172,0.07355154224711916
161,0.07360094840879794,0.07350453669610231
162,0.07450715121295717,0.07397419926912888
163,0.07374062665082791,0.07980307483154794
164,0.07636277322415952,0.07579601296912068
165,0.07534164604213503,0.07257600161044495
166,0.07339303995724078,0.0723252748341664
167,0.07748395480491498,0.07210727165574612
168,0.07223367277118894,0.07192474862803584
169,0.07233738485309812,0.07175677771801534
170,0.09391728319503644,0.07154969611893529
171,0.07217232082728986,0.07143223026524419
172,0.07217651605606079,0.07398921704810599
173,0.07551034181206315,0.07208363711833954
174,0.07211495770348443,0.07163260002499042
175,0.07158336098547335,0.07148341445819191
176,0.07150939851999283,0.07120946535597676
177,0.07161595203258374,0.07126147008460501
178,0.07137479191576993,0.07104159988786864
179,0.07103903398469642,0.07089047425467035
180,0.10979444505991759,0.07076036023057025
181,0.07082505330995277,0.07101456432238869
182,0.07127201170833022,0.07103923449049825
183,0.07079892246811478,0.07173452396755634
184,0.07060340267640573,0.07977872957354007
185,0.07011451020284935,0.08289010919954466
186,0.07041661938031514,0.071758431908877
187,0.07048782844234396,0.07429119491058847
188,0.06955756219448866,0.08345274691996367
189,0.06911732366791477,0.07184463868970456
190,0.06951428315153828,0.0693024686821129
191,0.11929659766179544,0.06900509171511816
192,0.06870926806220302,0.06892393820959589
193,0.068815053889045,0.06993909892828568
194,0.12426006821570573,0.06888271511896797
195,0.06855889051048844,0.06761409795802573
196,0.0684757246463387,0.06748878016420033
197,0.069887716461111,0.06699470608778622
198,0.07833038711989368,0.06677966726862866
199,0.06917550442395387,0.06830710302228513
200,0.06897686339086956,0.06682147263832715
201,0.06873352356531003,0.0662477387358313
202,0.06947670835587713,0.06616892131126445
203,0.0682696219947603,0.06974482050408488
204,0.06783275940903911,1.3134286717876145
205,0.06766165792942047,0.06575691683784775
206,0.06778322353407189,0.06618732959032059
207,0.06719815896617042,0.06784554165990456
208,0.06735108599618629,0.07646639547918153
209,0.0696311002528226,0.13372002347655917
210,0.08656678169413849,0.08051142598623814
211,0.06931169689805419,0.07222406906278236
212,0.06602912644545238,0.08396348859304967
213,0.06585220192317609,89.12350064159736
214,0.06654100727151942,0.0661893768802933
215,0.06518029090431002,0.06352773632692255
216,0.06506429585041823,0.06311138784107954
217,0.06496521637395576,0.06287862230902133
218,0.0648865349314831,0.06268547248581181
219,0.06473742770376029,0.06249320717609447
220,0.0641307560382066,0.06232614458903023
221,0.06389102615691998,0.06216381441639817
222,0.06411488850911458,0.06200660667989565
223,0.06367238059088036,0.06186272689829702
224,0.07281214329931471,0.061720437329748405
225,0.06349893438595312,0.061588064160036
226,0.06416431138360942,0.06145001461972361
227,0.06950040948059824,0.06134151796931806
228,0.3992132136115321,0.06191517639419307
229,0.06454785830444759,0.06554429735178532
230,0.06766175119965165,0.06850448202179826
231,0.07111312173030994,0.06917732856843782
232,0.0698014975146011,0.06754456719626552
233,0.06835202431237256,0.0648385921250219
234,0.06590573503463357,0.06236542890901151
235,0.06391471017290044,0.060892058779364044
236,0.7104069256672153,0.06202774170948112
237,0.06589505490329531,0.06468677164419838
238,0.06666222021535591,0.06610849920822226
239,0.06709277905799725,0.06574664653643318
240,0.06646901231121134,0.06416185410774272
241,0.06487878660360973,0.062232933290626694
242,0.06322230053720651,0.06063701989858047
243,0.06311339195127841,0.059680194310520004
244,0.06159517168998718,0.059321432819832924
245,0.061088638173209295,0.059290429982154266
246,0.060906721761933076,0.059351370710393654
247,0.06337569929935315,0.059318148085604545
248,0.06084442787148334,0.05918575499368751
249,0.06061127781867981,0.05899235638587371
250,0.0607398840840216,0.05882427501289741
251,0.060394351129178646,0.05867762863636017
252,0.06254743467326518,0.0586257204413414
253,0.06044818736888744,0.05856032329409019
254,0.06023495837494179,0.05852699684708015
255,0.06046639934734062,0.05844573903342952
256,0.06021866216151803,0.058361330272062965
257,0.07714330639552187,0.05828117789781612
258,0.0599534034177109,0.058187929508478745
259,0.06659770191267685,0.058082805703515594
260,0.05956069904345053,0.05799105147952619
261,0.05954754683706495,0.057888525335685066
262,0.059792781317675556,0.05778815192372903
263,0.05930397383592747,0.05769498500487079
264,0.059564631432294846,0.05761569932751034
265,0.05911367014050484,0.057550754560076675
266,0.05951432938928957,0.05748669932717863
267,0.06005345588480985,0.05741720905770426
268,0.05903043046041771,0.05734263068955878
269,0.2567905470452927,0.057481776275064636
270,0.060802563886951516,0.05804653174203375
271,0.059793507059415184,0.058429645779340164
272,0.059985143304974946,0.05831542060427044
273,0.05976452140344514,0.05794168911550356
274,0.05933301564719942,0.05747364380437395
275,0.05895062260053776,0.05710188493780468
276,0.05844336955083741,0.05686224235788635
277,0.05845847367136567,0.05676306605986927
278,0.05840809698458071,0.056727703174819115
279,0.05857287085166684,0.056696071734894875
280,0.05858055709136857,0.05664712304006452
281,0.05840166271836669,0.05658367583933084
282,0.05831330448940948,0.05651113131771917
283,0.058801745926892315,0.056467508492262466
284,0.058172646082109876,0.056412796611371246
285,0.0580390737288528,0.05639332840624063
286,0.05840612754777626,0.05634308088084926
287,0.057919810629553266,0.05630312600861425
288,0.05861650462503786,0.05626914812170941
289,0.0591330768333541,0.056218908208867775
290,0.05797075590601674,0.05617735632087873
291,0.05768135521146986,0.056138924930406654
292,0.05825212570252242,0.05607125535607338
293,0.05824419966450444,0.05603678135768227
294,0.05814335660801993,0.055996403098106384
295,0.05802649411338347,0.05597484678677891
296,0.057764404073909474,0.05591971767337426
297,0.0574678269525369,0.05587483035481494
298,0.05758415493700239,0.05584823064829992
299,0.05748823947376675,0.055804064254397934
300,0.061055849961660524,0.055771872563206634
301,0.060933802690770894,0.055749423801898956
302,0.057358806745873556,0.05573678729326829
303,0.059334764877955117,0.055705338230599526
304,0.057509707769861924,0.055690322881159576
305,0.057933963283344554,0.05563212088916613
306,0.05738107722114633,0.05559621848489927
307,0.05729550702704324,0.055557332932949066
308,0.05723269228582029,0.05551264208296071
309,0.05737660162978702,0.05545870263291442
310,0.0627094954252243,0.0554337733141754
311,0.05783263580114753,0.05540120569260224
312,0.05785887329666703,0.05537063353087591
313,0.1360857566749608,0.055438529052164245
314,0.05914008037911521,0.055543652695158256
315,0.05709993549519115,0.055617047716741974
316,0.06154773825848544,0.05554435936653096
317,0.06159976704253091,0.05542513760535613
318,0.06054266542196274,0.05528508450673974
319,0.05700438690406305,0.055166048686141556
320,0.05702618702694222,0.0550680086016655
321,0.05740040416518847,0.05501924827694893
322,0.05698464231358634,0.054983718239742775
323,0.056761208093828626,0.05497083003106325
324,0.05675198234341763,0.054941128129544464
325,0.056646385264617426,0.05491226976332457
326,0.05758901837247389,0.05488046339672545
327,0.05659985652676335,0.0548687212817047
328,0.05665238546552481,0.05486188262053158
329,0.056514179816952455,0.054828671171613365
330,0.05639085297783216,0.05481487156256386
331,0.05802611234011473,0.054803374020949654
332,0.056543938677620004,0.05477493304921233
333,0.05640031907845427,0.05474542470081993
334,0.056568186868120124,0.05471430589323458
335,0.05636269447428209,0.054689389855965324
336,0.15501308496351596,0.05473135654693064
337,0.056650338073571525,0.05512255640781444
338,0.056866176426410675,0.055379709471826966
339,0.057116846243540444,0.055310247708921845
340,0.056778248813417226,0.05504044501677803
341,0.05661259177658293,0.05472565652883571
342,0.056226884877240216,0.05449468853033107
343,0.05619778249550749,0.054393734297026756
344,0.0563485876277641,0.05438152554890384
345,0.05626263414268141,0.05437631662125173
346,0.05628025711134628,0.054371955602065376
347,0.05610142179109432,0.05433720188296359
348,0.05653466229085569,0.0542991383244162
349,0.05608886397547192,0.054263968506585
350,0.13156863826292534,0.05429381520851799
351,0.05621633278550925,0.05450073645814606
352,0.0563618008185316,0.054614143365103264
353,0.0562146606820601,0.05458735707013503
354,0.05627314939543053,0.05445588299113771
355,0.05636485472873405,0.05427673491446868
356,0.0558533243559025,0.054155338717543564
357,0.05619240731552795,0.05409874119188474
358,0.05605537913463734,0.05408888245406358
359,0.05607322920803671,0.054084437048953514
360,0.056438804500632815,0.05408227022575295
361,0.05591095031963454,0.05407139918078547
362,0.0581947515408198,0.05404347651030706
363,0.05592814929507397,0.05401660097034081
364,0.05566985656817754,0.05401630893997524
365,0.05577382045211615,0.05400709014223969
366,0.0558828032679028,0.05399426510152609
367,0.05570169731422707,0.05398604727309683
368,0.05581582558375818,0.05395362072664758
369,0.05587912640637822,0.05392717424294223
370,0.05679843519572859,0.05390132153811662
371,0.055674066560135946,0.05388766818720361
372,0.055543235054722535,0.053854640897201454
373,0.05698982998728752,0.05383684000243311
374,0.05565705095176344,0.053813103100527886
375,0.05578368019174646,0.053795112701861755
376,0.057096039255460106,0.053774406080660614
377,0.05543601968222194,0.0537527903266575
378,0.055343662561089906,0.053726225443508316
379,0.056712836027145386,0.05371691885849704
380,0.055704841321265255,0.053689932693605835
381,0.07939518229277046,0.053719337057808174
382,0.055626351248334954,0.05374851353142573
383,0.055407271479014995,0.053718310659346374
384,0.055838551786210805,0.05368946411687395
385,0.05529356747865677,0.05365260431300039
