epoch,loss,val_loss
0,0.8440368585914875,0.7082065391714556
1,0.6296469038538783,0.5705176988754056
2,0.551527211077219,0.5327156366416331
3,0.5295724750185509,0.5207670500678737
4,0.5216332683332259,0.5156136338341458
5,0.5178532588949578,0.5128643313076857
6,0.5156662710386816,0.5111381945238787
7,0.514216422557449,0.5099218190441457
8,0.5131669420304539,0.509011842304386
9,0.512354681618792,0.5082913608398267
10,0.5117117395584253,0.507717317666644
11,0.5111875753339717,0.5072438698518789
12,0.510753244972878,0.5068567709186071
13,0.5103978250053427,0.5065292461751828
14,0.5101001427066717,0.5062586319272535
15,0.5098522508306633,0.5060325817228427
16,0.509643380669616,0.5058417374393559
17,0.5094790010332011,0.5056957939922181
18,0.5093474716926404,0.505581439653259
19,0.5092402584940267,0.5054817092147961
20,0.5091456580247947,0.5053900939027952
21,0.5090574549616957,0.5053041624230094
22,0.5089747134545405,0.5052249272084294
23,0.5088959090751681,0.5051452390855633
24,0.5088164007501472,0.5050636070681508
25,0.5087277579775231,0.5049657432025559
26,0.5086102332230851,0.5048207579979738
27,0.5084407163248528,0.5046148646776983
28,0.5081721924609237,0.504270089175386
29,0.5077992808207977,0.5038917182135756
30,0.507434382402391,0.5035473829783372
31,0.5071269946636631,0.503269801585537
32,0.506870394448837,0.5030278897053424
33,0.506648112407582,0.502821537216601
34,0.506450552382977,0.5026352163358907
35,0.5062705524164357,0.5024660663061382
36,0.5061028300284194,0.5023003969846077
37,0.5059396331075481,0.5021420631675535
38,0.5057825852242157,0.5019909147073462
39,0.5056372713670433,0.5018529505238529
40,0.5055025228030019,0.5017222926951189
41,0.5053760610502944,0.5016024659439885
42,0.5052598256221096,0.5014898375051349
43,0.5051500123438595,0.5013819178332184
44,0.5050451672487587,0.5012820320021111
45,0.5049482113461765,0.5011860130767173
46,0.5048556782370858,0.5010964123582028
47,0.5047663733709136,0.5010090429224043
48,0.5046807848710456,0.5009244266362666
49,0.5045981758398662,0.5008426912896341
50,0.5045159949456529,0.5007641537104404
51,0.5044389321290559,0.5006863310727663
52,0.5043629158297188,0.5006112020767904
53,0.504288002240171,0.5005373383138785
54,0.5042157047648159,0.5004653596626678
55,0.5041447640706102,0.5003949050872382
56,0.5040735694004881,0.5003265828401793
57,0.504006928806786,0.5002593613212319
58,0.5039385336222316,0.5001946583281468
59,0.5038759247649661,0.5001308852255296
60,0.5038124162307064,0.5000685079496079
61,0.5037503734744005,0.5000083427649635
62,0.503692311988629,0.4999484124458233
63,0.5036321442016513,0.49989125864929235
64,0.5035755693244399,0.49983732850688894
65,0.5035194505253632,0.4997801631084807
66,0.5034666394738793,0.4997272958430641
67,0.5034126930946918,0.49967468529335385
68,0.5033622440621793,0.4996237582243852
69,0.5033123751847242,0.49957494808712916
70,0.5032625910852125,0.4995260517092517
71,0.503215015745812,0.4994794361396041
72,0.5031695194822774,0.49943352006647707
73,0.5031224285916771,0.49938956350208974
74,0.5030799749567568,0.49934645771786923
75,0.50303828437105,0.4993033642123022
76,0.502994929078677,0.49926333720376603
77,0.5029546733709981,0.4992227295454401
78,0.5029139237894451,0.49918381445599297
79,0.5028792013637154,0.4991462628046672
80,0.5028393230169081,0.4991096361613525
81,0.5028051698417831,0.4990749013491597
82,0.5027703446230953,0.4990408236866353
83,0.5027357378275132,0.4990076481667555
84,0.5027050386198623,0.4989766385240083
85,0.5026744986840302,0.4989469993046794
86,0.5026430422492367,0.4989195136838296
87,0.5026160841516918,0.4988924240012142
88,0.502593030898069,0.49886777902751656
89,0.5025680967576033,0.49884574575725843
90,0.5025460531560777,0.4988220969739235
91,0.5025220612605349,0.4988022649181827
92,0.5025047156885206,0.4987835433071257
93,0.5024857515569111,0.4987667604422821
94,0.502471284951278,0.49875112147420186
95,0.5024555422622171,0.49873666403647465
96,0.5024409225170282,0.49872419129322915
97,0.5024277163659028,0.4987104515766382
98,0.5024152520516092,0.498698290512993
99,0.5024044263639672,0.4986867804596894
100,0.5023918792283277,0.49867567018774206
101,0.5023816954717338,0.4986649525184894
102,0.5023703499733686,0.49865525632202384
103,0.502360496261389,0.49864604435891324
104,0.5023499471937016,0.4986360610643249
105,0.5023404280360553,0.49862759285406283
106,0.5023333128449247,0.49861835616445116
107,0.502324586157039,0.49860963725695645
108,0.5023153692221431,0.49860154707453064
109,0.502308626094754,0.49859385701184916
110,0.5022992367167965,0.49858686207081376
111,0.50229262573133,0.4985789554639261
112,0.5022853811900075,0.4985715356283041
113,0.5022782769749125,0.49856450102335054
114,0.5022723622518697,0.4985576795062106
115,0.5022660426801447,0.49855131440209066
116,0.5022591954713063,0.49854402762549926
117,0.5022528166767117,0.49853890742698725
118,0.502246037567015,0.49853135085840683
119,0.502239790484846,0.4985251884729226
120,0.5022311012109248,0.4985195976007497
121,0.5022269636273289,0.4985133601897921
122,0.5022207083131334,0.498507975468477
123,0.5022150106054005,0.4985019838722953
124,0.5022091292161003,0.4984964377156913
125,0.5022045981177718,0.4984913536038519
126,0.5021979012328973,0.49848575840514553
127,0.5021925895714207,0.4984805938777939
128,0.5021881044054146,0.4984752933184306
129,0.5021816355118854,0.4984722138417995
130,0.5021778380422234,0.4984654148999792
131,0.5021730771629785,0.4984619526097374
132,0.5021686498120463,0.4984560595086601
133,0.5021631986356144,0.49845155075325387
134,0.5021609205833142,0.4984464736750526
135,0.5021528944289617,0.49844224065759757
136,0.5021489178590339,0.498437459209733
137,0.5021459660929045,0.49843327743390275
138,0.5021408875290159,0.4984294310248391
139,0.5021361531115609,0.49842513487383494
140,0.5021318872753766,0.4984203490027546
141,0.5021298382643035,0.4984164818553352
142,0.5021239505279914,0.4984123304619213
143,0.5021181087001406,0.4984082678228689
144,0.5021165282941991,0.4984044245318098
145,0.5021119686820394,0.4984005940028157
146,0.5021083927851281,0.4983969893962121
147,0.5021044590455995,0.49839332126933
148,0.5020996630907631,0.49838956801367307
149,0.50209703511768,0.4983860664945836
150,0.5020947416273472,0.4983826810909497
151,0.5020911535852141,0.4983790288683078
152,0.5020893570706785,0.4983807926437087
153,0.5020849534852492,0.4983735297234776
154,0.5020794772071013,0.4983702743333815
155,0.5020784691536875,0.49836590985215395
156,0.5020737638465875,0.49836268631887937
157,0.5020704646889356,0.49836040480970273
158,0.5020667339344803,0.49835678159175417
159,0.5020644100691625,0.4983535854679148
160,0.5020624566450417,0.49835206859496584
161,0.5020609737349282,0.4983484649310147
162,0.5020589589881744,0.49834530530474774
163,0.5020551030830539,0.49834446958285084
164,0.5020508879513813,0.49834127614194557
165,0.5020461428680832,0.498338035205855
166,0.5020439387608567,0.4983350053272495
167,0.5020420202691618,0.49833258515146817
168,0.5020402377610019,0.49833022663483073
169,0.5020400401685026,0.49832861291037667
170,0.5020373059903459,0.4983260039865536
171,0.5020331884499452,0.4983235557970726
172,0.5020296073513474,0.49832306885661287
173,0.5020316873100684,0.4983193261393279
174,0.502026807221534,0.49831741680870767
175,0.5020264536500263,0.49831532735894196
176,0.5020221673411498,0.49831323689401197
177,0.502023429799977,0.4983114672209901
178,0.5020200184958759,0.498309554796536
179,0.5020214905492586,0.49830953710367304
180,0.5020197471253294,0.4983062167914051
181,0.5020146233926686,0.49830618575638325
182,0.5020147376388813,0.4983033857399723
183,0.502011714671687,0.4983016276688278
184,0.5020080238843174,0.4982995916843801
185,0.5020065510912453,0.49829925046833373
186,0.5020065239613489,0.4982966964842339
187,0.5020053443954504,0.49829553794010034
188,0.5020042778111344,0.4982947041035085
189,0.5020024458153711,0.49829308361129265
190,0.5020028462975,0.49829241183842476
191,0.5020023218577533,0.49829105101072585
192,0.5020018166737904,0.4982905680100703
193,0.5019984091874405,0.4982897228374775
194,0.5020011280707305,0.4982886156316511
195,0.5019960385069454,0.4982878597451726
196,0.5019948755005439,0.4982868282899369
197,0.5019963278686457,0.498287098710361
198,0.5019937424634914,0.49828536771026355
199,0.5019954697096988,0.49828465131850913
200,0.5019927328591159,0.49828477760977796
201,0.5019910826360444,0.49828344254791496
202,0.501994915706239,0.4982829207534821
203,0.501991852366323,0.4982823400795218
204,0.5019921904043544,0.4982818429390783
205,0.5019928164201511,0.49828128186745657
206,0.5019909534767402,0.49828143692171295
207,0.5019913080981295,0.4982804850118487
208,0.5019913945940612,0.4982802664856551
209,0.5019897180762264,0.49828095384854565
210,0.5019883293929913,0.49827917078502376
211,0.5019886552142181,0.49827884486895313
212,0.5019870950900812,0.49827837953698995
213,0.5019873822565744,0.49828044302755514
214,0.5019876118466031,0.4982791389765434
215,0.5019894795622035,0.4982778481468377
216,0.5019870144878034,0.49827792812727956
217,0.5019874042325062,0.4982768393394334
218,0.5019869424038834,0.49827692877057117
219,0.5019861959141669,0.49827648606226876
220,0.5019848668832985,0.4982762989819968
221,0.5019863850598911,0.4982758056605046
222,0.5019857055955739,0.4982755954731603
223,0.5019863177481606,0.4982759855137738
224,0.5019854117241547,0.4982754594894898
225,0.5019851569131053,0.4982755285206599
226,0.5019855113197461,0.4982757701055847
227,0.5019834404281849,0.49827475250009007
228,0.5019871458423147,0.4982751111672936
229,0.5019840199867185,0.4982748762292777
230,0.5019855508334737,0.4982742443378631
231,0.5019848256277217,0.4982743680428801
232,0.5019849215010054,0.49827570279052563
233,0.501981390796727,0.4982747379252317
234,0.5019849461255024,0.49827358564127777
235,0.5019847926518934,0.4982734639182481
236,0.5019819628390625,0.4982737244529059
237,0.5019798201021908,0.4982735339645825
238,0.5019829877860266,0.4982740749504541
239,0.501984097582517,0.49827290565041343
240,0.5019828652839263,0.4982740613665894
241,0.5019837396205951,0.4982727470430821
242,0.5019841784949871,0.4982728840419169
243,0.5019823669719161,0.49827253828180196
244,0.5019823568787357,0.49827238530621526
245,0.5019809905293467,0.4982732386968045
246,0.5019799853392465,0.4982725297254174
247,0.501983010382343,0.49827357292755386
248,0.5019812304034436,0.49827211916398345
249,0.5019818612152905,0.49827197631586884
250,0.5019829293505682,0.4982718459156018
251,0.5019828114774916,0.4982718137929039
252,0.5019826758757318,0.4982719144391898
253,0.5019808955627789,0.4982716052975001
254,0.5019803740817895,0.4982714447565226
255,0.5019824925520785,0.49827150424031447
256,0.5019811430485178,0.49827292085370684
257,0.5019836652937463,0.49827142034423905
258,0.5019829417343995,0.4982713750002351
259,0.5019809775728526,0.49827134461781886
260,0.5019829908879496,0.4982711404006073
261,0.501981541120691,0.4982710456036013
262,0.5019803977518487,0.49827214531654856
263,0.501981160848784,0.4982732816720918
264,0.5019793145841747,0.4982720004864466
265,0.5019820823108224,0.498271507986754
266,0.5019818912800834,0.49827078199928015
267,0.50197908131956,0.49827061261187117
268,0.5019808665955897,0.4982707720893433
269,0.5019824209930994,0.4982715440734266
270,0.5019818219878943,0.498270725851028
271,0.5019787428520316,0.49827049673812135
272,0.5019807842991847,0.4982705151802722
273,0.5019799025417615,0.49827084244989517
274,0.5019818336081753,0.49827344844907834
275,0.5019802931693194,0.49827328481426686
276,0.5019813439815497,0.4982709655989889
277,0.5019815748839306,0.4982710937997334
278,0.5019779977701109,0.4982709255483415
279,0.501978693459872,0.4982701815537873
280,0.5019795098621622,0.498270126154823
281,0.5019807217357825,0.49827028178917326
282,0.5019798687069391,0.4982704777642178
283,0.5019795078101208,0.4982699919597753
284,0.5019790487732287,0.4982698996281682
285,0.5019806303960787,0.49827176462994877
286,0.5019782042388824,0.49827024454231295
287,0.5019795614733898,0.4982698648708774
288,0.501978672867875,0.4982700932344961
289,0.5019812072106034,0.49827000259482945
290,0.5019790785755511,0.49826969275219307
291,0.501977901538913,0.49827035086868454
292,0.5019776495195943,0.49826948718142916
293,0.5019777887482181,0.4982704464633196
294,0.5019774186410744,0.4982705529588852
295,0.5019805526093926,0.4982697380720264
296,0.5019791299243084,0.49826945208575024
297,0.5019791079960985,0.49826952549179493
298,0.5019792090949294,0.49826936294465946
299,0.5019793702756242,0.4982701247771001
300,0.5019794203836122,0.4982695276913175
301,0.5019791176836428,0.49826922234440857
302,0.5019783939095475,0.4982692637244377
303,0.5019791632580509,0.4982701167282977
304,0.5019785124984525,0.4982700698373768
305,0.5019774237950388,0.4982696300295438
306,0.5019784967263667,0.498269178813198
307,0.5019801235657104,0.4982690255233938
308,0.5019794030605649,0.4982693729512786
309,0.5019788145541763,0.49826959689168165
310,0.5019808598668027,0.4982699237504048
311,0.501978348072669,0.49826956481732493
312,0.5019785170320323,0.49826972124930424
313,0.5019803050282099,0.4982692293297055
314,0.5019766717934436,0.49826912660475003
315,0.501975111573863,0.4982688200734828
316,0.5019784499827722,0.49826976756013125
317,0.5019769880941527,0.4982687109674947
318,0.501978820519413,0.4982714893754091
319,0.5019787869232001,0.49826880653795924
320,0.5019771724915485,0.49826876651148244
321,0.5019776707081149,0.49826864212968924
322,0.5019777160916356,0.498268689600704
323,0.5019801656325594,0.4982685158384204
324,0.5019809061093173,0.4982690581053326
325,0.5019794346763192,0.498268599323596
326,0.5019789324988356,0.498268612375708
327,0.5019799381900159,0.4982686234700032
328,0.5019780113469896,0.498268391867527
329,0.5019784903077721,0.4982684177783864
330,0.5019763898763588,0.498268346475182
331,0.5019768338569934,0.49826850788630034
332,0.5019773284705569,0.4982699192063362
333,0.5019781850785423,0.4982683748030991
334,0.5019779486881436,0.49826868039171385
335,0.5019781527946814,0.4982683128297377
336,0.5019765351418021,0.4982689088278443
337,0.5019770713927175,0.49826820531900784
338,0.5019782098462049,0.4982687592603091
339,0.5019784101349912,0.49826863125292925
340,0.5019776718295794,0.4982693137575337
341,0.5019762541552941,0.4982683128780789
342,0.501978592790538,0.4982691721421185
343,0.5019758577533872,0.4982682561255623
344,0.5019773798193141,0.4982682106365349
345,0.5019751690787444,0.4982681185949748
346,0.501979041066143,0.49826813256556873
347,0.5019804609356354,0.49826816357642
348,0.5019785915736297,0.4982679333274962
349,0.5019761182910638,0.4982693362603416
350,0.5019793410459645,0.498268309034957
351,0.5019777561064431,0.4982692909163377
352,0.5019785708384671,0.4982678718133758
353,0.5019778801356438,0.4982681391157953
354,0.5019763746053529,0.4982683045875707
355,0.5019773715157047,0.49826821119245823
356,0.5019768851103069,0.4982677788049925
357,0.501977552166932,0.498267702812696
358,0.5019756470612281,0.4982679959534632
359,0.5019760378319517,0.49826806761922626
360,0.5019800149506812,0.49826778777227687
361,0.5019762647972763,0.49826763653697176
362,0.5019774000772579,0.4982686436766062
363,0.5019787274855819,0.49826788346359424
364,0.501974651176897,0.4982674996831605
365,0.5019787258868985,0.4982675570157709
366,0.5019769645672593,0.49826862997188864
367,0.5019782000632168,0.49826755082810303
368,0.5019782283622996,0.4982688561359848
369,0.5019767806232214,0.498267770079414
370,0.5019774287581158,0.4982673688719936
371,0.5019763004216697,0.49827104130123845
372,0.501973944725849,0.49826771339940906
373,0.5019754327422051,0.4982672799967791
374,0.5019772027949508,0.49826778878744116
375,0.5019785950096061,0.4982681124073069
376,0.5019779017775224,0.4982674974594673
377,0.5019769090189754,0.49826748803294196
378,0.5019756696814055,0.49826779562771467
379,0.5019795693236413,0.4982672926379913
380,0.5019755395676634,0.49826723745656226
381,0.5019761234927502,0.49826769855867437
382,0.5019776367539879,0.498267681977658
383,0.5019757623811834,0.4982674682372388
384,0.5019769203052032,0.49826855243267515
385,0.5019771155831907,0.49826717545903026
386,0.5019767616060469,0.49827067265158637
387,0.5019768649716679,0.49826704406776956
388,0.501976528055101,0.4982670355597262
389,0.501978103784297,0.4982674572396259
390,0.5019764712421869,0.4982676313886387
391,0.5019770153672147,0.4982709239289128
392,0.5019771667649213,0.49826753178168776
393,0.5019778436045345,0.4982684126542239
394,0.5019760961003834,0.4982669915692746
395,0.5019791439068232,0.49826706006869204
396,0.5019759416007538,0.4982670017209173
397,0.501976205455102,0.49826708786485646
398,0.5019758438424553,0.49826687032965655
399,0.5019766848215206,0.4982667920169846
400,0.5019745041218827,0.4982683768575982
401,0.5019763639156488,0.498267187955219
402,0.5019758686578398,0.4982667781672435
403,0.5019741529841916,0.4982677346695175
404,0.5019762767277497,0.49826684166335133
405,0.5019772083784123,0.49826673463603294
406,0.5019772867377612,0.4982666864399009
407,0.5019759831903838,0.49826677127862884
408,0.5019754454839507,0.49826681609088
409,0.5019768957284282,0.49826945708905984
410,0.5019781830026399,0.49826879537115226
411,0.5019753817036402,0.4982669258011325
412,0.5019754423343057,0.4982682261057047
413,0.5019768271759284,0.4982682662046932
414,0.5019761611930459,0.49826818441145804
415,0.5019756504972044,0.49826952029512067
416,0.5019780516719895,0.4982670701719935
417,0.5019754061611106,0.49826738042552976
418,0.5019756490416867,0.49826694675702343
419,0.5019753967837585,0.49826673939763677
420,0.5019767489358843,0.49826646208859804
421,0.5019755212663173,0.49826641350573675
422,0.501975928477233,0.49826643521091557
423,0.5019768239308396,0.49826922638089505
424,0.5019772804146103,0.49826648744353413
425,0.5019742761543983,0.4982673184521684
426,0.5019758707576031,0.498266758274858
427,0.5019764732226455,0.4982662837339047
428,0.5019761406249099,0.49826630256278476
429,0.501975639926805,0.49826663263619475
430,0.5019749973515113,0.4982662854741863
431,0.5019764880402934,0.49826678669945745
432,0.5019755862158141,0.49826637867593415
433,0.5019741410298573,0.49826618997623356
434,0.5019733097383363,0.49826633379117125
435,0.5019754706572493,0.4982663611522653
436,0.5019763671607376,0.4982661011735308
437,0.5019742020184369,0.4982664426554535
438,0.5019772052049064,0.4982661393388731
439,0.5019772395169477,0.49826674918672076
440,0.501973243237878,0.49826618693074076
441,0.5019739522897692,0.4982661967439953
442,0.501974661007607,0.49826642162705087
443,0.5019735591329509,0.49826647697767396
444,0.5019772480114447,0.49826615529145446
445,0.5019777083845497,0.4982664035957999
446,0.5019772215973768,0.49826603982860446
447,0.5019775213147278,0.49826604442101424
448,0.5019742816185551,0.4982660495935179
449,0.5019751906967621,0.4982661217426925
