epoch,acc,loss,val_acc,val_loss
0,0.9030322,0.23239147389456816,0.9076501,0.2232142969781057
1,0.918,0.20028019507594783,0.9198213,0.1968546042519231
2,0.92131543,0.19313257920358123,0.92291564,0.19167756546963532
3,0.92346984,0.18862014855608086,0.9223673,0.18957023625782052
4,0.9249959,0.18512460934682684,0.92524564,0.18384209493401624
5,0.9261354,0.1821260938336296,0.9256204,0.18416181260687542
6,0.9270421,0.1799486846839171,0.92525804,0.18334148412306905
7,0.92777705,0.1782884271429355,0.9217891,0.19031818042469972
8,0.9286268,0.17652289740907368,0.9257146,0.1809249550473897
9,0.9292287,0.17524487484495666,0.9279107,0.17772044429264353
10,0.92961025,0.1743350756355399,0.9291712,0.17561030949907327
11,0.92998266,0.17319350254919585,0.92867,0.17576969870118883
12,0.93036336,0.17232656144682382,0.92954093,0.17443924251916096
