epoch,loss,val_loss
0,2.2040131476471383,0.355205392025393
1,0.2697333435328891,0.18167129908261603
2,0.1406955821357602,0.11629848978621923
3,0.10784418516463523,0.09942666180159924
4,0.09417289379742548,0.08711805932423204
5,0.08184661652991254,0.07496769247094694
6,0.0708053435405509,0.06570096946618273
7,0.06332217856609315,0.05994839709484761
8,0.05845066177262794,0.0558527563815666
9,0.054577018782269775,0.05227658279173662
10,0.0510555164033981,0.048934798811570666
11,0.04787336779032066,0.04606987500604052
12,0.045269418674841036,0.04385192137867188
13,0.04329949557733498,0.042208174943005466
14,0.0417459894976824,0.04070507946808649
15,0.04035473388848637,0.03936395240949115
16,0.03905833527755986,0.038138672068944716
17,0.03784222618413506,0.03699600282944709
18,0.03675819421298891,0.035962207872792175
19,0.035822110120848336,0.03512674345901509
20,0.03500047959894347,0.03438302290241407
21,0.03428132732580002,0.033663834944452006
22,0.03362159302728094,0.03307071468050366
23,0.03304480647353576,0.032509101420302555
24,0.0325049889326883,0.03200457062321471
25,0.03201277763564125,0.03157885046638035
26,0.031569132667849116,0.031143664295535115
27,0.031142153000955682,0.0307202441655613
28,0.030739892460554957,0.030339426459972684
29,0.030366408679667143,0.030029822714983306
30,0.03002525924640097,0.02966824712175861
31,0.029693908594232543,0.02937245647221296
32,0.02939349138666335,0.029104608341459327
33,0.029116056215247696,0.02883694003225098
34,0.02885324854233725,0.028552060904523655
35,0.028617895405897625,0.02836536888157026
36,0.02839411334473911,0.028155057771858023
37,0.0281904156732144,0.027942467400832866
38,0.02800136429963826,0.0277564559246671
39,0.027822937172135895,0.027606967442335872
40,0.027654104206183132,0.02741201260313694
41,0.027498454267115856,0.027269766275489223
42,0.027359380551559436,0.02715334696702762
43,0.027221098475104528,0.027066016811439397
44,0.027096203818404264,0.02690191288076081
45,0.026974629294619357,0.026797587154712605
46,0.026867395591995923,0.026693577916699025
47,0.026750925495874604,0.02658690798752741
48,0.026648154898320703,0.026470372747910864
49,0.026555928005706414,0.026378412147121322
50,0.02646655663161921,0.02633232127388657
51,0.026380085026184687,0.026214308813153876
52,0.026295472371926587,0.026113497884906314
53,0.026222115479487242,0.026094029251930197
54,0.026142789698164876,0.02601579679908882
55,0.026072879948968692,0.025944982233116615
56,0.02600296044362794,0.025860161817385624
57,0.025932572864061646,0.025799230920922823
58,0.02588180429619059,0.025758424044162977
59,0.02581477772035868,0.025710244943287348
60,0.02575587149742272,0.02563942765661448
61,0.025704952835249272,0.025571542969524907
62,0.02565174283022829,0.025515662763035112
63,0.025600692027623505,0.02549884522851898
64,0.025553628987221837,0.025418590724057333
65,0.02550419569731331,0.02536490098524171
66,0.025461977195618057,0.025342167615709222
67,0.025416903239522008,0.025295184867793433
68,0.025374013441409753,0.025253310992963317
69,0.025334080251707757,0.025237413735067757
70,0.025298780361242633,0.025175012069522416
71,0.025264057588038014,0.025165358378528485
72,0.025224842602391544,0.025111578247794655
73,0.025191793951979152,0.025087544706628172
74,0.02515941580908121,0.02504789648125883
75,0.02512631459300331,0.025011220520901566
76,0.02509834774560314,0.024979070443826194
77,0.025072012186121997,0.024966452178595902
78,0.025041405599209383,0.024925112663877754
79,0.025014158930358073,0.02491932106714179
80,0.02499111728806845,0.02487614192521775
81,0.024961585532411564,0.024848889539868777
82,0.024939746514642782,0.024846465049639332
83,0.024918279946864463,0.024851880275734248
84,0.024899589208016593,0.024791207956112407
85,0.024875333977101132,0.02476847855659732
86,0.02485733791094145,0.024744956510176237
87,0.024834988186891983,0.02473453561180941
88,0.02482046785982873,0.024733493445986476
89,0.024799302843711776,0.024694102138752196
90,0.024780486473997086,0.024690654532136418
91,0.024766392427219973,0.02468213201058607
92,0.024751156128591016,0.024656887092935006
93,0.02473439470088606,0.02462276338999192
94,0.024716716165765464,0.024622675245937448
95,0.024705862176058004,0.024619067682969988
96,0.024689746434517722,0.02458513494420854
97,0.024677481403868134,0.024583786452568264
98,0.02466917947215066,0.024564301179660013
99,0.02465109574236423,0.024564761541548148
100,0.024643067207882365,0.02453579368720863
101,0.02462723474499223,0.024529721784282293
102,0.024618537426949312,0.024520522145145034
103,0.024608788075293896,0.024519608933886473
104,0.024595543497605166,0.024501325012715677
105,0.024588471879545836,0.024488711450173423
106,0.024578084750138254,0.02449674743612124
107,0.02457085311907926,0.024470517020566813
108,0.024557962570730164,0.0244546685811957
109,0.02454635176995547,0.024458117233188966
110,0.024539932732383092,0.02444807926324307
111,0.02453398907495986,0.024445838715642425
112,0.02452574566519671,0.024424102581850127
113,0.024517860937657787,0.024413452996583075
114,0.024510768141516977,0.02442570709882475
115,0.024504120911272458,0.024413856071180573
116,0.024494013924291843,0.024416686500220983
117,0.024490716002935214,0.02439967843357229
118,0.024481091277004242,0.024374928500651347
119,0.024471917648235256,0.02437733466958284
120,0.024470355243886632,0.024373796229935813
121,0.02446388519757552,0.024363726570851806
122,0.02445572795416471,0.024373238457597955
123,0.02445168058135158,0.024360369735330175
124,0.024447418610640675,0.024351366460988025
125,0.02443739049601927,0.024349666473252544
126,0.02443599227138812,0.024334560931695736
127,0.024431665373550022,0.02435376662957359
128,0.024421885779636016,0.024327793618587102
129,0.024422006641296123,0.024328044299202437
130,0.024414283968359114,0.024327264757281575
131,0.02440934463458552,0.024341789602218174
132,0.024407224291212278,0.024319347365784238
133,0.024404304786574085,0.024299794353321136
134,0.024396166445506965,0.02429273480735266
135,0.024394052161322868,0.02430357483864459
136,0.024384203665942742,0.02429527054417694
137,0.024385837712783732,0.024294985556447785
138,0.024375675526485622,0.024282338420973014
139,0.024375529155982217,0.024297019954701314
140,0.02437289402312379,0.02428412150413354
141,0.024369986517559155,0.024269435737532808
142,0.024367609791296593,0.02427499122700117
143,0.024360585804160735,0.024278181894332628
144,0.024358907010588196,0.02426992369013546
145,0.024353680404438506,0.02427263327686166
146,0.02435420346919826,0.0242601456732428
147,0.0243474311911888,0.024260456878495526
148,0.024343852296745995,0.0242529820276172
149,0.024343822378101496,0.02424860402597273
150,0.02433701851416388,0.024261175865565775
151,0.024339201224086473,0.0242467719052419
152,0.024333396086915194,0.024254582695427313
153,0.024335245216329446,0.02426240773416832
154,0.02432797169886989,0.024249740082405005
155,0.024326888741470508,0.024233612747800996
156,0.024325714932025386,0.0242559729372087
157,0.024322163834094142,0.02422884193347995
158,0.024320895183351253,0.024234127960283392
159,0.024314201125998892,0.024240901817575954
160,0.024316058867723585,0.02421780420045783
161,0.024310707200387176,0.024238107213863783
162,0.024311490922128323,0.02421471145417955
163,0.024310206444121248,0.024210469041923054
164,0.024309096696843998,0.02422089888038233
165,0.024300289675116157,0.02420495652320998
166,0.024301768564660136,0.02422720823657532
167,0.024300840733240278,0.024223988617423677
168,0.024296660475832545,0.024204984771062085
169,0.024295594910080667,0.024204154588759477
170,0.024296230231646638,0.02420243530081765
171,0.02429031645707649,0.024216554584608557
172,0.024291598024048074,0.024221114051397603
173,0.02429075351356267,0.02419373030349044
174,0.024287481141314685,0.024199534533885275
175,0.024286824225591985,0.02422340033275271
176,0.024282185022262117,0.024217376248293163
177,0.024281437481172664,0.024217920303828137
178,0.024278673239714436,0.02418957353363362
179,0.02427572144226755,0.024193344603006373
180,0.024275318541235213,0.024194198202066853
181,0.024275915586860108,0.024199402760427268
182,0.02427537696625444,0.024190927980299995
183,0.024274343973677382,0.024186022789651845
184,0.02426966786044564,0.024179656964946547
185,0.02427100421513339,0.024201141623515766
186,0.024267412249365742,0.024182111249945074
187,0.02426277284769176,0.02417421530530352
188,0.024266591640092355,0.02419489137647071
189,0.024264342972547936,0.02418047521302638
190,0.024264060244190873,0.02418918893140018
191,0.024263706241694806,0.024183565993934557
192,0.02425952378162343,0.024190328980509768
193,0.024258093884568198,0.02418266653271342
194,0.024258438400846658,0.024175291683068627
195,0.02425613643540393,0.024167245013725438
196,0.02425654643208528,0.024179917047916635
197,0.02425796861907212,0.02417517668248093
198,0.024252770103221896,0.024166826022802478
199,0.02424875284143216,0.024158176839871322
200,0.024252617983721657,0.024180026259650957
201,0.024251206015185225,0.024177850419708314
202,0.024249525068162248,0.024158926523575333
203,0.02425044053812042,0.024159684818047675
204,0.024249434107250934,0.024155753429764573
205,0.024244856835008145,0.02416305131575777
206,0.024244251384364784,0.024155954575802094
207,0.02424482762175288,0.02417990704582942
208,0.024244426473008812,0.02416262618852938
209,0.024239672216668045,0.024151744089857506
210,0.024244742655904414,0.02419402549875672
211,0.024241609188666146,0.024168250009731752
212,0.024242841594631047,0.024156115001969385
213,0.024239352414365097,0.024180987123203587
214,0.024234004621449902,0.024176612902743876
215,0.024236820836523898,0.02414078226000288
216,0.024237229687879808,0.024161170207308447
217,0.02423543373855044,0.02415229476964145
218,0.024234098684284285,0.02416110575646283
219,0.024235083365900884,0.024147590752222725
220,0.024233619204526238,0.02416503073501084
221,0.024230741041960765,0.02416423640673903
222,0.024233710307111925,0.02415512805685268
223,0.024233042840376865,0.024147938927884808
224,0.024229357764721394,0.02414539911227553
225,0.024229053427294506,0.024152310214640645
226,0.02422977685987997,0.02415027606413554
227,0.024231063421245955,0.02414639498842072
228,0.02422990795341227,0.024155917686968436
229,0.02422846162809526,0.02413794399516329
230,0.024223971218646192,0.024148009743145685
231,0.024228061782755404,0.024152656222504034
232,0.024227584296877713,0.02415148439059534
233,0.02422512753503479,0.024144342376126185
234,0.024224557585006145,0.02414816146941564
235,0.024224747723942282,0.02413303803558864
236,0.02422120532481741,0.024143612453380158
237,0.024223510754571333,0.024153276793024255
238,0.02422021178333305,0.02415619413946232
239,0.02422531652566287,0.024137325272181608
240,0.024220847849062293,0.024121885724963932
241,0.02422108239172887,0.0241335997854972
242,0.024217964627976128,0.024143345178152524
243,0.02421944828672682,0.024118104411798187
244,0.024218257480831125,0.0241220991481443
245,0.02422338005623596,0.02413934336586977
246,0.02421545792218921,0.02413148215585913
247,0.024217372873516156,0.024132938700556657
248,0.024220365491077554,0.024145570075304067
249,0.024216063775486046,0.02413479680314793
250,0.024215903368780763,0.02414839625334411
251,0.024217600342903354,0.024138442460456613
252,0.024212553117385474,0.02413032754850842
253,0.02421622704252231,0.024146079551806223
254,0.02421195573472471,0.024141029345244775
255,0.02421104795097398,0.024133188648501357
256,0.024210551185451384,0.024143007086153353
257,0.02421461015170197,0.02413758296679648
258,0.024213334166700597,0.024126633544001557
259,0.024213942321087475,0.024133633690775164
260,0.024209931650884253,0.024131630072241766
261,0.024208111305228226,0.0241229165623392
262,0.02421187915301638,0.024127298488681236
263,0.0242109652116501,0.024123879732671348
264,0.024211236658253317,0.024130410222459014
265,0.024205154587952398,0.024132347145304385
266,0.024208193031953183,0.024118872208328916
267,0.024209008579723256,0.024131691300847233
268,0.024208524372515153,0.024123893780309016
269,0.024206451305133807,0.02412154368409662
270,0.02420574147627056,0.024113111858107363
271,0.02420850957425429,0.02412650031728756
272,0.02420718497704801,0.02412139079612827
273,0.024209409404853232,0.024119755446560386
274,0.024205269205501024,0.024114404178835567
275,0.02420322482792543,0.02413525626015006
276,0.02420554221350494,0.024121035790767305
277,0.024210724078888315,0.024117794522331287
278,0.02419924650421803,0.024122666541882772
279,0.024203521650645425,0.02411587395692442
280,0.02420376814913759,0.02411771971741442
281,0.024201222138406277,0.02412232088600342
282,0.024202541735252922,0.024121640993332052
283,0.02419896579211096,0.02413660350700558
284,0.02419727919750017,0.024151570885007884
285,0.024202317412528065,0.024121126854929707
286,0.024203030209096553,0.024112186534368016
287,0.024204272656046074,0.0241380162969147
288,0.024199344985801473,0.02412089296078063
289,0.024199890142815223,0.02412397942421935
290,0.024198493167901153,0.024114157504493496
291,0.024198835562046668,0.02412107904552688
292,0.024199908875149664,0.024106928723692796
293,0.02420076895192015,0.024111210342137097
294,0.02420303353918992,0.024122195464875384
295,0.024197232565753835,0.024125629242899353
296,0.024199130854683462,0.02410804971430182
297,0.024197374708395752,0.024103155057493594
298,0.024197631914487736,0.024100740599564584
299,0.024197921179252877,0.024123003476715532
300,0.024197744793169874,0.02412334383621703
301,0.024196613982641956,0.024101207686915982
302,0.024195275195628953,0.024126183894211357
303,0.02419402623464099,0.0241207678463168
304,0.02420007256273511,0.02411466560327272
305,0.02419056474202103,0.024107756405851267
306,0.024194033973044256,0.02411847393008044
307,0.02419375828366646,0.024116488137348145
308,0.024193851421889158,0.024105616839903213
309,0.024194360256576845,0.0241053087843789
310,0.02419474683373904,0.024103442608814654
311,0.02419659478949298,0.02412013132170459
312,0.02419613394662559,0.024103424855525284
313,0.024195225542490248,0.0241151410506227
314,0.024195720196319066,0.024111684355869682
315,0.024190008963903397,0.024110180314476183
316,0.02419261475227135,0.024118937094244935
317,0.024192885860347384,0.0241189055652369
318,0.024190904858937448,0.024119722254314465
319,0.02419257555619252,0.02410506249374475
320,0.024189521545906655,0.024104047466948664
321,0.024187311300451608,0.024123221409219315
322,0.024191499947964715,0.024097727605618312
323,0.02419200051334307,0.02411468922094852
324,0.024192631942592115,0.024108701055478198
325,0.02419398979748412,0.024101783695954768
326,0.024194261267948283,0.02411535204163868
327,0.024185048217912786,0.024099468243733616
328,0.024188585437720924,0.024105862456782503
329,0.024192455738448828,0.024107829112459855
330,0.024188682096924565,0.02410239120983101
331,0.02419136583751397,0.024099971546163813
332,0.024187532837410944,0.02415011827407189
333,0.024188432958815172,0.02410716756525701
334,0.024188305915678568,0.02411427586025952
335,0.02418812313187924,0.02411117988871977
336,0.024187056938286204,0.024103522652704254
337,0.024187942977257973,0.024108735456253007
338,0.02418652224578888,0.024098927780550762
339,0.024189377480967222,0.024106045798168177
340,0.02418637879676013,0.02411005971235709
341,0.02418681802757508,0.024109340811394524
342,0.024184213369619473,0.02411700421392869
343,0.02418801322537627,0.02410968481612128
344,0.024189401473149096,0.024120602731057424
345,0.024182728632652254,0.02410978145462318
346,0.024186794235228633,0.024093960584817335
347,0.024184946673180316,0.024091642504045854
348,0.02418850231363928,0.024099680813390457
349,0.024181136801791153,0.024095942597875532
350,0.0241841475506894,0.024100318987644597
351,0.024184021942192217,0.024103891175460836
352,0.024188685840110573,0.024099692208307214
353,0.024179890587794677,0.024092876449807427
354,0.024186696602200106,0.024100738029930038
355,0.024187123816045788,0.024105557763989826
356,0.024182440270129158,0.024099596782866186
357,0.024184027237831068,0.024101766388310422
358,0.024183420215347844,0.024135657157884897
359,0.02418421545297838,0.02410229103033947
360,0.024182841290620635,0.024110150445684705
361,0.024181389486233742,0.0241111882003772
362,0.024181705827208116,0.024090966652392954
363,0.0241814633716551,0.024096268095493027
364,0.024180563284550982,0.02409776386903827
365,0.024184334659285312,0.024097999142420938
366,0.02418186001813679,0.024098702465446133
367,0.02418222985386228,0.024086701062063037
368,0.024178019009703535,0.02409497770538972
369,0.024182003595418125,0.024095767960919178
370,0.02418291011453868,0.024095585285735053
371,0.024179838119064264,0.024110081423578567
372,0.024183956366345537,0.024097274937527217
373,0.024180417829711406,0.024092867579205385
374,0.02418305337566247,0.02409979220803008
375,0.024177714621572137,0.02409434557226936
376,0.024181605624653893,0.024095518360426536
377,0.02417594596170921,0.024102888165973883
378,0.024182051949626547,0.024092237434115045
379,0.024186594259617233,0.02409483874420615
380,0.024176202818834848,0.02408723197182503
381,0.024180145756758337,0.024102391149404566
382,0.024180138589526484,0.02411088858189519
383,0.024177783512599093,0.02409678491531884
384,0.02418189269719456,0.02409217019307836
385,0.024181852813622205,0.024092117354684695
386,0.024178368857412265,0.024118613737234233
387,0.024180393783842402,0.024090209765856768
388,0.02417831661237823,0.02408423477486199
389,0.024178462578736848,0.024092149290060573
390,0.02417950363780519,0.024106185927092787
391,0.024178752086585382,0.024091650570976182
392,0.024176971727402043,0.02409157735225348
393,0.024178944240280206,0.024088217444047152
394,0.024180759448376152,0.02409019875011595
395,0.024176962782529662,0.024104079462750984
396,0.0241778841685113,0.02408560404111386
397,0.02417704478663812,0.02410136236954973
398,0.02417712697119499,0.024088027840971173
399,0.02417448888852703,0.024099018914203574
400,0.024177326456165677,0.024089313774624203
401,0.024177505981454475,0.02409107155723245
402,0.024179256829120713,0.024166687238366256
403,0.024179739076748575,0.024096371300838772
404,0.024173909048135992,0.02409451440677639
405,0.024177272405156238,0.02408510963496694
406,0.024176214536050972,0.02408823419123622
407,0.02417692708058821,0.02409346698536345
408,0.024175636240656228,0.024092911838554602
409,0.024176807898142225,0.02414783328433203
410,0.024175470020827816,0.024083825382679724
411,0.02417754165655236,0.024092030685035466
412,0.02417413961795495,0.024081612531539877
413,0.024172324770755822,0.024095885632355717
414,0.024175917532882566,0.02412134790543802
415,0.024176728239863086,0.02410101093841295
416,0.024171692309520834,0.02408881365968895
417,0.024176839613814272,0.024076236904404653
418,0.02417499741003979,0.024085829776182274
419,0.024175452605319368,0.02408757375134797
420,0.024175034175284677,0.02408304444792932
421,0.024174964170249773,0.024080307368681574
422,0.024172869204484623,0.024092457360691495
423,0.024175013194056013,0.024099919281821376
424,0.024174770288127628,0.024084139650042524
425,0.02417410903567787,0.02409051273498512
426,0.024174280282709484,0.024082534456291726
427,0.02417324232109028,0.024083047877130042
428,0.02417433981129749,0.02408786546302973
429,0.024172775207267846,0.02408489088972748
430,0.02417361810117411,0.024085442484972058
431,0.024173612729478492,0.024091398828366088
432,0.024175497869535195,0.02409207499876848
433,0.02417483528683766,0.024081799648067666
434,0.024174109991607042,0.024087048603247455
435,0.024173544256018104,0.024086559457222524
436,0.02417482454493773,0.024082436568473087
437,0.024170592961142406,0.024101101717060404
438,0.02417313189710303,0.024082944088669105
439,0.02417386697532178,0.024094274143680074
440,0.024173685669409837,0.024087734804439622
441,0.024172793105960464,0.02408772978149143
442,0.024176751675786638,0.024080064507248145
443,0.024169419979373868,0.024101282688218796
444,0.024171458694448558,0.024109976169776354
445,0.024171944670349336,0.02407904054338093
446,0.02417407944959531,0.024081514202608196
447,0.02417160088182975,0.024081164777629373
