epoch,loss,val_loss
0,8.511569023132324,8.324596861134404
1,8.508809160303187,8.321401761925738
2,8.505946936430755,8.317942743716033
3,8.502981115270543,8.314750464066215
4,8.499605390760633,8.311292772707732
5,8.495873486554181,8.307692444842795
6,8.491517349525735,8.303889274597168
7,8.486520484641746,8.29975124027418
8,8.480979283650717,8.295244465703549
9,8.474421430517125,8.290378197379734
10,8.466849821585196,8.284284633138906
11,8.458004880834508,8.276727551999299
12,8.447897134003815,8.267310308373492
13,8.436157155919958,8.254494832909625
14,8.422568992332176,8.239016118256941
15,8.407431920369467,8.221042135487432
16,8.389469358656141,8.200122252754543
17,8.369700149253562,8.175976359325906
18,8.345251542550546,8.147865710051164
19,8.318136850992838,8.115166912908139
20,8.28715055960196,8.077310230420983
21,8.251051478915745,8.0336274271426
22,8.208695906179923,7.983551025390625
23,8.16236863312898,7.92669211263242
24,8.10774905593307,7.861990431080693
25,8.04392366056089,7.7883313220480215
26,7.9728449538902,7.703958801601244
27,7.89110118371469,7.607076914414115
28,7.796773115793864,7.495716426683509
29,7.688919208667897,7.368366863416589
30,7.567555003696018,7.2242858513541846
31,7.434596061706543,7.061844390371571
32,7.279016583054154,6.879872176958167
33,7.101782410233109,6.679088551065196
34,6.9060277409023705,6.458872338999873
35,6.6905407375759545,6.21980034786722
36,6.454096211327447,5.963505848594334
37,6.195978500224926,5.689549715622611
38,5.90963637387311,5.402173208153767
39,5.599261266213876,5.10168398981509
40,5.27208497789171,4.787840573684029
41,4.937510349132396,4.468005470607592
42,4.577945002803096,4.143591030784275
43,4.218124089417635,3.8166899784751562
44,3.875019938857467,3.4943409173384956
45,3.5430534062562167,3.181552451589833
46,3.2112733787960477,2.880688304486482
47,2.914662899794402,2.5950474531754204
48,2.6303895402837685,2.327518307644388
49,2.3879983071927673,2.077888493952544
50,2.169166829850939,1.8487667467283166
51,1.942417648103502,1.6437810814898948
52,1.7486988570955064,1.4600068952726282
53,1.588760428958469,1.298041177832562
54,1.4188070915363453,1.1543688774108887
55,1.2837451961305406,1.0325336508128955
56,1.1811540656619601,0.9296391606330872
57,1.053805117253904,0.8417079707850581
58,0.9264665709601508,0.7663361248762711
59,0.9047243815881235,0.7071048280467158
60,0.8010954017992373,0.6524959336156431
61,0.7236839532852173,0.6055886486302251
62,0.6947241359286838,0.5649824479351873
63,0.6318561500973172,0.529562014600505
64,0.6238678119800709,0.500676919584689
65,0.5814510098210087,0.4774884737056235
66,0.5485718007440921,0.45913327906442725
67,0.5454433361689249,0.4433335402737493
68,0.5136063385892797,0.4307240999263266
69,0.4903714844474086,0.4194910215294879
70,0.4836831379819799,0.41051578262577887
71,0.4819953673415714,0.40406464623368304
72,0.46533518808859364,0.3994605269121087
73,0.4517411799342544,0.39302966128224914
74,0.4499220903272982,0.38860392829646234
75,0.4500977231396569,0.3846909144650335
76,0.4460469793390345,0.3811568682608397
77,0.4191821570749636,0.37565394328988116
78,0.4294342409681391,0.37273131634878076
79,0.4265685710642073,0.3708854045556939
80,0.4114795514830836,0.36940171407616657
81,0.41434650509445753,0.3661948597949484
82,0.4060527715418074,0.36554988959561224
83,0.4081909049440313,0.3635336005169412
84,0.40380304941424616,0.36134531705275824
85,0.3997606811700044,0.3587666827699412
86,0.38883123022538646,0.3552064208880715
87,0.3937773859059369,0.35215881855591485
88,0.3947819360980281,0.34957759017529694
89,0.3925310163586228,0.34733457021091296
90,0.38992729120784336,0.345258891582489
91,0.3842567205429077,0.34308482253033185
92,0.3858788819224746,0.3412877645181573
93,0.3795413948871471,0.3406921236411385
94,0.3757119454719402,0.3374638842499774
95,0.3799653704519625,0.33612080760624097
96,0.377425914561307,0.3353480359782343
97,0.37725252354586564,0.3327707764895066
98,0.3684477452878599,0.33416653456895246
99,0.3711874076613673,0.3324844940848973
100,0.3630700409412384,0.33127783303675445
101,0.36740112746203385,0.3287854687027309
102,0.36712915257171347,0.3276872829250667
103,0.3711463643444909,0.327557235956192
104,0.35535028797608836,0.3257755092952562
105,0.3575518473430916,0.32536136974459107
106,0.34905476923342105,0.323626045299613
107,0.34748041850549205,0.3213933835858884
108,0.3514235759222949,0.3215070833330569
109,0.3498102305112062,0.32293980277102924
110,0.34349012264498957,0.3231929916402568
111,0.3375377047944952,0.3206362309663192
112,0.3432440018212354,0.3183099161023679
113,0.3367100346971441,0.31822039640468097
114,0.33965157910629556,0.31649695531181665
115,0.3354312667140254,0.31517152812169946
116,0.3347384984846468,0.31546459249828174
117,0.3328265271804951,0.3142097955164702
118,0.3350143642337234,0.3162145303643268
119,0.3324900170167287,0.31512308768604114
120,0.33196297508698924,0.313184327405432
121,0.3304281124362239,0.311988291533097
122,0.3342109576419548,0.31129289062126825
123,0.33204080550758924,0.30971275853074115
124,0.32767217578711333,0.3092633369176284
125,0.3344311603793391,0.30847089705259906
126,0.3242118038513042,0.30765779510788294
127,0.3165688459519987,0.3096005061398382
128,0.31676288335411634,0.30832482291304547
129,0.31750882665316266,0.3078425189723139
130,0.32115781859115317,0.30624815821647644
131,0.31863332677770545,0.3075985467952231
132,0.30995434191491866,0.30572014010470844
133,0.3176613549391429,0.30481064837911853
134,0.32091461177225467,0.3029572600903718
135,0.3074600221934142,0.30109189515528473
136,0.3085608349906074,0.3001879660979561
137,0.30951141979959274,0.2993096514888432
138,0.31436876235184846,0.29806108060090436
139,0.30914636452992755,0.298879105111827
140,0.3067466980881161,0.2998355814944143
141,0.3133517558927889,0.2990983737551648
142,0.30596661788445934,0.2973882374556168
143,0.30841322519161085,0.29719913135404175
144,0.30493484492655154,0.2971951637579047
145,0.30413762507615266,0.29645521161348926
146,0.3017544580830468,0.29667053792787634
147,0.3036864223303618,0.29521159892496857
148,0.3055087791548835,0.29434583757234656
149,0.30494507484965855,0.2945053564465564
150,0.2978013080579263,0.29353596853173297
151,0.3060835831695133,0.29422984563786053
152,0.2980721714320006,0.2941498989644258
153,0.2990477504553618,0.2932036791158759
154,0.2991351043736493,0.2926702434601991
155,0.28880689210361904,0.29085431280343427
156,0.29150698251194423,0.28865866168685583
157,0.2863843584502185,0.28868013685164245
158,0.2909122274981605,0.2867607487284619
159,0.28939661935523703,0.2867055872212286
160,0.28977915423887746,0.285424029049666
161,0.28440303824566027,0.28610966905303625
162,0.2854732462653407,0.28447813637878583
163,0.2880022845886372,0.2835812244726264
164,0.2807320842036494,0.2827996559765028
165,0.2811044222778744,0.28221435650535254
166,0.27884974192689965,0.28288864830265875
167,0.2906176182958815,0.2810025798237842
168,0.2782306240664588,0.2798458402571471
169,0.2788896715199506,0.2791751545408498
170,0.27883050397590353,0.27622951761535974
171,0.27920841839578414,0.2743283186269843
172,0.27958083815044826,0.2732491298862126
173,0.28329862157503766,0.2730787849944571
174,0.2774964924211855,0.27222758790721063
175,0.27661053670777214,0.2710919606944789
176,0.2794589267836677,0.27175740703292517
177,0.27556318375799393,0.2705260450425355
178,0.2771126053951405,0.2700440585613251
179,0.27334385337652983,0.26871823098348535
180,0.27797335386276245,0.26741380795188574
181,0.2704170953344416,0.2668739622053893
182,0.2748630819497285,0.2665731608867645
183,0.27449576943008985,0.2658833641072978
184,0.26796741838808413,0.262845894564753
185,0.26470215728989355,0.26049628594647284
186,0.26850598498626993,0.25995673822320026
187,0.2705204806945942,0.25980464012726495
188,0.2697366420869474,0.2587662792724112
189,0.27499417684696337,0.2580010631810064
190,0.2662404576937358,0.257069679705993
191,0.26167070534494186,0.25764058659905975
192,0.2708210602954582,0.25809658480727155
193,0.26313757786044367,0.26095969262330426
194,0.2647985540054463,0.2602304025836613
195,0.27215093263873347,0.2593850661879
196,0.26717798522225134,0.25876249437746796
197,0.2661429665706776,0.2578512948492299
198,0.26116018604349206,0.25748532362606213
199,0.2680212976755919,0.2563616361307061
200,0.2619145209038699,0.25544599087341974
201,0.26400021491227327,0.25454278873360675
202,0.2582318297138921,0.25358217306759046
203,0.2597172028488583,0.25200263184049854
204,0.26000161634551155,0.25128426888714667
205,0.2597635609132272,0.25142134855622833
206,0.25717068270400717,0.2505763386902602
207,0.25815842107490256,0.24979801799940027
208,0.2568008601665497,0.24911210718362228
209,0.26115123044561456,0.2484059418025224
210,0.2527869465174498,0.24764317921970203
211,0.25482377796261396,0.24680093060369077
212,0.25824447472890216,0.24607211545757626
213,0.25358917978074813,0.24527985570223435
214,0.2528444087063825,0.24450505168541617
215,0.252471966875924,0.2437668624131576
216,0.24961611518153437,0.24301510401394055
217,0.25373833378156024,0.24237492810124936
218,0.25343332798392687,0.24328849626624066
219,0.2519919877802884,0.24255603292713995
220,0.25653070321789495,0.24234480896721716
221,0.25360499487982857,0.24268810386243073
222,0.2465408361620373,0.24201057397800943
223,0.25012959484700803,0.2412860587887142
224,0.2493526256746716,0.23964118309642957
225,0.25041417832727786,0.23931855935117471
226,0.24993562974311687,0.23856116896090301
227,0.24165932447822006,0.23793157740779544
228,0.2500625396216357,0.23705680150052774
229,0.24219175621315284,0.2362831649572953
230,0.24093714742748826,0.23597161083117776
231,0.2426031700990818,0.25342931566031085
232,0.2383225460847219,0.23566310885159866
233,0.24102244774500528,0.23420858966267627
234,0.24037993285391066,0.23334396274193472
235,0.24323690544675897,0.23306503438431284
236,0.24471071307305936,0.23249713104704153
237,0.24018761736375313,0.2334606012572413
238,0.23765278414443688,0.23289384660513504
239,0.23627419217869086,0.23218310203241266
240,0.236817948796131,0.23161130884419318
241,0.2342953825438464,0.23067978024482727
242,0.2372704909907447,0.2299856115942416
243,0.2369032347643817,0.2291149218445239
244,0.23210145864221784,0.22838919059089993
245,0.23854941957526737,0.22771146893501282
246,0.2367894627429821,0.2271538927503254
247,0.2351850790006143,0.22649271462274634
248,0.2311493980663794,0.22584015260572018
249,0.2286676957651421,0.2305548923171085
250,0.22897484512240798,0.22965914334939874
251,0.2287618103954527,0.22895925977955695
252,0.2269362294011646,0.22805210364901501
253,0.2298202293890494,0.2274433678906897
254,0.23504704512931682,0.22673455593378647
255,0.22189187010129294,0.22599031484645346
256,0.22481173994364562,0.22536121632741846
257,0.22319177510561766,0.22460397818814154
258,0.22224764249942922,0.22387604998505634
259,0.22315703277234678,0.22320134484249612
260,0.22337261394218164,0.22244557543941165
261,0.22626858397766395,0.2216937023660411
262,0.2230538229147593,0.32349524808966595
263,0.2187185502714581,0.22076943970244864
264,0.21968343081297698,0.2201206826645395
265,0.22716272373994192,0.21965687236060266
266,0.217849165753082,0.21897038039953812
267,0.2184556496364099,0.21853713756022247
268,0.21793896070233099,0.2167202661866727
269,0.2162966248061922,0.21587058318697888
270,0.21320405105749765,0.21431436616441477
271,0.2157107409503725,0.21438302941944287
272,0.21672291888131034,0.21363882526107456
273,0.22075543138715956,0.21297280231247778
274,0.21510200092086085,0.21153719140135724
275,0.21027732061015236,0.21093478669290958
276,0.21310521220719372,0.20993275940418243
277,0.21155077936472716,0.20563245014004086
278,0.21366628066257196,0.20858205271803815
279,0.21008559399180943,0.20792196496673251
280,0.21018421981069776,0.20723611634710562
281,0.20946613230087138,0.2064503761737243
282,0.20617730639598988,0.20474383818066638
283,0.20874426596694523,0.20418254966321198
284,0.20751247582612214,0.20348473735477612
285,0.2038310926269602,0.2026924607546433
286,0.2068345038979142,0.20196962874868643
287,0.2034020114828039,0.20142598450183868
288,0.20296693400100427,0.20103460615095886
289,0.20795367713327761,0.2004135885964269
290,0.2010939860785449,0.1998376094776651
291,0.19976702829202017,0.19917994608049808
292,0.2006881982088089,0.1986646665179211
293,0.19627668736157594,0.1980147562597109
294,0.19971167544523874,0.19732317263665405
295,0.19725306773627246,0.19665408911912338
296,0.19798683844230794,0.19603700547114664
297,0.1964151147339079,0.19490499017031296
298,0.1936829283281609,0.19433583319187164
299,0.1943957375155555,0.19379845196786133
300,0.19596348151012702,0.19335041616273962
301,0.19981014287030255,0.19302712963974994
302,0.19653553046562053,0.19260171638882678
303,0.19188487971270526,0.19178198990614517
304,0.19484495840690755,0.1912219718746517
305,0.19093119766977099,0.1906208564405856
306,0.19010621419659368,0.1901345343693443
307,0.18820848453927924,0.18963004389534827
308,0.1892877408751735,0.1890343848777854
309,0.18885217275884417,0.18839865210263626
310,0.18676896503678075,0.18785260099431741
311,0.18573386194529357,0.18730255313541577
312,0.18672147889931998,0.18655539465987164
313,0.1874231525041439,0.18603120031564133
314,0.18591210632412522,0.18560863124287647
315,0.18546763669561456,0.18493686422057773
316,0.18351507131700162,0.1845550679642221
317,0.18404509513466447,0.1840493821579477
318,0.18205575976106855,0.18299332066722537
319,0.18341017486872496,0.18244377167328543
320,0.18195304605695936,0.18192540238732877
321,0.17949672043323517,0.18151969624602277
322,0.18076958700462623,0.18094320660052093
323,0.1798322570544702,0.18049684944360153
324,0.18047775052211903,0.18002218850280927
325,0.1816848792411663,0.17905759422675424
326,0.17945097938731866,0.17850447154563406
327,0.17536877537215198,0.17809654577918674
328,0.1754495253165563,0.17754421026810355
329,0.17552059171376405,0.17689030196355737
330,0.17550513093118314,0.17634365610454394
331,0.17409962194937248,0.1758551493934963
332,0.1794199032915963,0.17516324960667154
333,0.17395500507619646,0.17459858111713245
334,0.17465433092029006,0.17416507005691528
335,0.17376875380674997,0.17340400167133496
336,0.17240641514460245,0.17266084772089255
337,0.17047153965190606,0.17217250621837119
338,0.17189694278770024,0.1717375795478406
339,0.17078274212501668,0.17092663632786792
340,0.17199671213273648,0.17041272896787393
341,0.16642344384281724,0.16971656680107117
342,0.1673216047110381,0.16922230046728384
343,0.16965737883691434,0.16865168187929236
344,0.16758877756419005,0.16834505420664084
345,0.16760130612938492,0.16738071584183237
346,0.1651987306497715,0.16713856031065402
347,0.1627974388776002,0.16649859690147897
348,0.16688806536021056,0.16593979428643765
349,0.16643072775116674,0.1657667347918386
350,0.16277230944898394,0.16477148234844208
351,0.16200691185615682,0.16428622085115183
352,0.16397042075792947,0.16384790513826453
353,0.15955261334224982,0.1630143393640933
354,0.16101217214707975,0.16230712507082068
355,0.15923112686033603,0.16156303947386536
356,0.15980814397335052,0.16099200818849646
357,0.15741449152981793,0.16041326911553092
358,0.16259723073906368,0.16012446711892667
359,0.1585111849837833,0.1593631000622459
360,0.1576348935012464,0.15888650261837503
361,0.1578509156350736,0.1583137466855671
362,0.15502660197240334,0.1578657698372136
363,0.15428291592333052,0.1573271913372952
364,0.1576297570157934,0.15670097716476605
365,0.15617404657381553,0.15628672617933023
366,0.15615881041244226,0.15584308492100757
367,0.15545760150308963,0.15532743088577106
368,0.1528265702503699,0.15474113821983337
369,0.15203750630219778,0.15421975177267325
370,0.1528549713117105,0.15369913759438888
371,0.1503100433835277,0.15353962325531503
372,0.1541367554002338,0.15295211258141891
373,0.151690239155734,0.1523736993903699
374,0.15070318954962272,0.15188610165015512
375,0.1522351696535393,0.15167484011339105
376,0.1496080551986341,0.15132910531500113
377,0.1521102018930294,0.1512087019889251
378,0.1505378865533405,0.1507769499136054
379,0.1510971795629572,0.15021644208742224
380,0.155145060133051,0.15108898800352347
381,0.1534021038700033,0.15047121242336606
382,0.1489834470881356,0.1502017450073491
383,0.14795908994144863,0.14990854004155035
384,0.14971333300625836,0.14979259021904157
385,0.14920851864196635,0.14951704701651697
386,0.14510268524841027,0.14912141729956088
387,0.14622894260618421,0.14876408162324326
388,0.150447522048597,0.14841561408146567
389,0.14764265329749496,0.1483758253895718
390,0.15400311792338336,0.14825242563434268
391,0.1485375381178326,0.14907881390789282
392,0.14784835278987885,0.14834158511265463
393,0.14726865401974432,0.14462371559246726
394,0.14638082131191535,0.1442350097324537
395,0.14267205088226884,0.14421733565952466
396,0.14552285605006748,0.14498801399832187
397,0.14179277199286003,0.14482835777427838
398,0.14419506710988503,0.14459229681802832
399,0.14387330412864685,0.14418235809906668
400,0.1446984421323847,0.14398187917211783
401,0.14443785504058557,0.14355387959791266
402,0.14228258033593497,0.14349579811096191
403,0.14167065256171757,0.14329809015211853
404,0.14317821518138604,0.1431606262922287
405,0.1405094917173739,0.14281424491301828
406,0.14326087247442315,0.14239888541076495
407,0.14030807382530636,0.14218176123888596
408,0.14456291827890608,0.14245047517444775
409,0.14159689126191316,0.1422372570504313
410,0.1407725402602443,0.14174237814934357
411,0.14046482465885304,0.14147579151651132
412,0.14033017776630544,0.14114977678527002
413,0.1388320067414531,0.1407269615194072
414,0.13774345925560705,0.1404628786055938
415,0.14395358827379015,0.14054100345010342
416,0.14008115728696188,0.14030580416969632
417,0.1436966828725956,0.1404452505319015
418,0.13865276619240088,0.140149910164916
419,0.13691624833477867,0.13993473869303
420,0.13723805160434158,0.1394373690304549
421,0.13811558485031128,0.13947766371395276
422,0.14470162987709045,0.13937316154656204
423,0.13953359425067902,0.13921621053115182
424,0.13968349662091997,0.13930667353712994
425,0.14009871085484824,0.13893905087657596
426,0.13667897714508903,0.1387004606101824
427,0.13823392049030023,0.1389672587747159
428,0.1359908194453628,0.13867538260376971
429,0.1352259439450723,0.13845885868953622
430,0.13911203708913591,0.13848436332267264
431,0.13554086094653164,0.13805781693562216
432,0.13619348737928602,0.13776250054006992
433,0.13634576234552595,0.1373997246441634
434,0.1332306409323657,0.1374024211064629
435,0.13267379833592308,0.137268895364326
436,0.14402328983501153,0.13705913787302765
437,0.1355602123119213,0.13695824729359668
438,0.13782510796078928,0.13687273536039435
439,0.1364365010349839,0.13715723480867303
440,0.1371103447896463,0.13664124970850738
441,0.13499794762443612,0.1364474691774534
442,0.13585472327691536,0.13640591340220493
443,0.13472505962407147,0.13603743489669717
444,0.13360215999461986,0.13598562906617703
445,0.13391691943009695,0.13457564491292703
446,0.13602910604741839,0.13421579158824423
447,0.13354281860369224,0.13403355168259662
448,0.1338911602894465,0.13391257433787637
449,0.13464073450477035,0.13398958418680273
450,0.14083653302104385,0.13403463493222775
451,0.13254015534012406,0.13352000907711362
452,0.1333918085804692,0.13303288169529126
453,0.1316140862526717,0.13293367494707523
454,0.13531579463570206,0.1327852250441261
455,0.1330878425527502,0.13269945460817087
456,0.13175088305164268,0.132667807781178
457,0.1329822854863273,0.13258994986181674
458,0.1334993165952188,0.13286831910195557
459,0.1318480725641604,0.1321720876123594
460,0.13081869758941508,0.1322211513052816
461,0.13042659560839334,0.13182282188664313
462,0.13124931079370003,0.13152486280254697
463,0.13058004114362928,0.13139782295278882
464,0.1325967218037005,0.13134349072756973
465,0.13558298514948952,0.13207725791827493
466,0.13011069264676836,0.131966774230418
467,0.12920110865875525,0.13185778908107593
468,0.13170845282298546,0.13166027418945148
469,0.12954188772925623,0.13161042462224545
470,0.1302329671603662,0.13154236130092456
471,0.13320017247288315,0.13142017566639444
472,0.13213056767428363,0.13099780743536743
473,0.13400572483186368,0.13092550052248914
474,0.13057662298281988,0.13058311200660208
475,0.13048929196816902,0.13041940331459045
476,0.13094532213829183,0.130256617522758
477,0.12831385102536944,0.13017026302607163
478,0.1275856359689324,0.13015419309553894
479,0.12954077069406156,0.13010779606259387
480,0.1296493353115188,0.13022114077340002
481,0.13513605131043327,0.1301516223212947
482,0.12945623530281913,0.12989236090494238
483,0.12876087896249913,0.1297320289456326
484,0.12966262024861794,0.12947058353735053
485,0.13044628942454303,0.13013596897539886
486,0.13127329172911467,0.1298365029303924
487,0.12911154440155737,0.12937721253737158
488,0.1272054358764931,0.12929752209912176
489,0.12858080091299834,0.12914595169865567
490,0.12918881354508577,0.129096248227617
491,0.13137733384414954,0.12890900606694428
492,0.12743993407046353,0.12899195985949558
493,0.12768489701880348,0.12902051339978757
494,0.1267622000089398,0.1292521208524704
495,0.12897355357805887,0.1289213341863259
496,0.13053095395918246,0.12901265660057898
497,0.12719152647036094,0.12876149817653323
498,0.1263623375583578,0.12847247395826422
499,0.12928210033310783,0.12839929370776468
500,0.12694567607508767,0.12806595149247543
501,0.12993447261827965,0.12803846208945566
502,0.1327371072989923,0.12797885809255682
503,0.12687368249451672,0.12777477438035217
504,0.13183574433679934,0.12758608615916708
505,0.12776834931638506,0.12751619614984677
506,0.1280008046715348,0.13063494213249371
507,0.12954814732074738,0.13061765872913858
508,0.12765418517368812,0.13023265515980514
509,0.1271573034701524,0.13014521028684534
510,0.12688245541519588,0.12995166947012363
511,0.13182015717029572,0.129817062098047
512,0.12593463173619024,0.1296591473662335
513,0.12822021626763874,0.1294716583645862
514,0.12536599983771643,0.12941626556541608
515,0.12500246972949416,0.12929465265377707
516,0.12530112100972068,0.12924805542697076
517,0.1255153461738869,0.12927937507629395
518,0.12630386926509715,0.12910971175069394
519,0.1263626112982079,0.1290175454772037
520,0.12490063740147485,0.12893270053293393
521,0.12521560904052523,0.12875154096147287
522,0.12633457310773707,0.12854820749034052
523,0.12394551601674822,0.12852986480878748
524,0.12627466878405325,0.1284316172418387
525,0.12428502904044257,0.12834522840769394
526,0.1279334983340016,0.12818976588871167
527,0.1261450364081948,0.1278853766296221
528,0.1251382096498101,0.12767442121453906
529,0.12538098240340198,0.12751411776179852
530,0.12487333599064085,0.1280942494454591
531,0.12399382282186437,0.12828770409459653
532,0.1268582421320456,0.12738411614428397
533,0.1259320425214591,0.12779520160478094
534,0.12302894448792492,0.1262883978045505
535,0.12635600511674527,0.12630642529415048
536,0.12351562165551716,0.1260220998007318
537,0.12458759767037851,0.12593667273936066
538,0.12457566184026224,0.12590789762528046
539,0.12447294096151988,0.12670181400102118
540,0.12457299673998798,0.1265843131619951
541,0.12621249589655134,0.1264230625137039
542,0.12424164679315355,0.12663110118845236
543,0.1247021754582723,0.12658750686956488
544,0.12447796458447422,0.12629648783932562
545,0.12263047667565169,0.12602455071780994
546,0.12239219137915859,0.12604236149269601
547,0.12180142987657476,0.1259920966366063
548,0.12593390654634545,0.12584977629392044
549,0.125771920438166,0.12582064290409503
550,0.12367896846047154,0.12590725460778113
551,0.12473884997544465,0.12573364700960077
552,0.12637752570487834,0.12574352421190427
553,0.1229092671915337,0.12548390419586844
554,0.12356024787381843,0.1252905046162398
555,0.1238076052180043,0.12515322540117346
556,0.12551612103426898,0.12511650181334952
557,0.12311581218684162,0.12495427189961723
558,0.12382748336703689,0.12478222309247307
559,0.12443001982238558,0.12472257989904155
560,0.12387823672206313,0.12469890065815138
561,0.12169208763926118,0.12481140442516493
562,0.12457612432815411,0.12471584263055221
563,0.12232520072548478,0.1246142011621724
564,0.12204768508672714,0.1242254596689473
565,0.12149234336835367,0.12412638379179913
566,0.1225818368019881,0.12429628424022508
567,0.12345665196577708,0.12417667585870494
568,0.12983787887626225,0.12438453215619792
569,0.1216552726648472,0.1242425351039223
570,0.12189564136443315,0.12413178513879361
571,0.12415911174482769,0.12400164552356886
572,0.12262823681036632,0.12393556470456331
573,0.1215187308413011,0.12408730290506197
574,0.12235682678443414,0.12410521248112553
575,0.12296773852021606,0.12370504633240077
576,0.12129838875046482,0.12358778196832408
577,0.12444869456467805,0.12356972564821658
578,0.12371866984499826,0.12352792886288269
579,0.12201656290778408,0.12346523805804875
580,0.12892762074867883,0.12338146761707637
581,0.12077667205422013,0.1231799462567205
582,0.13013621005747053,0.12291314485280411
583,0.12093153264787462,0.12443961786187213
584,0.12194233884414037,0.12430126738289128
585,0.12320030039107358,0.12385091574295708
586,0.12264395670758353,0.12366469625545584
587,0.1206432572669453,0.12363255542257558
588,0.12419946491718292,0.12332618819630664
589,0.12099770539336735,0.12337383239165596
590,0.12023809966113833,0.12322636531746906
591,0.1199815505080753,0.12313188288522803
592,0.12658101706593125,0.12301633766163951
593,0.12650945699877209,0.1229566841021828
594,0.12124679927472715,0.1233317524842594
595,0.12226666896431534,0.12321580978839294
596,0.12158685039590907,0.12300609116968901
597,0.12035110979168503,0.1228869074712629
598,0.12047826360773158,0.12262366355761238
599,0.11989405640849361,0.12220868824616722
600,0.11975887969688133,0.12225103864203328
601,0.12137607374676952,0.12210224892782129
602,0.12073381907410091,0.12197860881038335
603,0.125206693455025,0.12213161976441093
604,0.12266736036097561,0.1220113473094028
605,0.12452430416036535,0.12166795652845631
606,0.12172362705071767,0.12147163696911024
607,0.12085623542467754,0.12163465502469437
608,0.12037570526202519,0.12107629296572311
609,0.11982175818196049,0.12104236755682074
610,0.11882095508001468,0.12096117177735204
611,0.11896682723804756,0.12085147558347038
612,0.12062698851029079,0.12079844267471977
613,0.1213289921482404,0.12052888585173566
614,0.12249343152399417,0.12048626917859782
615,0.11983426301567643,0.12038528141768082
616,0.11890173151537224,0.12024442203666853
617,0.12210748455038777,0.12020352547583373
618,0.1201304520169894,0.12007070429947066
619,0.12053639828054993,0.1199954048446987
620,0.11990181218694758,0.11981359286152798
621,0.11966007782353295,0.11971604435340218
622,0.12183059089713627,0.11968944675248602
623,0.12401025383560746,0.1199347286120705
624,0.12114591813749737,0.11972436794768208
625,0.11805281374189588,0.11953281514022661
626,0.12479486813147862,0.11952207496632701
627,0.11803890350792143,0.11937252205351125
628,0.11915507305551458,0.11922021987645523
629,0.12017201935803448,0.1190039768167164
630,0.11850324852599038,0.1189248215245164
631,0.1191661603472851,0.11895470774692038
632,0.11975102568114246,0.11896045894726463
633,0.11871451415397503,0.11911371998164964
634,0.11765624444793772,0.11910393186237501
635,0.11837369175972762,0.11898882751879485
636,0.11824920525153478,0.11983703465565392
637,0.11802334697158248,0.1195288893321286
638,0.12126057125903943,0.11933241460634314
639,0.11831237044599321,0.12041204098774039
640,0.11768129771506344,0.12099148106315862
641,0.11869802463937688,0.12089887909267259
642,0.12148249397675197,0.12085525561933932
643,0.11794677514720846,0.12140309778244598
644,0.11812227246937929,0.12157201345848001
645,0.12437150792943107,0.12130443168723065
646,0.11767449395524131,0.12123491615056992
647,0.1173819891280598,0.12111899515856868
648,0.11892022633994068,0.12095937100441559
649,0.11891410168674257,0.1206677478292714
650,0.11799478006583673,0.12052727911783301
651,0.11965254114733802,0.12046814483145009
652,0.11920752183154777,0.12033278916193091
653,0.11758082387623964,0.12039397851280544
654,0.11855258378717634,0.12049745897883954
655,0.11801799055602816,0.12038772779962291
656,0.12079568372832404,0.12039397138616313
657,0.1180975795895965,0.12021232461151869
658,0.11667066591757315,0.12007996180783147
659,0.11816970728061817,0.11990642936333366
660,0.12206684880786473,0.11982924847499184
