epoch,loss,val_loss
0,8.729969625119809,8.804533046224844
1,8.729003235145852,8.798155369965926
2,8.72758777053268,8.792941217837127
3,8.72651697088171,8.788620243901791
4,8.725466975459346,8.784979986107867
5,8.724615061724627,8.781850068465523
6,8.723853252552173,8.779103818147078
7,8.72311524991636,8.776618957519531
8,8.72240889513934,8.774294811746348
9,8.721600179319028,8.772062218707541
10,8.720814033790871,8.76984218929125
11,8.719837188720703,8.767565436985182
12,8.71866840786404,8.765182743901791
13,8.717204941643608,8.762701241866402
14,8.715429411994087,8.760674227838932
15,8.713254610697428,8.758046564848527
16,8.710707876417372,8.754146202750828
17,8.707621115225333,8.749148037122643
18,8.704020535504377,8.74305472166642
19,8.699670120521828,8.7364966765694
20,8.694686430471915,8.729371112325918
21,8.688867145114475,8.721392237621805
22,8.681999701040763,8.712409392647121
23,8.673990390918872,8.702487489451533
24,8.664224765918872,8.691654785819676
25,8.654218426457158,8.679703836855682
26,8.643011728922525,8.6662481142127
27,8.628566000196669,8.650059451227603
28,8.610663025467485,8.631312080051588
29,8.589395664356372,8.609481438346531
30,8.564269948888708,8.584903260935908
31,8.535449275264034,8.55670331872028
32,8.500778798703793,8.524150558139967
33,8.46236585687708,8.486428343731424
34,8.41537351961489,8.442914382271145
35,8.36107822700783,8.392157347305961
36,8.297626813252768,8.333532955335533
37,8.222787574485496,8.265544704768969
38,8.139475645842376,8.185828540636146
39,8.045434810497143,8.094355645387068
40,7.927328356990108,7.989803272744884
41,7.792675265559444,7.8705226234767744
42,7.636529375005652,7.733655680780825
43,7.464139655784324,7.575978424238122
44,7.259694470299615,7.394068904544996
45,7.027132104944299,7.182499947755233
46,6.753737255379006,6.9394900487816855
47,6.451821609779641,6.663974886355192
48,6.101099243870488,6.360038550003715
49,5.738167109312834,6.022249512050463
50,5.348693635728624,5.658164874367092
51,4.931746129636411,5.274201621179995
52,4.523825327555339,4.883849040321682
53,4.146196047465007,4.506406120632006
54,3.8485917073708995,4.157638860785442
55,3.561418727592186,3.84849562852279
56,3.3200240400102405,3.5751909276713496
57,3.1114568975236683,3.339311993640402
58,3.0783870308487504,3.134685049886289
59,2.7786807925612838,2.9500561900760816
60,2.635086836638274,2.791990342347518
61,2.4853753955275923,2.649269674135291
62,2.339802794986301,2.5221293801846714
63,2.1788008213043213,2.401764102604078
64,2.039095260478832,2.2818850952646006
65,1.950143090000859,2.1611391150433086
66,1.836026739191126,2.043564039727916
67,1.7248795650623463,1.930393986080004
68,1.6642136882852625,1.8209039698476377
69,1.5969196293089125,1.723193267117376
70,1.5515398449367948,1.6236569933269336
71,1.4911748170852661,1.5440707414046577
72,1.4398657348420885,1.4739082222399504
73,1.388171187153569,1.4173815924188364
74,1.3100212768272117,1.3788752555847168
75,1.2805094939691049,1.3282270846159563
76,1.2234482323681866,1.2795753841814788
77,1.2010240775567513,1.2350568512211675
78,1.128693872027927,1.185269454251165
79,1.0859624059111983,1.1371535684751428
80,1.0663787832966558,1.0946541402650916
81,1.0603938941602353,1.051446582960046
82,0.9867465098698934,1.0107074716816777
83,0.9929860145957382,0.9730652959450431
84,0.982860697640313,0.9437538281730984
85,0.9073557919926114,0.9110815006753673
86,0.850829025109609,0.8753197141315626
87,0.8255110647943285,0.8421210387478704
88,0.8096247182952033,0.8059137489484705
89,0.7942029016989248,0.7816453420597574
90,0.7809647983974881,0.7486323014549587
91,0.7243402975576895,0.7227933665980464
92,0.711186013839863,0.6986760030622068
93,0.7328835218041031,0.6785234057384989
94,0.6685748519720854,0.6540166735649109
95,0.6563576217050906,0.63514978211859
96,0.6312039428287082,0.6153937526371168
97,0.5987802699760154,0.5951362174490223
98,0.5807131219793249,0.5765369223511737
99,0.5643064975738525,0.5600267959677655
100,0.5537477820007889,0.545492304408032
101,0.5270516342586942,0.5313360846560934
102,0.5133334619027597,0.5185345307640408
103,0.5021923603834929,0.5061576029528743
104,0.4890012597596204,0.493651587030162
105,0.4847404294543796,0.48057861172634625
106,0.4615168450055299,0.4682282066863516
107,0.45277892770590605,0.4632317540438279
108,0.4434096658671344,0.4539657921894737
109,0.43319196391988685,0.4452564897744552
110,0.4311733963312926,0.44235519222591235
111,0.4194587943730531,0.4349154506040656
112,0.4109557370344798,0.4270564719386723
113,0.4101521129961367,0.422874857550082
114,0.3993747466140323,0.4176697225674339
115,0.39451744269441674,0.41146176146424335
116,0.3835363443251009,0.3925699708254441
117,0.3880253180309578,0.3944964823515519
118,0.38001113798883224,0.3894533566806627
119,0.37667007909880745,0.3656343610390373
120,0.3647266317296911,0.3624143367228301
121,0.36200464654851844,0.3603022474309672
122,0.3648004752618295,0.3549936387849891
123,0.35074405979227136,0.3516648476538451
124,0.3457207834279096,0.3476253294426462
125,0.3480473944434413,0.34719018832496973
126,0.3424494608684822,0.34377562546211743
127,0.33887409501605564,0.3401342125042625
128,0.3354557951291402,0.3381852857444597
129,0.3344448319187871,0.33473562805548956
130,0.33158960386558817,0.331261132074439
131,0.32871608049781237,0.32499138168666675
132,0.33771585314362135,0.302167217368665
133,0.32401573106094644,0.2988831841427347
134,0.3180555855786359,0.2951789835224981
135,0.31244482486336317,0.29101247696772864
136,0.30337381804430924,0.28815930304319964
137,0.30289036256295665,0.2857972195614939
138,0.3025036807413454,0.2832483234612838
139,0.2962716155582004,0.2806350420350614
140,0.3054591406274725,0.2780189242051995
141,0.2899913677462825,0.27611133197079535
142,0.2923754398469572,0.2738049276497053
143,0.2868842421858399,0.27076214940651605
144,0.28250786551722773,0.2720581591129303
145,0.2800233132309384,0.27135638827862946
146,0.2851638517997883,0.26887097306873486
147,0.27865767699700816,0.2697037166875342
148,0.2743232515123155,0.2737904761148536
149,0.2718213575857657,0.2714923024177551
150,0.2726848279988324,0.2730452113825342
151,0.26924959708143165,0.27776533106099005
152,0.26607980330785114,0.28238673572954925
153,0.26930371313183393,0.27976503061211627
154,0.2604625059498681,0.2778752543356108
155,0.25963639109222975,0.2759897151718969
156,0.2661536126225083,0.2497207224369049
157,0.25818649155122264,0.24829040856465048
158,0.25693988137775,0.24682047898354736
159,0.2579842209815979,0.24161246613315915
160,0.25545641669520625,0.24051930593407672
161,0.24647474178561457,0.23862404343874558
162,0.2527151516190282,0.23769818311152252
163,0.2464802728758918,0.23688491531040357
164,0.2482351693842146,0.23597530113614124
165,0.24667348188382607,0.23498540404050247
166,0.24479078142731278,0.23399172010629074
167,0.25039417545000714,0.23423987432666446
168,0.2433818468341121,0.23384578461232391
169,0.24215301705731285,0.23259749814220096
170,0.23535902522228383,0.2323396711245827
171,0.23204267024993896,0.23152450115784354
172,0.23489327121663978,0.23058881772601086
173,0.23801679522902877,0.22980477045411649
174,0.2320394499434365,0.2277301064004069
175,0.23635779983467525,0.2278651193432186
176,0.23176999555693734,0.22424177112786667
177,0.23397962362677963,0.22320636718169504
178,0.23424693059038232,0.22422698269719663
179,0.2306869962701091,0.2232983753733013
180,0.22923404419863666,0.22234892650790836
181,0.22875451710489061,0.22332993149757385
182,0.22761837751777084,0.22276464622953665
183,0.22338351938459608,0.22283618346504544
184,0.229681427832003,0.22190463672513547
185,0.22441210073453408,0.22225610847058502
186,0.22234831750392914,0.22100459039211273
187,0.22880928383933175,0.22008588650952216
188,0.22313911881711748,0.21887636184692383
189,0.22346363299422795,0.21707990506420966
190,0.22344024976094565,0.21586578047793845
191,0.22098531325658163,0.21509027092353158
192,0.21670513462137292,0.214340777500816
193,0.21809255690486343,0.21366156443305637
194,0.21938628068676702,0.21328823462776517
195,0.21698983344766828,0.213471673105074
196,0.21917471731150592,0.21275687671226004
197,0.21944055071583501,0.21222647117531818
198,0.21315238873163858,0.21095102118409198
199,0.2154608611707334,0.21033688537452533
200,0.21338215746261455,0.20971017233703448
201,0.21367956753130313,0.20918040236701135
202,0.21636335330980797,0.20862113068933072
203,0.2129649519920349,0.208298543225164
204,0.20971953758486994,0.20744485375673874
205,0.2079026781850391,0.2073344393916752
206,0.21096559641537843,0.2064142978709677
207,0.21248232269728626,0.20560305144475854
208,0.21056457195017073,0.20505336834036786
209,0.21608757200064482,0.20454996435538583
210,0.20880992379453447,0.20395350844963736
211,0.2080018663847888,0.20344111193781314
212,0.2076432787709766,0.20283279082049493
213,0.20745017296738094,0.20169890769149945
214,0.20538558507407154,0.20215717800285504
215,0.20722051406348194,0.20202987284763999
216,0.20950289953638007,0.20097154249315677
217,0.2004174198265429,0.2006673689769662
218,0.2067968436965236,0.2001370405373366
219,0.1998384721853115,0.19963889795800913
220,0.20678473622710616,0.20011092722415924
221,0.20153426627318063,0.1995373458965965
222,0.1997364549725144,0.19935580051463583
223,0.20192444600440837,0.19865235362363898
224,0.19950854336773907,0.19808096147101859
225,0.19993769294685787,0.1975859338822572
226,0.2008531242609024,0.19698100958181464
227,0.2002386897802353,0.19683725160101187
228,0.1993936515516705,0.19630386324032492
229,0.19766494355819844,0.1958246665156406
230,0.1979983675259131,0.19524268546830054
231,0.19941856187802773,0.1947653027980224
232,0.20022964863865464,0.19435583119807037
233,0.19646248994050203,0.1939435134763303
234,0.1925934895321175,0.19264082934545435
235,0.1934038190929978,0.1922683307658071
236,0.19077794916099972,0.19162006028320477
237,0.19347301953368717,0.19191853054191754
238,0.19665510290198857,0.19136063430620276
239,0.1978042131220853,0.1909133986286495
240,0.19429390794701046,0.19037236338076385
241,0.19777222088089697,0.1898641806581746
242,0.19076255626148647,0.18944553059080374
243,0.19385649153479823,0.1892626071753709
244,0.19251169209127073,0.18883723279704218
245,0.19017538097169664,0.18842337895994601
246,0.19057351571542244,0.18799735540929047
247,0.1919947973004094,0.18743003192155258
248,0.18456820922869224,0.1874004945806835
249,0.18447609576914045,0.18694413356159045
250,0.18533046985114063,0.1865406535241915
251,0.18770179318057167,0.18607005800889886
252,0.18741806348164877,0.1856219470500946
253,0.1886559244659212,0.18540366382702536
254,0.18505110122539378,0.18508301092230756
255,0.186822560650331,0.18477697994398035
256,0.1881950690790459,0.1843166895534681
257,0.1858985826924995,0.18386081897694131
258,0.18644672301080492,0.18337685841581094
259,0.184505354475092,0.18298998734225397
260,0.19184483918878767,0.18257231751213904
261,0.18196916359442253,0.1821844325117443
262,0.18435009430955956,0.1818537219710972
263,0.18233139757756833,0.18143064885035806
264,0.18382326375555108,0.18092190506665604
265,0.18208134395104866,0.18049331074175629
266,0.1793393459584978,0.18013205217278522
267,0.1893467268458119,0.17972037714460623
268,0.1885439913581919,0.1792017409335012
269,0.18674823421019096,0.17901292313700137
270,0.188581179689478,0.17847106573374374
271,0.18724804012863724,0.17820878780406454
272,0.1880902968071125,0.1781835471806319
273,0.18011851884700633,0.17804230749607086
274,0.17527765532334647,0.17755192388658939
275,0.17834300575432954,0.1770469915607701
276,0.17860962726451732,0.1767158955335617
277,0.17796878903000443,0.17635007656138876
278,0.18428994549645317,0.17606295774812283
279,0.18619568590764646,0.17564581269803253
280,0.17446661712946715,0.17523242792357568
281,0.17516534251195412,0.1748466977606649
282,0.17704994259057222,0.17451199694820071
283,0.17824427562731285,0.1741632009330003
284,0.17380269202921125,0.17396431772605234
285,0.17807715634504953,0.17365760064643362
286,0.17445308963457742,0.17337535516075467
287,0.1838725628676238,0.1728327857411426
288,0.17702166294610058,0.17236222002817236
289,0.17307602034674752,0.17198281119699063
290,0.17701651597464527,0.17166002418683923
291,0.18895545381086845,0.17112377221169678
292,0.17174566233599628,0.17077667557674905
293,0.17134941507268836,0.17041002019591953
294,0.17200925173582854,0.17013998394427093
295,0.1711260825395584,0.16983851660852847
296,0.1724599368042416,0.16949215531349182
297,0.17810313127658986,0.16920232189738232
298,0.17125407026873696,0.1688899974460187
299,0.17538866842234577,0.1686722007782563
300,0.17142779573246283,0.16829531672208206
301,0.17464193370607164,0.16800615709760916
302,0.16742239782103785,0.16767570959485095
303,0.17600722997276871,0.1677711748558542
304,0.16884370148181915,0.16743756247603375
305,0.16656854583157432,0.16716138694597327
306,0.16712960435284507,0.16682048725045245
307,0.17182697962831567,0.16648271291152292
308,0.16704935939223678,0.1661664208640223
309,0.16676836267665582,0.16593475510244785
310,0.17471600627457654,0.1657034994467445
311,0.16700718689847877,0.16541324685449185
312,0.16366775113123436,0.16518225618030713
313,0.1684310105111864,0.16491314574428226
314,0.1649421883953942,0.16456908441108206
315,0.16413335502147675,0.16415716902069424
316,0.17465517697510896,0.16383837163448334
317,0.16490125932075358,0.16351190662902335
318,0.17065697466885602,0.16317657543265301
319,0.1626534848301499,0.16286688524743784
320,0.16326842650219245,0.16260154415731845
321,0.1619097336574837,0.16235275501790253
322,0.16977649596002367,0.16207173531470093
323,0.16347608522132592,0.16178957858811255
324,0.17327214501522206,0.16148711093094037
325,0.16155951056215498,0.16114517139351886
326,0.16035955316490597,0.16084677110547604
327,0.16636252458448764,0.16054615961468738
328,0.1609205973369104,0.16024451929589975
329,0.15875976229155506,0.15997264242690543
330,0.16261842681301963,0.1596421042214269
331,0.1587192013307854,0.15934617752614227
332,0.16514885756704542,0.15908673664797907
333,0.16968419761569412,0.15910505341446918
334,0.16910471463644947,0.1589715785306433
335,0.16867205335034263,0.15859884023666382
336,0.16829729466526597,0.15828841017640155
337,0.16263683085088376,0.15799243132705273
338,0.1678568317934319,0.15764684521633646
339,0.1618128612085625,0.1573868504037028
340,0.16297644597512703,0.1571623929168867
341,0.1566824228675277,0.1568013811888902
342,0.16641105711460114,0.1564541141624036
343,0.1557322265925231,0.15611715355645056
344,0.1555560976266861,0.15583852905294168
345,0.1641187513316119,0.15557261329630148
346,0.16001559849138614,0.1553303670624028
347,0.15489262673589918,0.15527085312034772
348,0.16064366587886103,0.15507034957408905
349,0.1638165949671357,0.15448152954163757
350,0.1612082283805918,0.15430540753447491
351,0.15983772884916375,0.1541584989298945
352,0.16221754473668556,0.1538704355125842
353,0.15265198051929474,0.153568799081056
354,0.15309561126761967,0.15314062328442282
355,0.15643778995231347,0.1529002468223157
356,0.15416408744123247,0.15265358790107394
357,0.15674814802628975,0.15239030705845874
358,0.1606591691573461,0.15214800769868103
359,0.15815940333737266,0.15194110831488733
360,0.1596461832523346,0.1516733953486318
361,0.15358217667650292,0.1514158773681392
362,0.15590268594247322,0.15121187269687653
363,0.14913635507777886,0.15093641242255335
364,0.14929005614033453,0.15077461561431055
365,0.15759972068998548,0.15063433932221454
366,0.15802196164925894,0.1505345669777497
367,0.15642960479965917,0.15006943500560263
368,0.15128459753813567,0.1496852098599724
369,0.155573562891395,0.14945616994215094
370,0.14942176584844236,0.14937668066957724
371,0.15266765985223982,0.1491153155979903
372,0.14903337591224247,0.1489209652594898
373,0.154552455301638,0.14874072826426962
374,0.15738260249296823,0.1483598416266234
375,0.1553719181705404,0.14834438199582306
376,0.15017428055957513,0.1479531766279884
377,0.15493284938512025,0.1477069466010384
378,0.14610730001219996,0.14768107170644013
379,0.15199803643756443,0.14739745013091876
380,0.1460673969101023,0.14686812071696573
381,0.15740399283391457,0.14652821356835571
382,0.15516553929558508,0.14632096433121225
383,0.1475391117510972,0.14615033566951752
384,0.14482825608165176,0.14594336501930072
385,0.14587008401199622,0.14573584237824316
386,0.14791129087960278,0.14545161179874255
387,0.1444888992442025,0.14519357227760812
388,0.15327386337297935,0.14492616510909537
389,0.1450147165192498,0.14456944977459701
390,0.1484603727305377,0.14432210313237231
391,0.1496464052685985,0.14404166003932123
392,0.14418925013807085,0.14382044517475626
393,0.1423342647375884,0.14360634853010593
394,0.1435914448014012,0.143421057773673
395,0.14762472223352502,0.14321801908638165
396,0.14363593801304145,0.14296979036020196
397,0.1462778984396546,0.14276300824206808
398,0.1426769290809278,0.14258992412815924
399,0.1430023577478197,0.1423660536175189
400,0.14955907232231563,0.1422066163757573
401,0.14574148257573447,0.14195060211679209
402,0.14915714219764428,0.14176760613918304
403,0.14717287873780285,0.14152246908001279
404,0.14410105678770277,0.14134342320587323
405,0.15126300741125037,0.14116849653098895
406,0.1407938434018029,0.1409834616858026
407,0.14244158400429618,0.14091189918310745
408,0.1514165809860936,0.14073168000449304
409,0.14163220011525685,0.1404236166373543
410,0.14542743839599467,0.14017511904239655
411,0.1468717748368228,0.13999585645354312
412,0.14264952694928204,0.13983338358609573
413,0.14805129832691616,0.13960273401892703
414,0.14112631314330631,0.1395025020060332
415,0.14357566833496094,0.1395431154448053
416,0.13984523934346657,0.13912700343391168
417,0.1417088414783831,0.13881178848121478
418,0.14824063192915032,0.1386157935080321
419,0.14892591977560962,0.13841175385143445
420,0.14166942128428706,0.138424307755802
421,0.14060406276473292,0.13824334027974503
422,0.14406636302117948,0.1381068349532459
423,0.14563124323332752,0.1378807898448861
424,0.14521827024442177,0.13754303299862405
425,0.14420549516324643,0.13725467414959616
426,0.15023308054164605,0.1371513300615808
427,0.13694181431222846,0.13711293236069058
428,0.13639656371540493,0.1370113880737968
429,0.14578555469159726,0.13673325271710104
430,0.14266284196465104,0.13670291524866354
431,0.14665961651890366,0.13654592179733774
432,0.14047005662211665,0.1364429120136344
433,0.14376299524748767,0.13631271700496259
434,0.1366582832954548,0.1361037745423939
435,0.1476153885876691,0.13499676792517953
436,0.13669572494648122,0.1349176939414895
437,0.14632136678254162,0.13483504691849585
438,0.14362292322847578,0.13461371154888815
439,0.14248386908460547,0.13444501258756802
440,0.14204196411150474,0.1343102604150772
441,0.1405015880310977,0.13425015820109326
442,0.1434718602233463,0.13414086919763815
443,0.14218292964829338,0.13410736944364465
444,0.1358315795660019,0.13395112817702087
445,0.14009231742885378,0.1338179254013559
446,0.14168210438004247,0.1335629315479942
447,0.13574116263124678,0.13345237400220789
448,0.14117694618525328,0.13345549935879913
449,0.13904350996017456,0.1332942195560621
450,0.14175165913723134,0.13304355287033579
451,0.1462456054157681,0.13299819308778513
452,0.1402384274535709,0.1328623696513798
453,0.13664895516854744,0.13278005531300668
454,0.13646441090989997,0.13258073576118634
455,0.13751612603664398,0.1324192551167115
456,0.1420317750286173,0.13232395441635794
457,0.14454543149029767,0.13209357792916504
458,0.14164117806487614,0.13204072091890418
459,0.13347069919109344,0.13216706721679025
460,0.1369764357805252,0.13201227330643198
461,0.13885128166940477,0.13163329758073972
462,0.14013560392238475,0.13133188045543173
463,0.13239499540240676,0.1311962760013083
464,0.1402466275073864,0.13108040100854376
465,0.13931547988344123,0.13094083219766617
466,0.13517286987216384,0.13089627319056055
467,0.13590296275085872,0.1307394387929336
468,0.13738211354723684,0.13075240733830826
469,0.1356306302326697,0.13068078458309174
470,0.13893375959661272,0.13035258294447608
471,0.14317203451085975,0.1302107080169346
472,0.13400039021615628,0.13007807148539502
473,0.14198967980013955,0.1299484372138977
474,0.1413511766327752,0.12991224229335785
475,0.13653792496080752,0.12983268207829932
476,0.13167638497220147,0.12974030686461407
477,0.1317699408089673,0.12962943704231925
478,0.1359451945733141,0.12954657492430313
479,0.13422158470860235,0.12945083269606467
480,0.13227076524937595,0.12935098552185556
481,0.13404567815639354,0.1292142751424209
482,0.13089806669288212,0.1291462779045105
483,0.13255075751631348,0.12910386012948077
484,0.13148991929160225,0.12903794516687808
485,0.13668853099699374,0.1289347669352656
486,0.13401504854361215,0.12881936132907867
487,0.1274750773553495,0.12869132796059485
488,0.13091711313636215,0.12852181137903876
489,0.13402650864035995,0.12844842154046762
490,0.13198693620937843,0.12837243209714475
491,0.13389968320175452,0.12835448915543762
492,0.1353461593389511,0.1281934607288112
493,0.13453694295000146,0.1281113669924114
494,0.13183794446565486,0.12803401830403702
495,0.132002924879392,0.12797602201285568
496,0.13219571775860256,0.12786136438017306
497,0.12961404467070545,0.12773048942503723
498,0.12831947759345727,0.12764427324999933
499,0.13002170732727758,0.12750191921773163
500,0.13397409132233373,0.12752270633759705
501,0.1301060539704782,0.12738952073066132
502,0.12945232733532233,0.1272786117118338
503,0.13135334297462745,0.12719506154889645
504,0.12827537126011318,0.12713532992031262
505,0.13160259304223237,0.12706303790859555
506,0.13289312963132505,0.12702899782553964
507,0.1285107566250695,0.12705634145633035
508,0.13800876780792518,0.12694505019032437
509,0.13032674016775908,0.12677494922409888
510,0.12686391919851303,0.12667673761429993
511,0.13462219028561204,0.1265667093836743
512,0.13415194882286918,0.12648457223954407
513,0.12908504351421637,0.12650464021641275
514,0.1265158181389173,0.12631168119285419
515,0.1269561251004537,0.12616139877101648
516,0.13068454574655602,0.12613155109726865
517,0.12941880303400535,0.12597748831562375
518,0.12625932693481445,0.1259217294661895
519,0.13534349920573058,0.1260177071975625
520,0.12795013078936823,0.12572188221889993
521,0.1321281255395324,0.12560778337976206
522,0.13105595608552298,0.12551856397286706
523,0.1258306977925477,0.1253649326770202
524,0.13631334128203215,0.1252584386131038
525,0.12934808984950738,0.12508886858173038
526,0.12920314570267996,0.1250784721063531
527,0.1304520743864554,0.12501566176829132
528,0.13097310286981087,0.12497054785490036
529,0.13259911647549383,0.12484250476826793
530,0.1265480281026275,0.12475803332484287
531,0.12538315410967227,0.12463816806026128
532,0.1361514710717731,0.12470958284709764
533,0.1322856672384121,0.1245233513738798
534,0.12650728777602868,0.12449381144150444
535,0.13461395932568443,0.1244765157284944
536,0.12812512616316477,0.12439990173215451
537,0.13202532132466635,0.12438244405000107
538,0.1247608592664754,0.12439574398424315
539,0.13234258029195997,0.1241651669792507
540,0.13325992944063964,0.12412850040456523
541,0.12474694848060608,0.12405335449654123
542,0.12863376515882988,0.12430389678996542
543,0.12814721520300265,0.12417693047419838
544,0.12861729937571068,0.1241711650205695
545,0.1261626989753158,0.12397647422292958
546,0.12301859314794894,0.12385406895824101
547,0.13327622579203713,0.12377258228219074
548,0.1293186310816694,0.12382443119650302
549,0.12320077088144091,0.1237646354281384
550,0.12709727303849327,0.12367551223091457
551,0.13361369018201474,0.12360129602577376
552,0.13423484343069572,0.1235257163643837
553,0.1308876700975277,0.12357420441897018
554,0.12920109155001464,0.1236636010201081
555,0.12937966154681313,0.1235014550063921
556,0.12500649249112164,0.12339422884194748
557,0.13066795854656785,0.12336715505174968
558,0.13156616356637743,0.12358838028233984
559,0.12913587910157662,0.12341544518004292
560,0.12966100871562958,0.12333677223195201
561,0.13246187622900363,0.12371564559314562
562,0.12779826394937657,0.12395183385714241
563,0.12415234082274967,0.12325255605189697
564,0.13068223827415043,0.12292074962802556
565,0.12609554551265859,0.1230061579009761
566,0.13114673120004158,0.12276134154070979
567,0.13656870192951626,0.12274131178855896
568,0.13380092161673088,0.12285656060861505
569,0.1247738340386638,0.12315343903458636
570,0.1314923189304493,0.1229638230541478
571,0.1242133332071481,0.12286511225544888
572,0.12640776954315328,0.12262048961027809
573,0.12768185000728677,0.12249921391839566
574,0.12920497633792735,0.12255744182545206
575,0.12762467507962827,0.12251957829879678
576,0.13197756199925034,0.12275375911723012
577,0.1238830073012246,0.12270800186240155
578,0.12522230849221902,0.12275411739297536
