epoch,loss,val_loss
0,0.11520097881679733,0.01949155465234071
1,0.016566413852075735,0.012372707187198103
2,0.010498896876660486,0.008925436149351299
3,0.008990194607681284,0.00875046099210158
4,0.008674259213109811,0.008215442639775574
5,0.008563818542131533,0.008336378611158579
6,0.008503086886834352,0.008037252832204104
7,0.008391796909738332,0.007906067588832229
8,0.008358787507439652,0.00791548026446253
9,0.00828510455119734,0.008378733935765922
10,0.00829832979105413,0.007968035293277354
11,0.008251838254742324,0.007963268051389605
12,0.00825841100451847,0.00835112681798637
13,0.008252476014507314,0.007845115615520626
14,0.008219286944406727,0.008068437738809735
15,0.008234154866077006,0.007848694610409438
16,0.008198174734134226,0.00790724077541381
17,0.008189657818060369,0.00780655444599688
18,0.008173668573920925,0.007860432268120348
19,0.008181207978942742,0.007821057567372919
20,0.008177115092054009,0.007876135708764196
21,0.00816114681897064,0.0077990056220442056
22,0.008150050624584158,0.007807421274948865
23,0.008144573517609388,0.007848849973175675
24,0.008126113160513341,0.00785862357635051
25,0.008123868002090603,0.007836650386452674
26,0.00811325192451477,0.007904582533054054
27,0.008096819402649998,0.008020667686127126
28,0.008098082555768391,0.007879404499661177
29,0.008106711669359357,0.007846465271431952
30,0.008083700411487371,0.008026464472524822
31,0.00808514191955328,0.007895082836970687
32,0.00806815551376591,0.007868268329184502
33,0.00806614892448609,0.007878814612980931
34,0.00805220343482991,0.007842829633969813
35,0.008028186629991978,0.007914780496619641
36,0.008033417288213968,0.007843060763087124
37,0.008025615794118493,0.007801769369281828
38,0.008019972653749088,0.007875121131073684
39,0.008008997271613529,0.007855656553525478
40,0.008012946013982097,0.007951702600810677
41,0.008002674266385535,0.007830160102341324
42,0.00799912890419364,0.007822589752264322
43,0.007993254989851267,0.007896282580215484
44,0.007984429253730923,0.00781111062830314
45,0.007980013884603978,0.007789823860861361
46,0.007980348217611512,0.007922118274960668
47,0.007971112521675726,0.007811715422663837
48,0.007973029759712518,0.007841114094480873
49,0.007978312880421678,0.007850446369964629
50,0.0079673647301582,0.007820866202469915
51,0.007955119426051776,0.0078048368417657915
52,0.007972550292654585,0.007816694440785796
53,0.007968110731337219,0.007818859316408635
54,0.007957577323075385,0.007784960698336363
55,0.007958028108812869,0.007886654183734208
56,0.00796604312226797,0.00805602028267458
57,0.007965141201236595,0.007814608707558363
58,0.007959612939972431,0.00783283129101619
59,0.007959629945301762,0.007806674828287214
60,0.00794908958983918,0.007848710640333594
61,0.007968676178716123,0.0077889309017919
62,0.007959993782142799,0.007792214486282319
63,0.007954025199792037,0.007822834057733416
64,0.00795731762315457,0.00779390907427296
65,0.007959615579340606,0.007769535153638572
66,0.007955631210313488,0.007797473307698965
67,0.00796216705472519,0.007953722085803748
68,0.007957765139949818,0.007836728618945927
69,0.007954741310638686,0.007826319043990225
70,0.007958457007228087,0.007805534140672535
71,0.007955311006090293,0.007921188773121686
72,0.007944198758807034,0.007819421341177076
73,0.007946300308220088,0.007797677942086011
74,0.007947156692699839,0.007858324527740478
75,0.007946305288933218,0.007808670370839536
76,0.007938299108607074,0.0077825574446469545
77,0.007954280075461914,0.007955273766070605
78,0.00795386486655722,0.0077924744780175385
79,0.007948660423823943,0.00786363093648106
80,0.007944537416876604,0.007851116164121777
81,0.00794067427298675,0.007804565754253417
82,0.007943302914345016,0.007817868928890675
83,0.007944283469735334,0.007838820940349251
84,0.007948065655771643,0.007840131920296698
85,0.007947635285556316,0.007832518598996103
86,0.007934886802298327,0.007835366767365485
87,0.00794045822772508,0.007788892552722245
88,0.007942967141357562,0.007812443079892546
89,0.00793492018788432,0.007763745911419392
90,0.007947637378859023,0.007825265986844897
91,0.007946618012463052,0.0077908143820241095
92,0.007943442317501952,0.00778702487796545
93,0.007940869512346883,0.007786233174614608
94,0.00793643253032739,0.007778452118393034
95,0.007938480617633711,0.007840334395412357
96,0.007947165596298874,0.007781580454204231
97,0.007936338607377063,0.007808693767525255
98,0.007935632410769661,0.007792148613370955
99,0.007932398080981026,0.0078095841105096046
100,0.007930924959325542,0.007776750596240163
101,0.007940112990016738,0.007826047396752984
102,0.007929728322662413,0.0078633072366938
103,0.007927632705774158,0.007780229563359171
104,0.007936942365951835,0.007799448908306659
105,0.00792745520050327,0.00776925713988021
106,0.007939825261943043,0.007790483762975782
107,0.007927117379847914,0.007770334123168141
108,0.007933156665725012,0.007770565917715431
109,0.007939850255226095,0.007779552042018622
110,0.007927510467513154,0.00778203649725765
111,0.007924846690924218,0.007819568588864059
112,0.007934434238200387,0.007798409210518002
113,0.007933688468144585,0.007790106908418238
114,0.007925857575144619,0.007772256991825998
115,0.007917248057667166,0.007792201525531709
116,0.007933386217026661,0.007837047995999456
117,0.007938776235561818,0.007902729960624128
118,0.007926380900200456,0.007802674369886517
119,0.00792030699411407,0.007815074797719717
