epoch,loss,val_loss
0,0.29768304352338115,0.08723853415995836
1,0.07162183529511094,0.05283814518153668
2,0.0493458801706632,0.03995853802934289
3,0.039449900103112064,0.03510224631056189
4,0.03383764737223585,0.028971861293539406
5,0.030363799203187228,0.026609511010348797
6,0.027964159037917852,0.02499939166381955
7,0.026628902809694408,0.023174698796123265
8,0.02405580054782331,0.020337090531364083
9,0.022040750125112633,0.01872382721118629
10,0.020141173725016417,0.016994472324848176
11,0.018275927912754317,0.015216554434970022
12,0.01648723320600887,0.01375946577358991
13,0.014760782279384634,0.01321835861261934
14,0.013434396388940513,0.010818270556163042
15,0.012861326889755826,0.010378687605727464
16,0.012341101890429855,0.010531567699741572
17,0.011931244576505075,0.010136754926294088
18,0.01138895883333559,0.00997083265800029
19,0.010921010707970708,0.008887405913323165
20,0.010462462471177181,0.00882773822080344
21,0.010009548640809954,0.008420374596025794
22,0.009743820822021614,0.008963363642338663
23,0.009335432001079122,0.010663279099855571
24,0.009331122198452552,0.007909198231063784
25,0.009002285688028982,0.007542471647728234
26,0.008696612474198142,0.006592627420090139
27,0.008416119853189836,0.006517126941587776
28,0.00824934069843342,0.0063913085735403
29,0.008161180695518851,0.006527820580173284
30,0.007996133073077848,0.005836903497111052
31,0.007974545960780233,0.005600022982340306
32,0.007933802318836872,0.0057632054681889715
33,0.007759863616122554,0.0068437718376517295
34,0.00765900938003324,0.006364910130156204
35,0.0076018395364905395,0.005234955141320824
36,0.00754700231567646,0.0055471318699419495
37,0.007408753825817257,0.005540978931589052
38,0.007370163005078211,0.005151380903087557
39,0.007262900836610546,0.005488729250617325
40,0.007251443434972316,0.0056515379135962576
41,0.007326186122217526,0.004972828750265762
42,0.0071598844768013805,0.0063637825204059485
43,0.007088913814475139,0.005024164780043066
44,0.00693081289747109,0.005769488290417939
45,0.007001821051662167,0.0047017772400286045
46,0.006935837914701551,0.004885546370176599
47,0.00680764252707983,0.005486911741085351
48,0.006708140199848761,0.004835134816356003
49,0.006590400238987058,0.004850430701859296
50,0.006553046846684689,0.005093848138581962
51,0.006295070333406329,0.004321005845209584
52,0.006326070987464239,0.006151661545503884
53,0.006268875038173671,0.005080264471238479
54,0.006202500415422643,0.004290148047264665
55,0.00607471160699303,0.0039399274503812195
56,0.005925817911047488,0.005726167891873047
57,0.006027349635648231,0.004250381875783205
58,0.00600860687927343,0.004132863625185564
59,0.00584498082807598,0.004400465602986515
60,0.005800381432287395,0.004690090611344204
61,0.005873015155162042,0.004301849281415343
62,0.005810994446743279,0.0040254613023716955
63,0.005723806115177771,0.003955571992555633
64,0.005787512776985144,0.003864724329672754
65,0.00572502466958637,0.0037978035397827625
66,0.005750577218054483,0.0043390304297208785
67,0.005695529946514095,0.004192904218332842
68,0.005739975756887968,0.004421029663877561
69,0.005680524685652927,0.0037999626444652677
70,0.005639141901861876,0.00425747617194429
71,0.005523459994234144,0.003497913552564569
72,0.005644509423601752,0.0038265246937517075
73,0.005615615635877475,0.0035177029522601515
74,0.0056066370955668385,0.0036132774096913635
75,0.005559242423158139,0.005524511570110917
76,0.0056504447668946035,0.003912359290989115
77,0.00549104929358388,0.0036888822210021316
78,0.0055927349605287115,0.004157318900572136
79,0.005358920508529991,0.004436952746706083
80,0.005528430690057575,0.003661331739043817
81,0.005550963111997893,0.003718099036952481
