epoch,loss,val_loss
0,1.5703606605529785,1.5772109342658
1,1.5669196137675532,1.57368993240854
2,1.563347339630127,1.5700161508891894
3,1.5596179653097082,1.566165856693102
4,1.5557056532965765,1.5621136945226919
5,1.5515851665426184,1.5578347962835561
6,1.547226111094157,1.5533031121544216
7,1.5426167249679565,1.5484912136326665
8,1.537714993512189,1.543372112771739
9,1.5324936266298648,1.5379195524298626
10,1.526933784838076,1.5321040982785432
11,1.5209896520332054,1.5258985187696374
12,1.5146722440366391,1.5192700987276824
13,1.5079124547817089,1.5121935035871423
14,1.5007013612323337,1.5046394337778506
15,1.4929961584232472,1.4965802742087322
16,1.484786249973156,1.4879854451055112
17,1.4760258374390778,1.4788285442020581
18,1.4667004876666598,1.4690789761750593
19,1.4567795903594405,1.4587101988170459
20,1.446230031825878,1.4476959083391272
21,1.4350302351845636,1.4360092360040415
22,1.4231380577440615,1.4236282421194988
23,1.4105503559112549,1.4105270841847295
24,1.3972648293883712,1.396679603535196
25,1.3831905523935955,1.382076771362968
26,1.3683627490644101,1.3666946732479592
27,1.3527548136534515,1.3505176046620244
28,1.3363522158728705,1.3335313952487449
29,1.3191587174380268,1.3157287473263948
30,1.301125998850222,1.297109173691791
31,1.282282449581005,1.277672643246858
32,1.262644335075661,1.257417134616686
33,1.2421820649394282,1.2363587669704272
34,1.2209867503907945,1.2145025730133057
35,1.1988491791265983,1.1919041716534158
36,1.176023730525264,1.1685634177664053
37,1.152529102784616,1.1445047492566316
38,1.12833743625217,1.119773242784583
39,1.1034127076466878,1.0944349558457085
40,1.07792713465514,1.0685342964918718
41,1.0519285731845431,1.0421249244524085
42,1.0254339730298077,1.0152802311855813
43,0.9985500993552031,0.9880762799926426
44,0.9712737003962199,0.9606089825215547
45,0.943795778133251,0.9329518649889075
46,0.91613076572065,0.9051997272864633
47,0.8884297852162961,0.8774367570877075
48,0.8607313853723032,0.8497752210368281
49,0.8332830601268344,0.8222942715105803
50,0.8058142993185256,0.7951514565426371
51,0.7790238901420876,0.7683655904686969
52,0.7524183811964812,0.7420937704003375
53,0.7262353036138747,0.7164269426594609
54,0.7009372887787996,0.691372257211934
55,0.6761163451053478,0.6670488300530807
56,0.6521047706957217,0.6434797929680866
57,0.6290334992938571,0.6206831336021423
58,0.6065417241167139,0.5987436253091564
59,0.584870300911091,0.5776530322821244
60,0.5642185476091173,0.5573557952175969
61,0.5441541848359285,0.5378769143767979
62,0.525087997869209,0.5191196125486622
63,0.50656157290494,0.5010935651219409
64,0.488815160813155,0.4837253741596056
65,0.47175070533046015,0.466961101345394
66,0.4554061668890494,0.45074071702749835
67,0.43921221958266365,0.4351157831109088
68,0.4240008592605591,0.4199409614438596
69,0.40912150453638146,0.4052500491556914
70,0.3945476644568973,0.3910476021144701
71,0.38065926013169465,0.3772597494332687
72,0.36710015491203024,0.3639007392136947
73,0.3540491892231835,0.35093549412229785
74,0.3413794294551567,0.33837662442870764
75,0.32908737549075373,0.32622063289517944
76,0.31707766872865184,0.31449184728705365
77,0.3056188336125127,0.3031390244546144
78,0.2945381866561042,0.2921668239261793
79,0.28380234594698306,0.2815835151983344
80,0.2734493072386141,0.2713771436525428
81,0.26348045744277815,0.2615474177443463
82,0.2538959704063557,0.25208587361418683
83,0.24453925755288866,0.2430161872635717
84,0.23583822835374763,0.23424912017324698
85,0.22737764594731508,0.22583128706268643
86,0.2190848445450818,0.21779761301434558
87,0.21129080984327528,0.21009649077187414
88,0.20381607556784595,0.20271867772807245
89,0.19659000579957608,0.19567572357861893
90,0.18976443674829271,0.18892473954221475
91,0.18325465586450365,0.18248668183451114
92,0.17701942611623694,0.1763543680958126
93,0.17119637628396353,0.17050561438436093
94,0.16549666888184017,0.16497035389361175
95,0.16023539779362855,0.15968816695005997
96,0.15510130259725782,0.15468812766282455
97,0.15022265083260006,0.1499603623929231
98,0.1457321384438762,0.1454625401807868
99,0.14146533056541724,0.14119141581265823
100,0.13736334056765945,0.1371568447869757
101,0.13351440871203388,0.13333636263142462
102,0.1298407879140642,0.12972736229067264
103,0.12644749879837036,0.12631339482639148
104,0.1232316698189135,0.1231002451285072
105,0.12011115418540107,0.12009564204060513
106,0.11727271753328818,0.11724675025628961
107,0.11459407513892209,0.11455806636292001
108,0.11207265572415458,0.11202420261890991
109,0.10970638775163227,0.10964509456054024
110,0.10747437868957166,0.10740622068228929
111,0.10537839984452282,0.10530023795107137
112,0.1033960649812663,0.10331936925649643
113,0.10154434872998132,0.10145755500897118
114,0.09982800428514127,0.09970794812492702
115,0.09816510506250241,0.09807660139125327
116,0.09664078829465089,0.09653779767129732
117,0.09525517263898144,0.0950829571355944
118,0.09389505204227236,0.09371630361546641
119,0.09263032674789429,0.09243269685817801
120,0.09143846702796442,0.09124115271412808
121,0.09033515552679698,0.09012021318725917
122,0.0893513532700362,0.08905822233013484
123,0.0883642233632229,0.08807179040235022
124,0.08749309734061912,0.08714709236570027
125,0.08663326005140941,0.08629270448632863
126,0.08585525110915855,0.08548754064933113
127,0.08512632935135453,0.08472870387460875
128,0.08445235617734768,0.08401905388935753
129,0.08382726571074238,0.08336234546226004
130,0.08322800916654093,0.0827492413961369
131,0.08269136399030685,0.082172399305779
132,0.08217590495392128,0.08164495132539583
133,0.08172002765867445,0.08116075072599493
134,0.08125291737141432,0.0807098587569983
135,0.08086798505650626,0.08026924308227457
136,0.08047910034656525,0.07986180484294891
137,0.08013155421725025,0.07948638174844824
138,0.0798292573955324,0.07913551965485448
139,0.07951420655956974,0.078819934764634
140,0.07923218111197154,0.07852384869171225
141,0.07899080713589986,0.07824872336957765
142,0.07875149393523181,0.07798985262279926
143,0.07853363068015487,0.07775656587403754
144,0.07832600038360667,0.07753486445416576
145,0.0781433954834938,0.07733225692873416
146,0.07797363483243519,0.07714926823973656
147,0.0778157443360046,0.07697123807409535
148,0.07767875340801698,0.07680713223374408
149,0.07753889704192127,0.07666260036437408
150,0.0774085419597449,0.0765295814236869
151,0.07730017685227925,0.07640395151532214
152,0.0771870971829803,0.07628170400857925
153,0.0770933539779098,0.07616410663594371
154,0.07700937199923727,0.07606177355932153
155,0.07692480252848731,0.0759657550117244
156,0.07684733663444165,0.07587822656268658
157,0.0767834981282552,0.07579752576092015
158,0.07671257660344795,0.07571887095337329
159,0.07665521044422079,0.07564805415661438
160,0.07660531721733234,0.07558280715475911
161,0.07655441540258902,0.07552118372658025
162,0.07650769281166571,0.07546866280229195
163,0.0764665451866609,0.07542457723099252
164,0.07643211991698654,0.0753785384737927
165,0.07639410346746445,0.075337462451147
166,0.07636090078287655,0.07530213600915411
167,0.07633699863045304,0.07526502272357112
168,0.07630582291770864,0.07523082261500151
169,0.07628553167537407,0.0752028793744419
170,0.07626058575179842,0.07517625585846278
171,0.07624451374566113,0.07515091157477835
172,0.07622439276289057,0.07512018667614978
173,0.07620738695065181,0.07509760785361995
174,0.07619240024575481,0.0750768437333729
175,0.07617455058627659,0.07506021727686343
176,0.07616298176624157,0.07505152633656627
177,0.0761497379453094,0.0750346983904424
178,0.0761436872460224,0.07501909914224045
179,0.0761274355981085,0.07500033242546994
180,0.07612065529381787,0.07498324273721031
181,0.07611535213611743,0.07496960736487222
182,0.07610315884704943,0.07495956511601158
183,0.07609611170159446,0.07494918937268465
184,0.07608809846418875,0.07493674722702606
185,0.0760833027738112,0.07493007345044095
186,0.07607753878390347,0.07492612367090971
187,0.07607490596947847,0.0749231052139531
188,0.0760682123126807,0.07491376153800798
189,0.0760643341475063,0.0749087042134741
190,0.0760645557332922,0.07490397568630136
191,0.07606030697071994,0.0748979763492294
192,0.0760524935192532,0.0748902031260988
193,0.07605083838657097,0.07488279174203458
194,0.07604815866108294,0.07487353925471721
195,0.07604488095751515,0.07487772243178409
196,0.07604295318877255,0.07487942278385162
197,0.07604094125606396,0.07487572438043097
198,0.0760369822382927,0.07487471660842067
199,0.07604160877289595,0.07487582091404044
200,0.07603497278911096,0.07487111117528833
201,0.0760326984303969,0.07486287310071614
202,0.07602931393517388,0.07485419025887614
203,0.07603216667970021,0.07484980445841084
204,0.0760284063440782,0.07484713520692743
205,0.07602575476522799,0.07484932891700578
206,0.0760267421051308,0.07484784333602242
207,0.07603007182478905,0.07484728681004565
208,0.0760255996827726,0.07485221812258595
209,0.07602264180227562,0.07485343791220499
210,0.07602414819929335,0.0748503684349682
211,0.07602089560694164,0.07484769270471904
212,0.07602026203164348,0.07484325215868327
213,0.07602001616248379,0.0748434925208921
214,0.0760195900996526,0.0748483786440414
215,0.07602226816945606,0.07485134867222412
216,0.07601781713741797,0.07484816727430924
217,0.07601597325669394,0.0748467251010563
218,0.07601605300550107,0.07484123888223068
219,0.07601522240373823,0.07483802865380826
220,0.0760154942119563,0.07483664964852126
221,0.07602345363961326,0.07483204518971236
222,0.07601543322757438,0.07483279510684636
223,0.07601918307719407,0.07483801958353622
224,0.07601482559133459,0.07484251876240192
225,0.07601586563719644,0.07484496093314627
226,0.07601593848731783,0.07484193664530049
227,0.07601543640096982,0.07483623597932898
228,0.07601243947391156,0.07483568091107451
229,0.07601361169859215,0.07483723208956096
230,0.07601566750694204,0.07483760753403539
231,0.07601297122460825,0.07483892790649248
232,0.07601319115470957,0.0748443286056104
233,0.07601476074368865,0.07484421522721
234,0.07601218505038156,0.07484168429737506
235,0.07601300709777409,0.07483923532392668
236,0.07601442601945665,0.07483845722416173
237,0.07601280758778255,0.07483791203602501
238,0.0760147621234258,0.07483955407920091
239,0.07601216159485004,0.07483721330114033
240,0.07601129456802651,0.07483580578928409
241,0.07601504207209304,0.07483571055142776
242,0.07601624782438632,0.07484250483305557
243,0.07601464815713742,0.0748472586274147
244,0.07601868747561066,0.07484806895903919
245,0.07601827410636125,0.07484547793865204
246,0.07601410895586014,0.07484411642603252
247,0.07601621443474735,0.0748404539797617
248,0.07601225955618753,0.07484500417890756
249,0.07601331229563113,0.07484349543633669
250,0.0760118414958318,0.0748405326967654
251,0.07601290113396114,0.07484178439430568
252,0.07601351235751752,0.07484472445819688
253,0.07601529083870075,0.07484535678573277
254,0.07601339259633312,0.07484563925991887
255,0.07601218063522268,0.07483888903389806
256,0.07601132961335005,0.07483483267867047
257,0.0760121602151129,0.0748311838378077
258,0.07601443926493327,0.07482899109954419
259,0.07601845181650585,0.07483607789744502
260,0.07602271685997646,0.07483464479446411
261,0.07601235613778785,0.07483674294274786
262,0.07601244609664988,0.07483925087296445
263,0.07601211799515618,0.07483919677527054
264,0.07601400188825748,0.07483598427928012
265,0.07601157631035205,0.07483377502016399
266,0.07601420057040674,0.07483651748170024
267,0.07601224161960461,0.07484049495795499
268,0.07601058289960579,0.0748388362319573
269,0.07601170269427476,0.07484028034883997
270,0.07601051501653812,0.07483839438013408
271,0.07601125483159665,0.07483806072369865
272,0.07601650321373234,0.0748360561935798
273,0.07601278744362018,0.07484157286260439
274,0.07601639518031368,0.07484390327463979
275,0.07601590151036228,0.07485301501077155
276,0.07601358355195434,0.07485408692256264
277,0.07601334402958553,0.07485334316025609
278,0.07601524365169031,0.07485464150490968
279,0.07601421823104222,0.0748550788215969
280,0.0760135410560502,0.07485208984302438
281,0.07601321433429364,0.0748489894296812
282,0.07601221098943993,0.07485000076501266
283,0.07601148579959516,0.07484549543131953
284,0.07601533581813176,0.07484631855850635
285,0.07601117232331524,0.0748460885623227
286,0.0760134971804089,0.07485074485125749
287,0.07601149959696664,0.0748522786990456
288,0.07601318149654954,0.07484680122655371
289,0.07601158983177608,0.07484107432158096
290,0.0760101184800819,0.07484146596296974
291,0.0760193254660677,0.07484828615966051
292,0.07601852963368098,0.07484951582939728
293,0.07601245051180874,0.07484430722568346
294,0.07601240277290344,0.07484887929066368
295,0.0760150827743389,0.074845510656419
296,0.07601255647562168,0.07484340440967809
297,0.07601571634963707,0.0748397741952668
298,0.07601041457167378,0.0748433130590812
299,0.07601128159849732,0.07484467198019443
300,0.07601224851829035,0.0748488002497217
301,0.07601255923509598,0.07484625862992328
302,0.07601432447080259,0.07483667038057161
303,0.07601542053399263,0.07484385533177335
304,0.0760140852243812,0.07484470858522084
