epoch,loss,val_loss
0,0.7402951621992575,0.0663690685905631
1,0.044379461492546755,0.031334278553675946
2,0.029163555315941024,0.024964277740546773
3,0.025064913022091045,0.022680713729411727
4,0.022883066084322404,0.021353911081236836
5,0.02138572005932335,0.019794656790110124
6,0.020129381989190776,0.018495887055666776
7,0.01908962431701543,0.01769770886628176
8,0.018541986218916836,0.017235807124268497
9,0.018069351860005155,0.017076684785923724
10,0.017639506300292415,0.016616858134086986
11,0.017423425458842894,0.01672652797185833
12,0.01714482554365054,0.016169845257241456
13,0.01690897077480085,0.016082938005188473
14,0.016591464005279437,0.015571148635552168
15,0.016102432956347904,0.014928432010772841
16,0.015319554197092692,0.013932953603015812
17,0.013924897230081886,0.012557139794666257
18,0.012395303686700457,0.01100169284313023
19,0.011229578678528244,0.010361339981514365
20,0.010511450755825226,0.009646290052902717
21,0.009957030238814836,0.009051396644433291
22,0.009503731591697094,0.008635796055149374
23,0.00900524357047448,0.008289178239675624
24,0.008650566481823345,0.007912231731966488
25,0.008310490926120689,0.007725259441722242
26,0.00819514299839067,0.0075724835040022085
27,0.00805101434277405,0.007581123289865928
28,0.007893082166420188,0.007438764407013188
29,0.007823179121777189,0.007289254957083416
30,0.007849858975704548,0.00736875251156111
31,0.0077286947804172815,0.007225723974542679
32,0.00766945755842915,0.007173051811386102
33,0.007632967322510037,0.0071116777904337725
34,0.00757285467892575,0.007181547252070053
35,0.007579285631312715,0.007131891672190548
36,0.007533920725644995,0.006994519421992414
37,0.007448258836961704,0.007140664981235505
38,0.0073392105831640115,0.006848571709502981
39,0.007376141288057507,0.007002775223860751
40,0.007244421230678299,0.0066491174530494725
41,0.007125689373318079,0.006559133186743014
42,0.007166266204972712,0.006492519094431221
43,0.006934062387269315,0.006439571578164388
44,0.006933742513756355,0.006322956546560982
45,0.006648833272133091,0.006128114398904236
46,0.006607208485969359,0.00594887651793133
47,0.00649649747427377,0.005970674680979486
48,0.006246066141837807,0.005699556682331356
49,0.00618751992130752,0.006194983146380745
50,0.006092386915265703,0.0054667351761000455
51,0.005971775196337576,0.005471358403929079
52,0.005847283838476368,0.00536921716295938
53,0.005841027163088417,0.005454211577770073
54,0.0058182869855914,0.005410477821922892
55,0.005881695270507013,0.005240107975622211
56,0.005689719947632119,0.0053664268298861655
57,0.005692176935781208,0.005484140203511894
58,0.005704461573418066,0.00539053424011496
59,0.005707311793696508,0.005217883040991046
60,0.005726114415404818,0.005163586844628963
61,0.005709359766445678,0.005151428743579031
62,0.005716088029956393,0.005201765431267937
63,0.0056125173468986825,0.0051670646878821955
64,0.005649376573716645,0.005163740144252463
65,0.0056589363208838445,0.005087930269521228
66,0.00560585307583714,0.005103077451696216
67,0.005558959597660553,0.005124453407246242
68,0.005599878375695122,0.005239277637343845
69,0.0056663273928390205,0.005275303254127563
70,0.005628596617354809,0.005092311504735806
71,0.005517979531293158,0.005119224137113719
72,0.005606918651282525,0.00507072953013318
73,0.005539314053338275,0.005147726546190468
74,0.00564510458103531,0.00529511581610855
75,0.005613162287035949,0.0051948569699161095
76,0.005657582061911066,0.005165450306290524
77,0.005635943354739009,0.005185076751234878
78,0.005733054675970128,0.005074005427076168
79,0.005505912226987921,0.004986870335981504
80,0.005502253351770371,0.0049883100545579165
81,0.005524532081674131,0.0051005140274751025
82,0.0055595129374876985,0.005021417059158395
83,0.005508945923592385,0.004966109076368306
84,0.00557317475253661,0.005033271860056357
85,0.005642552442141802,0.005003885253855999
86,0.00551968040518922,0.005062732082660954
87,0.0056107047135480126,0.005024924798017339
88,0.005492890679804657,0.005406613806481659
89,0.005454059447899306,0.004972041373436444
90,0.005562810578478203,0.005205008461323641
91,0.005439494812922228,0.005158872243896163
92,0.005455310394192596,0.005019638727782392
93,0.005410507526412737,0.005007385248688426
94,0.005483104279182785,0.004993556113045025
95,0.00539322079306959,0.004926262123152215
96,0.005377221694648612,0.004941707488303492
97,0.00546502799475737,0.004955450467544775
98,0.005406313149476226,0.005104710055259868
99,0.005387486479102707,0.004939116807223962
100,0.005353548945791966,0.00495733798006421
101,0.0054150686667914436,0.005020836072491251
102,0.005438157278422514,0.0048838352043535154
103,0.005421791441911597,0.0050527424988127635
104,0.00548443327742883,0.004988316345328445
105,0.005450396723239969,0.004869316710991557
106,0.005349984480324593,0.004839192286952544
107,0.005421743265541794,0.004928268892169361
108,0.00529329224565686,0.004832293804272683
109,0.005331178686415271,0.004866312880715581
110,0.005320773068688708,0.0049386042659680775
111,0.005386176649958277,0.004966689583778212
112,0.005334687587194401,0.004865554542811731
113,0.005221177119570818,0.004779426689544467
114,0.005279213216176646,0.004946883482705962
115,0.005256889966779573,0.004967031180888825
116,0.0054394852323793146,0.0052352772805830715
117,0.005276653290412324,0.004795658002386212
118,0.0053525500939420765,0.004759789568002714
119,0.0052753119005055854,0.004793790489698051
120,0.005307573168385651,0.004830493102271627
121,0.005260885747565662,0.004836682329560114
122,0.005263611635161911,0.004983158485279611
123,0.005292311189599257,0.0047416733460771245
124,0.005233933033273996,0.004770961061379867
125,0.005350981181333836,0.0048216008736063866
126,0.005306191291299173,0.004735206608831979
127,0.005214189242995124,0.004668483658280565
128,0.005215820453738909,0.004669239770602933
129,0.005198752645140676,0.004709372221773969
130,0.005173188961372734,0.0046791275213521645
131,0.005179830978186823,0.004632606872584782
132,0.00518045153318225,0.004674523488738531
133,0.005274038844249003,0.004724658387414779
134,0.005205281823165148,0.005059963496309756
135,0.005185151485736676,0.004645027614342893
136,0.0052375768882120316,0.00485409842350876
137,0.005187070104006448,0.004746792005603137
138,0.00521518065265303,0.004844443168602914
139,0.005284933988869882,0.0046151976757482695
140,0.005151021119439788,0.004754327637175912
141,0.005209020759501726,0.004760095064467105
142,0.005179763985410022,0.0048758016180908735
143,0.00515873279993693,0.004736893853007997
144,0.005121782978510468,0.004654039841806947
145,0.005143746372582234,0.004627524600164105
146,0.005318634269246048,0.0048346831742749645
147,0.005176950907491273,0.004873486217232202
148,0.005101877823360175,0.004651765465972052
149,0.005104671457403595,0.004616901995682151
150,0.005126003626908501,0.004617947281020281
151,0.005136135140705326,0.004600019116764352
152,0.005170580677858131,0.004772966129392603
153,0.005164079493011614,0.004591301883837481
154,0.005089853440051238,0.004615159581407046
155,0.005129065485581684,0.004747370159025368
156,0.005162861370619496,0.004644611859067199
157,0.005138914558284874,0.004606132961308095
158,0.005042883844709127,0.0046553150920646035
159,0.005191361327492315,0.004608234695392296
160,0.005049975997722857,0.004724174502267165
161,0.005092439232573056,0.004626922505784595
162,0.005096549880702058,0.004852422971553369
163,0.005067721564021466,0.004613342906430738
164,0.005055219135221073,0.005005306467966804
165,0.0050561686344310535,0.004559359776078204
166,0.004988214972647454,0.004751689418612557
167,0.004999986939203796,0.004669807865665825
168,0.0050285715914388796,0.004715499298387212
169,0.0050530015130052335,0.004793236217939651
170,0.005123604931984189,0.004515929896511373
171,0.0050841511088871565,0.004555386795895741
172,0.00504698815328286,0.0045020263755372264
173,0.005058425169563394,0.004637032542574096
174,0.00501688190730657,0.004520056558892264
175,0.005022682963323901,0.0045355685000116755
176,0.004999486073885885,0.004605790902312848
177,0.005087088000885337,0.004522543398448888
178,0.005038340180050478,0.004576747647855984
179,0.004949150096775712,0.004477432333401254
180,0.004989951767334588,0.004669631899327693
181,0.004978453480430526,0.004432956814812761
182,0.004862262892184124,0.0046114587732602064
183,0.004961904027410526,0.004460823523531768
184,0.004896134390884203,0.00444389395763235
185,0.004997612725424351,0.00452729602271067
186,0.004972370179240302,0.004442570295784583
187,0.004944275590770836,0.00437040480657421
188,0.00489713062063975,0.004364257630426059
189,0.00490771478647478,0.004350495438219108
190,0.004872197428087386,0.0044581648086961315
191,0.0049127171681396025,0.004429111527981477
192,0.00483500283044443,0.004336100838895636
193,0.004932265363341336,0.004646654480982146
194,0.004778549124526264,0.00430769153280729
195,0.0047753423523587335,0.004344906641694582
196,0.004866874557744571,0.004322902868227657
197,0.004849804404062675,0.004586707088727706
198,0.0048260622787579385,0.004444470629851362
199,0.004810527790437719,0.004317281883669185
200,0.0048118130405701166,0.0043584389214774795
201,0.0049011336706259595,0.004343334875852836
202,0.004822785234424748,0.004362807266598466
203,0.004747891760027831,0.004364609561591664
204,0.004793757979338281,0.004284193737784344
205,0.004671233038069774,0.004275237148913154
206,0.004811856068567849,0.004501809591513553
207,0.004814718596620845,0.004264914270925478
208,0.004769291096606297,0.004340596808255057
209,0.00475753571396713,0.004282802821492772
210,0.004844183879595002,0.004276402134505695
211,0.004891310010017384,0.004549711490229727
212,0.004791252184554851,0.004259195709366892
213,0.004788073131723629,0.004380584952390518
214,0.004865244900385698,0.00430405594707623
215,0.004821542366739628,0.0044243794058457875
216,0.004732225862204182,0.00455774077016404
217,0.004752073615373338,0.0044724557507973516
218,0.004880658798650492,0.0044070693200857465
219,0.004830968951183059,0.004318193236814581
220,0.004747992165586512,0.004334138983343966
221,0.004712118256987752,0.0043339251029997795
222,0.004860780833980995,0.004344470000584872
223,0.004813589074024804,0.004336006489989483
224,0.004752863343362156,0.004259776705098002
225,0.004859242540559738,0.004348864250144916
226,0.004752809888689971,0.0043710985595612675
227,0.004701118014031071,0.0043112324442735606
228,0.004818324875041807,0.004577589009806139
229,0.0047803930013632185,0.00430242521994251
230,0.004792652262696881,0.004618976438918059
231,0.004756997757926106,0.004412126998943545
232,0.004697293925059555,0.00426238127783944
233,0.004749741136812992,0.004258094679689623
234,0.004745921862905948,0.004278876166110926
235,0.004750068414116724,0.004482822529729894
236,0.004811442517723927,0.004255908144832818
237,0.004805445737071974,0.004286355996883602
238,0.004795232646799593,0.004384440462998533
239,0.004768821557355915,0.0042706854269059565
240,0.004880294288949276,0.004246067778990639
241,0.004715664810713551,0.004257383168503545
242,0.004782377065922185,0.0043472699184251675
243,0.0048168550856527775,0.004320638616843525
244,0.004752156224953319,0.004774510352483317
245,0.0048174925233864544,0.004530361690010878
246,0.00478184769106052,0.004285974554953204
247,0.004686933416825495,0.004430437662592649
248,0.0048094516902643025,0.004279924869697483
249,0.0047877851729724915,0.004244896817600411
250,0.004696166374160647,0.004340688584316507
251,0.0046900963435714555,0.004335556790725134
252,0.004865144724675042,0.0043299464574604865
253,0.004854470519557762,0.004295395807697704
254,0.004664613002593561,0.004265986707753412
255,0.004798379217798682,0.0043288041480242095
256,0.0048709194378344246,0.004726818802563318
257,0.0047573208185531695,0.004251387027875556
258,0.00479006962988636,0.004265713457672253
259,0.0047443202609871865,0.004312721629448036
260,0.004801535471495364,0.0042973856440921285
261,0.004797805966570782,0.0048762639098485746
262,0.004777788123812339,0.004433605750450156
263,0.004784313531247996,0.00434754644267545
264,0.004746512488631295,0.004249868211272231
265,0.004788596044556261,0.004503187633573477
266,0.004762725221005092,0.004326912893974868
267,0.004722061586395514,0.004383238840286242
268,0.00475714051703795,0.0042748292182955136
269,0.00477107381466791,0.004249551453962257
270,0.00472731964071367,0.004284866901593462
271,0.004797774521012107,0.004503955900297475
272,0.004809296629715971,0.004253517721144412
273,0.0047786035015731695,0.004738695979562482
274,0.004911534225917141,0.00446173137420938
275,0.004736086181227008,0.004512607717066278
276,0.004710826492816914,0.004254033372473857
277,0.004748281698787303,0.004277066341227423
278,0.004634269173357716,0.0042573868161836295
279,0.004799073729239064,0.0042596120137679
