epoch,loss,val_loss
0,1.2945388050390492,0.12620089151152536
1,0.08639059186554413,0.06666343777598352
2,0.06405290413358576,0.059190737668180116
3,0.0611935792158278,0.05682191419183289
4,0.05861566216350079,0.054834689479698905
5,0.056012423785091685,0.052144363948536034
6,0.05320148895068871,0.04976966438719826
7,0.05120242323824842,0.048238525528155586
8,0.049676923917903244,0.04703274947218748
9,0.04865882090562052,0.046783842197759114
10,0.04864461151800984,0.046129549062672616
11,0.048034376024102286,0.05220872479198623
12,0.04774047495473662,0.045583970294864995
13,0.04766747632248102,0.045711093817120727
14,0.04793027467769179,0.04545599119458272
15,0.047315594742448924,0.045241415234764513
16,0.04725056710698492,0.04503509924661697
17,0.04691814977803929,0.04668776858039049
18,0.04669033574630872,0.04482777210954042
19,0.0477918830660699,0.044574224909001606
20,0.04592141284166669,0.043962237345838776
21,0.04522626001754697,0.04315563325452205
22,0.043500262232806036,0.040518269525948135
23,0.039742043150888626,0.036136637602699355
24,0.03614768586319098,0.03311053281899206
25,0.03357822004648998,0.034688444537717154
26,0.03277187190466733,0.03927797104616476
27,0.03186696275227589,0.030779479529228233
28,0.03213947946377236,0.030468699399197576
29,0.03143593064808339,0.030413661366638284
30,0.031091277087159495,0.02983057300279949
31,0.03070301288295928,0.02973245629332265
32,0.03052597477274527,0.02951550605916097
33,0.03043269413747818,0.029349081996233116
34,0.030789277634864526,0.02937802960016045
35,0.03024996110231424,0.029297730976841067
36,0.03036904556183122,0.029425755366743432
37,0.02998016879195161,0.0291696644092805
38,0.029716239703760996,0.02917197229913213
39,0.030116610129097637,0.02886589827425385
40,0.029754699742476687,0.028938182909872507
41,0.02986988631950272,0.028894179561821214
42,0.029628487021995602,0.028990890750690196
43,0.029740147877207176,0.028800450047872364
44,0.029625112274355943,0.028779881239686667
45,0.029705770713410632,0.029210822390874323
46,0.029489701689840605,0.028631742922808227
47,0.029550920736441333,0.028696361294700573
48,0.029600312594798586,0.02848764226922202
49,0.02956945237795337,0.028505420718653262
50,0.029519961289375472,0.028476562838931928
51,0.02939268091381837,0.030733413133235455
52,0.029346245644484358,0.02840219722231374
53,0.029671556700328238,0.028310582077996284
54,0.029414724269277864,0.028273868691010003
55,0.029406405011530492,0.02815100346410168
56,0.029465126155542316,0.02852344756458024
57,0.0340903186313122,0.028406345449381986
58,0.029274938039010386,0.02840938416988697
59,0.02921748655237514,0.028143165104351
60,0.029151534411110718,0.02808553847391385
61,0.029374695925103177,0.05759776050839739
62,0.029113973439443674,0.028738146833622254
63,0.02898772578951929,0.028020456381933727
64,0.029153041143396837,0.028056408525637178
65,0.029039836484935876,0.0281005535283808
66,0.029008330398494955,0.02827258223768955
67,0.02918292418736711,0.02781910655018477
68,0.029113820262605235,0.027859039065357832
69,0.028911145289150404,0.027869501585459575
70,0.02890852969542468,0.027961513723963563
71,0.028907508907721844,0.027744836970825363
72,0.029116377055501824,0.028391426611942484
73,0.031010309574280002,0.03263845017205528
74,0.029120806870076826,0.027800400301040622
75,0.028867256430218563,0.0305999127705336
76,0.02880983492784542,0.02792859879765729
77,0.02913827912880479,0.029078851690378407
78,0.029149241314483605,0.02864327823738692
79,0.02896787791257147,0.028704919126443715
80,0.029145915317740606,0.028019871197139355
81,0.029017955191534838,0.027929319059725514
82,0.028892516457528664,0.029974323973083826
83,0.029276835771681692,0.028481457124117517
84,0.02898841289828738,0.02802678673178417
85,0.029041666094604447,0.02784405628918683
86,0.028865317291348242,0.027825000687575593
87,0.02887210219030718,0.027730785382780135
88,0.028837583990420124,0.027739129365336478
89,0.02887405450340268,0.02771754353628203
90,0.028775884373914346,0.02788465552255572
91,0.028746191521076034,0.02761491253180467
92,0.029000813894576316,0.027869342760593063
93,0.028733419150030547,0.027658050026312556
94,0.02879439740239667,0.027790788342059867
95,0.028895618751931418,0.027617609338337873
96,0.028855180390197053,0.02769541825165569
97,0.0287491457553221,0.027606915791321844
98,0.028805265344792694,0.027916392823567934
99,0.028666325187902627,0.02757748112003927
100,0.028791888913003993,0.02748956761662059
101,0.028583946210549202,0.02745681969087876
102,0.0287272151905575,0.027511825895319118
103,0.028654328807651567,0.027884354133578888
104,0.028842439618501498,0.027565544270226748
105,0.028538677546145728,0.027599858669964453
106,0.028627274748835686,0.027387293416701576
107,0.028518842419891284,0.02739117585503272
108,0.028599452715012148,0.027565341066668792
109,0.02844360809895494,0.027506698635977066
110,0.028488278788647906,0.02756393107752537
111,0.02848360273954246,0.027383511577825766
112,0.02850940930332729,0.027592831072967804
113,0.028508105866306775,0.027397043007484124
114,0.02849891663247867,0.027420655542505726
115,0.028363538045492815,0.027877288948312488
116,0.028536723576205746,0.02769293115509784
117,0.02846799907777861,0.027816850356667002
118,0.028517611329261068,0.027521625928586802
119,0.028623950476046083,0.027587975386684248
120,0.028554826643798138,0.027505257699430134
121,0.028658521062641547,0.027698666309002737
122,0.028425123578338644,0.027630642668282898
123,0.028437947902121574,0.027440286385739903
124,0.02859378241008525,0.027357587971500237
125,0.028414655232233844,0.027356537746300275
126,0.0283968197770888,0.0273993722097427
127,0.028280846377889857,0.027434330563523956
128,0.02842254467827497,0.027326901640443907
129,0.02828197428185621,0.02762849406253876
130,0.02825433629944479,0.027349589276221935
131,0.028258961381568158,0.02737422012825952
132,0.02835928877477077,0.027475807682852
133,0.028295486076795356,0.028290260210029013
134,0.028202972005757453,0.027224982344671564
135,0.02823919654518867,0.027340458647105527
136,0.028146887961640846,0.02715010200955717
137,0.028273335393306443,0.027161188629083486
138,0.02805541262322898,0.027079991990245654
139,0.028038014437827326,0.027022867733182118
140,0.02812326141745687,0.02711077434194349
141,0.028041818983751455,0.027142546512035463
142,0.028003457911294685,0.027160934076643724
143,0.028002108826791886,0.0269079204234812
144,0.02781520699343985,0.027593156747332648
145,0.027969681414021695,0.026916051550865752
146,0.027856002892073007,0.02713584187474564
147,0.02792566373431272,0.02749697321879361
148,0.028199152324536594,0.027137503816481053
149,0.028067069059555486,0.027689784529580395
150,0.029628276871181757,0.027751930926632612
151,0.02822884604233422,0.027588166571422407
152,0.028277442927022663,0.02745572021963726
153,0.028094564009013417,0.027873525894507586
154,0.02818154837724397,0.027638415572598322
155,0.02815133531550296,0.027265407228109707
156,0.028099990450591444,0.027468019582796464
157,0.028137813888197902,0.027467825894892845
158,0.02810741843039795,0.02729800890826009
159,0.0281592213479374,0.02714080210633135
160,0.028050360861148618,0.02704673519981942
161,0.028211247146105747,0.02769390182133042
162,0.028088470073856765,0.02707704542006841
163,0.027961421403004897,0.027043008904931318
164,0.028079393920037533,0.027099800535567584
165,0.02804785061201112,0.027126203645368177
166,0.027954978370268026,0.027656436096408554
167,0.028211386098837356,0.027428214757764427
168,0.027918442150203584,0.02699970650363529
169,0.05159166197719767,0.027342463375974842
170,0.02832154302840666,0.027310908410247997
171,0.0280174703715299,0.027225269509263378
172,0.027918419362999516,0.027143546466965648
173,0.027863844552094504,0.027312091986036166
