epoch,loss,val_loss
0,0.11678690158699949,0.020624974712729453
1,0.020226656616975865,0.016811570858582855
2,0.018876862363889812,0.016740396211855114
3,0.01786191006284207,0.015085652156732977
4,0.01861935499062141,0.015204159203916788
5,0.017600957839749753,0.017062986929900943
6,0.017948941606407365,0.015360023740679025
7,0.017912401330036423,0.01636615396104753
8,0.017856939564148584,0.01639587272424251
9,0.01847235624647389,0.01700409409403801
10,0.018321297163764634,0.01936457376088947
11,0.017831175386905672,0.019723342477343978
12,0.01742565164156258,0.015089477341622115
13,0.01753296907742818,0.015421569341793657
