epoch,loss,val_loss
0,4.015302331734887,0.2141903678842028
1,0.18222728375795844,0.14502429239457929
2,0.1406140046610271,0.11063970511798828
3,0.09995521974859474,0.08071697114786286
4,0.0846320994442897,0.07775857682669926
5,0.07770844270364106,0.07039094701506023
6,0.07378405315564383,0.06742836673353517
7,0.07119969178954537,0.06601887793315685
8,0.0681917555123162,0.0630694056188103
9,0.06535376285950693,0.060099510785678684
10,0.0626848642979029,0.057875292893840545
11,0.060159793488973615,0.05564752564027555
12,0.05867655149357523,0.05276198869772008
13,0.054749476733066446,0.05141326376302689
14,0.05137480814173949,0.04846669140740903
15,0.04897712476199584,0.04371483263537735
16,0.046206240589209226,0.04202266764998533
17,0.044303862087195924,0.04063473731605676
18,0.04297407752602362,0.039206014669652116
19,0.04238561009637731,0.040958686478719995
20,0.04107753651811658,0.03825164088089584
21,0.03993815830420312,0.03698112752775013
22,0.03987548734434993,0.03628663707823649
23,0.03865594177799906,0.03610705522350538
24,0.038550613239240514,0.03508081956368487
25,0.0380158151482777,0.03619666009029526
26,0.037439823830671744,0.03433854629596075
27,0.03691461820862263,0.03354063427071212
28,0.0362960230618763,0.032983786505794296
29,0.035677373846224825,0.0323810339977078
30,0.03501277479281227,0.03193173740309907
31,0.034888765026775716,0.03151965834991969
32,0.03467875613485746,0.03143832389649007
33,0.0342283882528806,0.033909296411461974
34,0.0348845933786958,0.03111028938651665
35,0.034306538275616756,0.03137765811803084
36,0.03412443690980264,0.03110753482287721
37,0.03443745349953659,0.03146058893539706
38,0.034827519169418786,0.03255349561112834
39,0.035025557974357906,0.03313000557456235
40,0.03517850241463503,0.032932911217756516
41,0.03465010707167457,0.03169833229128075
42,0.034720764897340196,0.03201761939664827
43,0.03512508150867169,0.03144003295574552
44,0.03438566627206088,0.03182632106734743
45,0.03428834340899729,0.03071812600417052
46,0.03396958638850549,0.03051487288746714
47,0.03330452966573145,0.030067651291639942
48,0.03267648597035387,0.02963919163547873
49,0.03242233546646096,0.029754020926291053
50,0.03184451229029221,0.029481696129594503
51,0.031206770863434714,0.03063682338188116
52,0.030868952023126395,0.027599275270771516
53,0.030294784761553673,0.026648265175938317
54,0.02909487552099747,0.02668473853095943
55,0.02869609597506668,0.02563952747807934
56,0.028340405733097162,0.02550824666781002
57,0.027151923188216406,0.025283919642804024
58,0.02745880711945989,0.025264657180324283
59,0.026221481315177188,0.025765990146525683
60,0.025948973593292377,0.023049551055487925
61,0.02591765897603537,0.02276710453477219
62,0.025844081210269272,0.02321017005111469
63,0.025312055203559593,0.02226197033129566
64,0.02487247972767815,0.022250557552482283
65,0.02468633979970546,0.02167805977504087
66,0.024767711824231188,0.022470479208707133
67,0.02463060696784547,0.021725997744190047
68,0.02422607873228667,0.021279987594337843
69,0.024117593995755533,0.021450518212747207
70,0.024344984856579568,0.022816999606177852
71,0.024338407856557633,0.0209556771117502
72,0.02495850009278501,0.0210335067921263
73,0.023997778089357626,0.023897978857111275
74,0.024101855445077553,0.021192117637236333
75,0.0234428527395877,0.02065449193216685
76,0.023526462137973526,0.020995583185821846
77,0.02373244144839702,0.023188967180694398
78,0.02375920460349899,0.022116852747480365
79,0.023325013755869158,0.020724809570698745
80,0.02347505329888138,0.02139977939481283
81,0.02365847261961075,0.022202913456770914
82,0.023910005836396384,0.020444463297954345
83,0.02350163356430107,0.021053718032869786
84,0.02299318571177552,0.020672560032738097
85,0.023441037627681197,0.020705056660004197
86,0.023610518158848185,0.020563250655324983
87,0.02297813946409546,0.020592889401816975
88,0.023180508102514773,0.022568633414303395
89,0.0238488265175262,0.022311119004685222
90,0.02421053096777301,0.020836607204857437
91,0.023089597957600967,0.020101480114984492
92,0.022800219538297244,0.021272795176660735
93,0.022508273715432212,0.02012072979727124
94,0.023054296049394542,0.020187180190190782
95,0.02310369840507702,0.02014395234153122
96,0.022559377452055867,0.020885868413435767
97,0.023110201986457368,0.019941272765446365
98,0.02265835198774349,0.019833619158718032
99,0.023521605372768914,0.020326553426217666
100,0.022388881979117974,0.019991693846029376
101,0.022686009390728536,0.021057955023363557
102,0.023321492928531383,0.020452064798128188
103,0.02271439858657823,0.021613231179548394
104,0.02237207282131748,0.01990836645897239
105,0.023024309436239607,0.02179470569475434
106,0.022519727321035916,0.020365602533965216
107,0.022069997219048183,0.019832675034801166
108,0.022172264273079327,0.019785072707358842
109,0.022745783771093698,0.019912899557171754
110,0.02235548177046524,0.019719274426052848
111,0.022157479590587944,0.019743005182391634
112,0.02253420794795784,0.020057776729845943
113,0.022135563998567382,0.02018436217727404
114,0.022326641036771698,0.0197768722451613
115,0.021874295355225677,0.020002548795099773
116,0.021728769532316106,0.0196574340118979
117,0.02196405536149911,0.01931453358143302
118,0.02198574318214237,0.019630844601326518
119,0.021870999711098148,0.01948206315900215
120,0.021958405540449272,0.019743783332993613
121,0.02203476764157331,0.020767568869686958
122,0.021809398933344357,0.019180242830263535
123,0.021670927579930013,0.019220811759015216
124,0.022158512274464002,0.01913913867956772
125,0.02191192851073032,0.01910382292300632
126,0.021824228399104362,0.019468098339554457
127,0.0216568349073943,0.019523709486725847
128,0.022191998606221116,0.019967521970603686
129,0.022428350227089333,0.01934679810015148
130,0.021715840658812737,0.019604651873745476
131,0.022400070201781534,0.02024345585754608
132,0.022716648937065043,0.020732272834806352
133,0.023014867421779467,0.02172421104299616
134,0.023351291483872123,0.021766551614671777
135,0.024055716656208086,0.022356309418151848
136,0.024425324811648615,0.022077351024514857
137,0.02466625132388454,0.022565081011615723
138,0.02463652712820147,0.02268291282296084
139,0.025083243302565464,0.023270217821134944
140,0.02509867174295877,0.02296578670366209
141,0.02561030432647519,0.027499833744735323
142,0.026078242657958172,0.023518611881685567
143,0.027080419205660053,0.02450702298773998
144,0.027069094093491116,0.02474968176144753
145,0.02668173510948117,0.024414491832908922
146,0.027147511045655028,0.02468852441839493
147,0.02726788584998935,0.024819643991271945
148,0.027344821316240022,0.024683406957200844
149,0.02723061427432265,0.02515949106292568
150,0.027165396320965405,0.02583864487296715
151,0.02739356766291577,0.02546033599555178
152,0.027893023584798587,0.025042466651602962
153,0.027292776511336346,0.02469421969386783
154,0.02731830234064447,0.02538116310707264
155,0.027057149276745806,0.0249121803669478
